%!PS-Adobe-2.0 EPSF-2.0
%%Title: source/figures/indoor-scenario-layout.dia
%%Creator: Dia v0.97.2
%%CreationDate: Tue Mar 15 12:38:49 2016
%%For: cttc
%%Orientation: Portrait
%%Magnification: 1.0000
%%BoundingBox: 0 0 869 411
%%BeginSetup
%%EndSetup
%%EndComments
%%BeginProlog
[ /.notdef /.notdef /.notdef /.notdef /.notdef /.notdef /.notdef /.notdef /.notdef /.notdef
/.notdef /.notdef /.notdef /.notdef /.notdef /.notdef /.notdef /.notdef /.notdef /.notdef
/.notdef /.notdef /.notdef /.notdef /.notdef /.notdef /.notdef /.notdef /.notdef /.notdef
/.notdef /.notdef /space /exclam /quotedbl /numbersign /dollar /percent /ampersand /quoteright
/parenleft /parenright /asterisk /plus /comma /hyphen /period /slash /zero /one
/two /three /four /five /six /seven /eight /nine /colon /semicolon
/less /equal /greater /question /at /A /B /C /D /E
/F /G /H /I /J /K /L /M /N /O
/P /Q /R /S /T /U /V /W /X /Y
/Z /bracketleft /backslash /bracketright /asciicircum /underscore /quoteleft /a /b /c
/d /e /f /g /h /i /j /k /l /m
/n /o /p /q /r /s /t /u /v /w
/x /y /z /braceleft /bar /braceright /asciitilde /.notdef /.notdef /.notdef
/.notdef /.notdef /.notdef /.notdef /.notdef /.notdef /.notdef /.notdef /.notdef /.notdef
/.notdef /.notdef /.notdef /.notdef /.notdef /.notdef /.notdef /.notdef /.notdef /.notdef
/.notdef /.notdef /.notdef /.notdef /.notdef /.notdef /.notdef /.notdef /.notdef /.notdef
/space /exclamdown /cent /sterling /currency /yen /brokenbar /section /dieresis /copyright
/ordfeminine /guillemotleft /logicalnot /hyphen /registered /macron /degree /plusminus /twosuperior /threesuperior
/acute /mu /paragraph /periodcentered /cedilla /onesuperior /ordmasculine /guillemotright /onequarter /onehalf
/threequarters /questiondown /Agrave /Aacute /Acircumflex /Atilde /Adieresis /Aring /AE /Ccedilla
/Egrave /Eacute /Ecircumflex /Edieresis /Igrave /Iacute /Icircumflex /Idieresis /Eth /Ntilde
/Ograve /Oacute /Ocircumflex /Otilde /Odieresis /multiply /Oslash /Ugrave /Uacute /Ucircumflex
/Udieresis /Yacute /Thorn /germandbls /agrave /aacute /acircumflex /atilde /adieresis /aring
/ae /ccedilla /egrave /eacute /ecircumflex /edieresis /igrave /iacute /icircumflex /idieresis
/eth /ntilde /ograve /oacute /ocircumflex /otilde /odieresis /divide /oslash /ugrave
/uacute /ucircumflex /udieresis /yacute /thorn /ydieresis] /isolatin1encoding exch def
/cp {closepath} bind def
/c {curveto} bind def
/f {fill} bind def
/a {arc} bind def
/ef {eofill} bind def
/ex {exch} bind def
/gr {grestore} bind def
/gs {gsave} bind def
/sa {save} bind def
/rs {restore} bind def
/l {lineto} bind def
/m {moveto} bind def
/rm {rmoveto} bind def
/n {newpath} bind def
/s {stroke} bind def
/sh {show} bind def
/slc {setlinecap} bind def
/slj {setlinejoin} bind def
/slw {setlinewidth} bind def
/srgb {setrgbcolor} bind def
/rot {rotate} bind def
/sc {scale} bind def
/sd {setdash} bind def
/ff {findfont} bind def
/sf {setfont} bind def
/scf {scalefont} bind def
/sw {stringwidth pop} bind def
/tr {translate} bind def

/ellipsedict 8 dict def
ellipsedict /mtrx matrix put
/ellipse
{ ellipsedict begin
   /endangle exch def
   /startangle exch def
   /yrad exch def
   /xrad exch def
   /y exch def
   /x exch def   /savematrix mtrx currentmatrix def
   x y tr xrad yrad sc
   0 0 1 startangle endangle arc
   savematrix setmatrix
   end
} def

/mergeprocs {
dup length
3 -1 roll
dup
length
dup
5 1 roll
3 -1 roll
add
array cvx
dup
3 -1 roll
0 exch
putinterval
dup
4 2 roll
putinterval
} bind def
/dpi_x 300 def
/dpi_y 300 def
/conicto {
    /to_y exch def
    /to_x exch def
    /conic_cntrl_y exch def
    /conic_cntrl_x exch def
    currentpoint
    /p0_y exch def
    /p0_x exch def
    /p1_x p0_x conic_cntrl_x p0_x sub 2 3 div mul add def
    /p1_y p0_y conic_cntrl_y p0_y sub 2 3 div mul add def
    /p2_x p1_x to_x p0_x sub 1 3 div mul add def
    /p2_y p1_y to_y p0_y sub 1 3 div mul add def
    p1_x p1_y p2_x p2_y to_x to_y curveto
} bind def
/start_ol { gsave 1.1 dpi_x div dup scale} bind def
/end_ol { closepath fill grestore } bind def
28.346000 -28.346000 scale
-2.475000 -18.130000 translate
%%EndProlog


0.100000 slw
[] 0 sd
[] 0 sd
0 slj
1.000000 1.000000 1.000000 srgb
n 5.100000 5.050000 m 5.100000 15.000000 l 33.050000 15.000000 l 33.050000 5.050000 l f
0.000000 0.000000 0.000000 srgb
n 5.100000 5.050000 m 5.100000 15.000000 l 33.050000 15.000000 l 33.050000 5.050000 l cp s
gsave 18.200000 4.500000 translate 0.035278 -0.035278 scale
start_ol
896 512 moveto
1984 512 lineto
1984 4480 lineto
768 4224 lineto
768 4736 lineto
1994 4992 lineto
2688 4992 lineto
2688 512 lineto
3776 512 lineto
3776 0 lineto
896 0 lineto
896 512 lineto
end_ol grestore 
gsave 18.774460 4.500000 translate 0.035278 -0.035278 scale
start_ol
1335 512 moveto
3675 512 lineto
3675 0 lineto
512 0 lineto
512 512 lineto
891 925 1546 1621 conicto
2202 2317 2370 2518 conicto
2690 2897 2817 3159 conicto
2944 3421 2944 3674 conicto
2944 4087 2672 4347 conicto
2400 4608 1964 4608 conicto
1654 4608 1310 4481 conicto
967 4354 576 4096 conicto
576 4800 lineto
979 4958 1329 5039 conicto
1679 5120 1970 5120 conicto
2736 5120 3192 4724 conicto
3648 4328 3648 3666 conicto
3648 3352 3533 3070 conicto
3419 2789 3117 2406 conicto
3034 2307 2589 1834 conicto
2145 1362 1335 512 conicto
end_ol grestore 
gsave 19.348920 4.500000 translate 0.035278 -0.035278 scale
start_ol
2174 4608 moveto
1665 4608 1408 4080 conicto
1152 3553 1152 2494 conicto
1152 1439 1408 911 conicto
1665 384 2174 384 conicto
2687 384 2943 911 conicto
3200 1439 3200 2494 conicto
3200 3553 2943 4080 conicto
2687 4608 2174 4608 conicto
2176 5120 moveto
3017 5120 3460 4447 conicto
3904 3775 3904 2494 conicto
3904 1217 3460 544 conicto
3017 -128 2176 -128 conicto
1335 -128 891 544 conicto
448 1217 448 2494 conicto
448 3775 891 4447 conicto
1335 5120 2176 5120 conicto
end_ol grestore 
gsave 19.923380 4.500000 translate 0.035278 -0.035278 scale
start_ol
end_ol grestore 
gsave 20.210610 4.500000 translate 0.035278 -0.035278 scale
start_ol
3605 3061 moveto
3837 3493 4159 3698 conicto
4482 3904 4918 3904 conicto
5506 3904 5825 3483 conicto
6144 3063 6144 2287 conicto
6144 0 lineto
5504 0 lineto
5504 2266 lineto
5504 2838 5315 3115 conicto
5126 3392 4737 3392 conicto
4263 3392 3987 3056 conicto
3712 2721 3712 2141 conicto
3712 0 lineto
3072 0 lineto
3072 2266 lineto
3072 2841 2883 3116 conicto
2694 3392 2299 3392 conicto
1831 3392 1555 3054 conicto
1280 2717 1280 2141 conicto
1280 0 lineto
640 0 lineto
640 3776 lineto
1280 3776 lineto
1280 3200 lineto
1491 3561 1786 3732 conicto
2081 3904 2486 3904 conicto
2895 3904 3181 3688 conicto
3468 3472 3605 3061 conicto
end_ol grestore 
0.100000 slw
[] 0 sd
[] 0 sd
0 slc
n 21.350000 4.250000 m 32.350000 4.250000 l s
0 slj
n 32.350000 4.500000 m 32.850000 4.250000 l 32.350000 4.000000 l ef
0.100000 slw
[] 0 sd
0 slj
n 32.350000 4.500000 m 32.850000 4.250000 l 32.350000 4.000000 l cp s
0.100000 slw
[] 0 sd
[] 0 sd
0 slc
n 17.850000 4.150000 m 5.650000 4.150000 l s
0 slj
n 5.650000 3.900000 m 5.150000 4.150000 l 5.650000 4.400000 l ef
0.100000 slw
[] 0 sd
0 slj
n 5.650000 3.900000 m 5.150000 4.150000 l 5.650000 4.400000 l cp s
gsave 2.475000 9.365000 translate 0.035278 -0.035278 scale
start_ol
704 4992 moveto
3328 4992 lineto
3328 4480 lineto
1408 4480 lineto
1408 3238 lineto
1549 3283 1690 3305 conicto
1832 3328 1973 3328 conicto
2775 3328 3243 2862 conicto
3712 2396 3712 1600 conicto
3712 780 3215 326 conicto
2718 -128 1814 -128 conicto
1502 -128 1179 -80 conicto
857 -32 512 64 conicto
512 768 lineto
806 574 1119 479 conicto
1433 384 1783 384 conicto
2348 384 2678 711 conicto
3008 1039 3008 1600 conicto
3008 2161 2676 2488 conicto
2344 2816 1775 2816 conicto
1509 2816 1244 2753 conicto
980 2691 704 2560 conicto
704 4992 lineto
end_ol grestore 
gsave 3.049460 9.365000 translate 0.035278 -0.035278 scale
start_ol
2174 4608 moveto
1665 4608 1408 4080 conicto
1152 3553 1152 2494 conicto
1152 1439 1408 911 conicto
1665 384 2174 384 conicto
2687 384 2943 911 conicto
3200 1439 3200 2494 conicto
3200 3553 2943 4080 conicto
2687 4608 2174 4608 conicto
2176 5120 moveto
3017 5120 3460 4447 conicto
3904 3775 3904 2494 conicto
3904 1217 3460 544 conicto
3017 -128 2176 -128 conicto
1335 -128 891 544 conicto
448 1217 448 2494 conicto
448 3775 891 4447 conicto
1335 5120 2176 5120 conicto
end_ol grestore 
gsave 3.623920 9.365000 translate 0.035278 -0.035278 scale
start_ol
end_ol grestore 
gsave 3.911150 9.365000 translate 0.035278 -0.035278 scale
start_ol
3605 3061 moveto
3837 3493 4159 3698 conicto
4482 3904 4918 3904 conicto
5506 3904 5825 3483 conicto
6144 3063 6144 2287 conicto
6144 0 lineto
5504 0 lineto
5504 2266 lineto
5504 2838 5315 3115 conicto
5126 3392 4737 3392 conicto
4263 3392 3987 3056 conicto
3712 2721 3712 2141 conicto
3712 0 lineto
3072 0 lineto
3072 2266 lineto
3072 2841 2883 3116 conicto
2694 3392 2299 3392 conicto
1831 3392 1555 3054 conicto
1280 2717 1280 2141 conicto
1280 0 lineto
640 0 lineto
640 3776 lineto
1280 3776 lineto
1280 3200 lineto
1491 3561 1786 3732 conicto
2081 3904 2486 3904 conicto
2895 3904 3181 3688 conicto
3468 3472 3605 3061 conicto
end_ol grestore 
0.100000 slw
[] 0 sd
[] 0 sd
0 slc
n 3.900000 8.600000 m 3.941792 5.799939 l s
0 slj
n 4.191764 5.803670 m 3.949254 5.299994 l 3.691820 5.796208 l ef
0.100000 slw
[] 0 sd
0 slj
n 4.191764 5.803670 m 3.949254 5.299994 l 3.691820 5.796208 l cp s
0.100000 slw
[] 0 sd
[] 0 sd
0 slc
0 slj
0.100000 slw
0 slc
0 slj
[] 0 sd
1.000000 0.647059 0.000000 srgb
n 8.031250 9.368750 0.468750 0.468750 0 360 ellipse f
0.000000 0.000000 0.000000 srgb
n 8.031250 9.368750 0.468750 0.468750 0 360 ellipse cp s
0 slc
0 slj
[] 0 sd
n 8.031250 9.368750 0.468750 0.468750 0 360 ellipse cp s
0.100000 slw
[] 0 sd
[] 0 sd
0 slc
0 slj
0.100000 slw
0 slc
0 slj
[] 0 sd
1.000000 0.647059 0.000000 srgb
n 14.285450 9.368750 0.468750 0.468750 0 360 ellipse f
0.000000 0.000000 0.000000 srgb
n 14.285450 9.368750 0.468750 0.468750 0 360 ellipse cp s
0 slc
0 slj
[] 0 sd
n 14.285450 9.368750 0.468750 0.468750 0 360 ellipse cp s
0.100000 slw
[] 0 sd
[] 0 sd
0 slc
0 slj
0.100000 slw
0 slc
0 slj
[] 0 sd
1.000000 0.647059 0.000000 srgb
n 20.539550 9.368750 0.468750 0.468750 0 360 ellipse f
0.000000 0.000000 0.000000 srgb
n 20.539550 9.368750 0.468750 0.468750 0 360 ellipse cp s
0 slc
0 slj
[] 0 sd
n 20.539550 9.368750 0.468750 0.468750 0 360 ellipse cp s
0.100000 slw
[] 0 sd
[] 0 sd
0 slc
0 slj
0.100000 slw
0 slc
0 slj
[] 0 sd
1.000000 0.647059 0.000000 srgb
n 26.793750 9.368750 0.468750 0.468750 0 360 ellipse f
0.000000 0.000000 0.000000 srgb
n 26.793750 9.368750 0.468750 0.468750 0 360 ellipse cp s
0 slc
0 slj
[] 0 sd
n 26.793750 9.368750 0.468750 0.468750 0 360 ellipse cp s
0.100000 slw
[] 0 sd
[] 0 sd
0 slc
0 slj
0.100000 slw
0 slc
0 slj
[] 0 sd
0.564706 0.933333 0.564706 srgb
n 10.343750 9.343750 0.468750 0.468750 0 360 ellipse f
0.000000 0.000000 0.000000 srgb
n 10.343750 9.343750 0.468750 0.468750 0 360 ellipse cp s
0 slc
0 slj
[] 0 sd
n 10.343750 9.343750 0.468750 0.468750 0 360 ellipse cp s
0.100000 slw
[] 0 sd
[] 0 sd
0 slc
0 slj
0.100000 slw
0 slc
0 slj
[] 0 sd
0.564706 0.933333 0.564706 srgb
n 16.597950 9.343750 0.468750 0.468750 0 360 ellipse f
0.000000 0.000000 0.000000 srgb
n 16.597950 9.343750 0.468750 0.468750 0 360 ellipse cp s
0 slc
0 slj
[] 0 sd
n 16.597950 9.343750 0.468750 0.468750 0 360 ellipse cp s
0.100000 slw
[] 0 sd
[] 0 sd
0 slc
0 slj
0.100000 slw
0 slc
0 slj
[] 0 sd
0.564706 0.933333 0.564706 srgb
n 22.852050 9.343750 0.468750 0.468750 0 360 ellipse f
0.000000 0.000000 0.000000 srgb
n 22.852050 9.343750 0.468750 0.468750 0 360 ellipse cp s
0 slc
0 slj
[] 0 sd
n 22.852050 9.343750 0.468750 0.468750 0 360 ellipse cp s
0.100000 slw
[] 0 sd
[] 0 sd
0 slc
0 slj
0.100000 slw
0 slc
0 slj
[] 0 sd
0.564706 0.933333 0.564706 srgb
n 29.106250 9.343750 0.468750 0.468750 0 360 ellipse f
0.000000 0.000000 0.000000 srgb
n 29.106250 9.343750 0.468750 0.468750 0 360 ellipse cp s
0 slc
0 slj
[] 0 sd
n 29.106250 9.343750 0.468750 0.468750 0 360 ellipse cp s
0.100000 slw
[] 0 sd
[] 0 sd
0 slc
n 3.950000 9.700000 m 3.950000 14.250000 l s
0 slj
n 3.700000 14.250000 m 3.950000 14.750000 l 4.200000 14.250000 l ef
0.100000 slw
[] 0 sd
0 slj
n 3.700000 14.250000 m 3.950000 14.750000 l 4.200000 14.250000 l cp s
gsave 7.975000 11.665000 translate 0.035278 -0.035278 scale
start_ol
3072 3264 moveto
3072 5184 lineto
3712 5184 lineto
3712 0 lineto
3072 0 lineto
3072 512 lineto
2881 187 2590 29 conicto
2299 -128 1891 -128 conicto
1223 -128 803 427 conicto
384 983 384 1888 conicto
384 2793 803 3348 conicto
1223 3904 1891 3904 conicto
2299 3904 2590 3746 conicto
2881 3589 3072 3264 conicto
1024 1888 moveto
1024 1185 1296 784 conicto
1569 384 2046 384 conicto
2523 384 2797 784 conicto
3072 1185 3072 1888 conicto
3072 2591 2797 2991 conicto
2523 3392 2046 3392 conicto
1569 3392 1296 2991 conicto
1024 2591 1024 1888 conicto
end_ol grestore 
gsave 8.546963 11.665000 translate 0.035278 -0.035278 scale
start_ol
640 3776 moveto
1280 3776 lineto
1280 0 lineto
640 0 lineto
640 3776 lineto
640 5184 moveto
1280 5184 lineto
1280 4416 lineto
640 4416 lineto
640 5184 lineto
end_ol grestore 
gsave 8.796730 11.665000 translate 0.035278 -0.035278 scale
start_ol
3008 3712 moveto
3008 3136 lineto
2754 3264 2481 3328 conicto
2208 3392 1915 3392 conicto
1470 3392 1247 3249 conicto
1024 3106 1024 2819 conicto
1024 2601 1180 2476 conicto
1337 2352 1810 2240 conicto
2011 2192 lineto
2657 2047 2928 1782 conicto
3200 1517 3200 1042 conicto
3200 502 2793 187 conicto
2387 -128 1677 -128 conicto
1381 -128 1060 -64 conicto
739 0 384 128 conicto
384 768 lineto
717 576 1040 480 conicto
1363 384 1679 384 conicto
2103 384 2331 540 conicto
2560 697 2560 982 conicto
2560 1246 2398 1386 conicto
2237 1527 1691 1657 conicto
1487 1709 lineto
903 1832 643 2085 conicto
384 2339 384 2781 conicto
384 3319 757 3611 conicto
1130 3904 1816 3904 conicto
2156 3904 2455 3856 conicto
2755 3808 3008 3712 conicto
end_ol grestore 
gsave 9.266291 11.665000 translate 0.035278 -0.035278 scale
start_ol
1280 4864 moveto
1280 3776 lineto
2560 3776 lineto
2560 3328 lineto
1280 3328 lineto
1280 1248 lineto
1280 779 1406 645 conicto
1533 512 1922 512 conicto
2560 512 lineto
2560 0 lineto
1922 0 lineto
1194 0 917 269 conicto
640 538 640 1248 conicto
640 3328 lineto
192 3328 lineto
192 3776 lineto
640 3776 lineto
640 4864 lineto
1280 4864 lineto
end_ol grestore 
gsave 9.620956 11.665000 translate 0.035278 -0.035278 scale
start_ol
2292 1920 moveto
1576 1920 1300 1741 conicto
1024 1562 1024 1131 conicto
1024 787 1231 585 conicto
1438 384 1795 384 conicto
2286 384 2583 763 conicto
2880 1143 2880 1773 conicto
2880 1920 lineto
2292 1920 lineto
3520 2156 moveto
3520 0 lineto
2880 0 lineto
2880 512 lineto
2674 184 2366 28 conicto
2058 -128 1612 -128 conicto
1049 -128 716 199 conicto
384 527 384 1076 conicto
384 1717 802 2042 conicto
1221 2368 2052 2368 conicto
2880 2368 lineto
2880 2434 lineto
2880 2891 2605 3141 conicto
2330 3392 1832 3392 conicto
1516 3392 1216 3312 conicto
917 3232 640 3072 conicto
640 3648 lineto
977 3776 1293 3840 conicto
1610 3904 1910 3904 conicto
2720 3904 3120 3470 conicto
3520 3037 3520 2156 conicto
end_ol grestore 
gsave 10.172935 11.665000 translate 0.035278 -0.035278 scale
start_ol
3776 2287 moveto
3776 0 lineto
3136 0 lineto
3136 2266 lineto
3136 2831 2934 3111 conicto
2732 3392 2327 3392 conicto
1841 3392 1560 3056 conicto
1280 2721 1280 2141 conicto
1280 0 lineto
640 0 lineto
640 3776 lineto
1280 3776 lineto
1280 3200 lineto
1499 3554 1795 3729 conicto
2092 3904 2480 3904 conicto
3120 3904 3448 3493 conicto
3776 3083 3776 2287 conicto
end_ol grestore 
gsave 10.744898 11.665000 translate 0.035278 -0.035278 scale
start_ol
3328 3648 moveto
3328 3072 lineto
3068 3232 2807 3312 conicto
2546 3392 2279 3392 conicto
1683 3392 1353 2997 conicto
1024 2602 1024 1888 conicto
1024 1174 1353 779 conicto
1683 384 2279 384 conicto
2546 384 2807 448 conicto
3068 512 3328 640 conicto
3328 64 lineto
3072 -32 2798 -80 conicto
2524 -128 2215 -128 conicto
1374 -128 879 417 conicto
384 962 384 1888 conicto
384 2827 884 3365 conicto
1384 3904 2255 3904 conicto
2537 3904 2806 3840 conicto
3075 3776 3328 3648 conicto
end_ol grestore 
gsave 11.241926 11.665000 translate 0.035278 -0.035278 scale
start_ol
3840 2072 moveto
3840 1792 lineto
1024 1792 lineto
1064 1104 1407 744 conicto
1750 384 2363 384 conicto
2718 384 3051 464 conicto
3384 544 3712 704 conicto
3712 128 lineto
3381 3 3033 -62 conicto
2685 -128 2327 -128 conicto
1431 -128 907 407 conicto
384 942 384 1854 conicto
384 2797 878 3350 conicto
1373 3904 2212 3904 conicto
2964 3904 3402 3411 conicto
3840 2919 3840 2072 conicto
3200 2240 moveto
3193 2766 2922 3079 conicto
2651 3392 2204 3392 conicto
1698 3392 1394 3089 conicto
1090 2786 1044 2237 conicto
3200 2240 lineto
end_ol grestore 
gsave 11.796402 11.665000 translate 0.035278 -0.035278 scale
start_ol
end_ol grestore 
gsave 12.083632 11.665000 translate 0.035278 -0.035278 scale
start_ol
3072 3264 moveto
3072 5184 lineto
3712 5184 lineto
3712 0 lineto
3072 0 lineto
3072 512 lineto
2881 187 2590 29 conicto
2299 -128 1891 -128 conicto
1223 -128 803 427 conicto
384 983 384 1888 conicto
384 2793 803 3348 conicto
1223 3904 1891 3904 conicto
2299 3904 2590 3746 conicto
2881 3589 3072 3264 conicto
1024 1888 moveto
1024 1185 1296 784 conicto
1569 384 2046 384 conicto
2523 384 2797 784 conicto
3072 1185 3072 1888 conicto
3072 2591 2797 2991 conicto
2523 3392 2046 3392 conicto
1569 3392 1296 2991 conicto
1024 2591 1024 1888 conicto
end_ol grestore 
0.100000 slw
[] 0 sd
[] 0 sd
0 slc
n 8.299898 10.510575 m 9.800102 10.539425 l s
0 slj
n 8.304705 10.260621 m 7.799991 10.500961 l 8.295092 10.760529 l ef
0.100000 slw
[] 0 sd
0 slj
n 8.304705 10.260621 m 7.799991 10.500961 l 8.295092 10.760529 l cp s
0 slj
n 9.795295 10.789379 m 10.300009 10.549039 l 9.804908 10.289471 l ef
0.100000 slw
[] 0 sd
0 slj
n 9.795295 10.789379 m 10.300009 10.549039 l 9.804908 10.289471 l cp s
0.100000 slw
[] 0 sd
[] 0 sd
0 slc
0 slj
0.100000 slw
0 slc
0 slj
[] 0 sd
1.000000 0.647059 0.000000 srgb
n 16.321200 6.022210 m 16.646200 6.922210 l 15.996200 6.922210 l ef
0.000000 0.000000 0.000000 srgb
n 16.321200 6.022210 m 16.646200 6.922210 l 15.996200 6.922210 l cp s
0.100000 slw
[] 0 sd
[] 0 sd
0 slc
0 slj
0.100000 slw
0 slc
0 slj
[] 0 sd
0.000000 1.000000 0.000000 srgb
n 20.771200 11.872200 m 21.096200 12.772200 l 20.446200 12.772200 l ef
0.000000 0.000000 0.000000 srgb
n 20.771200 11.872200 m 21.096200 12.772200 l 20.446200 12.772200 l cp s
0.100000 slw
[] 0 sd
[] 0 sd
0 slc
0 slj
0.100000 slw
0 slc
0 slj
[] 0 sd
0.000000 1.000000 0.000000 srgb
n 22.071200 6.022210 m 22.396200 6.922210 l 21.746200 6.922210 l ef
0.000000 0.000000 0.000000 srgb
n 22.071200 6.022210 m 22.396200 6.922210 l 21.746200 6.922210 l cp s
0.100000 slw
[] 0 sd
[] 0 sd
0 slc
0 slj
0.100000 slw
0 slc
0 slj
[] 0 sd
0.000000 1.000000 0.000000 srgb
n 18.271200 6.822210 m 18.596200 7.722210 l 17.946200 7.722210 l ef
0.000000 0.000000 0.000000 srgb
n 18.271200 6.822210 m 18.596200 7.722210 l 17.946200 7.722210 l cp s
0.100000 slw
[] 0 sd
[] 0 sd
0 slc
0 slj
0.100000 slw
0 slc
0 slj
[] 0 sd
0.000000 1.000000 0.000000 srgb
n 31.171200 5.772210 m 31.496200 6.672210 l 30.846200 6.672210 l ef
0.000000 0.000000 0.000000 srgb
n 31.171200 5.772210 m 31.496200 6.672210 l 30.846200 6.672210 l cp s
0.100000 slw
[] 0 sd
[] 0 sd
0 slc
0 slj
0.100000 slw
0 slc
0 slj
[] 0 sd
0.000000 1.000000 0.000000 srgb
n 8.371220 6.172210 m 8.696220 7.072210 l 8.046220 7.072210 l ef
0.000000 0.000000 0.000000 srgb
n 8.371220 6.172210 m 8.696220 7.072210 l 8.046220 7.072210 l cp s
0.100000 slw
[] 0 sd
[] 0 sd
0 slc
0 slj
0.100000 slw
0 slc
0 slj
[] 0 sd
0.000000 1.000000 0.000000 srgb
n 7.021220 12.022200 m 7.346220 12.922200 l 6.696220 12.922200 l ef
0.000000 0.000000 0.000000 srgb
n 7.021220 12.022200 m 7.346220 12.922200 l 6.696220 12.922200 l cp s
0.100000 slw
[] 0 sd
[] 0 sd
0 slc
0 slj
0.100000 slw
0 slc
0 slj
[] 0 sd
0.000000 1.000000 0.000000 srgb
n 26.571200 12.472200 m 26.896200 13.372200 l 26.246200 13.372200 l ef
0.000000 0.000000 0.000000 srgb
n 26.571200 12.472200 m 26.896200 13.372200 l 26.246200 13.372200 l cp s
0.100000 slw
[] 0 sd
[] 0 sd
0 slc
0 slj
0.100000 slw
0 slc
0 slj
[] 0 sd
0.000000 1.000000 0.000000 srgb
n 29.621200 11.172200 m 29.946200 12.072200 l 29.296200 12.072200 l ef
0.000000 0.000000 0.000000 srgb
n 29.621200 11.172200 m 29.946200 12.072200 l 29.296200 12.072200 l cp s
0.100000 slw
[] 0 sd
[] 0 sd
0 slc
0 slj
0.100000 slw
0 slc
0 slj
[] 0 sd
1.000000 0.647059 0.000000 srgb
n 11.771200 6.872210 m 12.096200 7.772210 l 11.446200 7.772210 l ef
0.000000 0.000000 0.000000 srgb
n 11.771200 6.872210 m 12.096200 7.772210 l 11.446200 7.772210 l cp s
0.100000 slw
[] 0 sd
[] 0 sd
0 slc
0 slj
0.100000 slw
0 slc
0 slj
[] 0 sd
1.000000 0.647059 0.000000 srgb
n 13.521200 12.722200 m 13.846200 13.622200 l 13.196200 13.622200 l ef
0.000000 0.000000 0.000000 srgb
n 13.521200 12.722200 m 13.846200 13.622200 l 13.196200 13.622200 l cp s
0.100000 slw
[] 0 sd
[] 0 sd
0 slc
0 slj
0.100000 slw
0 slc
0 slj
[] 0 sd
1.000000 0.647059 0.000000 srgb
n 25.421200 6.972210 m 25.746200 7.872210 l 25.096200 7.872210 l ef
0.000000 0.000000 0.000000 srgb
n 25.421200 6.972210 m 25.746200 7.872210 l 25.096200 7.872210 l cp s
0.100000 slw
[] 0 sd
[] 0 sd
0 slc
0 slj
0.100000 slw
0 slc
0 slj
[] 0 sd
1.000000 0.647059 0.000000 srgb
n 10.446200 5.197210 m 10.771200 6.097210 l 10.121200 6.097210 l ef
0.000000 0.000000 0.000000 srgb
n 10.446200 5.197210 m 10.771200 6.097210 l 10.121200 6.097210 l cp s
0.100000 slw
[] 0 sd
[] 0 sd
0 slc
0 slj
0.100000 slw
0 slc
0 slj
[] 0 sd
1.000000 0.647059 0.000000 srgb
n 18.071200 13.222200 m 18.396200 14.122200 l 17.746200 14.122200 l ef
0.000000 0.000000 0.000000 srgb
n 18.071200 13.222200 m 18.396200 14.122200 l 17.746200 14.122200 l cp s
0.100000 slw
[] 0 sd
[] 0 sd
0 slc
0 slj
0.100000 slw
0 slc
0 slj
[] 0 sd
1.000000 0.647059 0.000000 srgb
n 30.546200 13.647200 m 30.871200 14.547200 l 30.221200 14.547200 l ef
0.000000 0.000000 0.000000 srgb
n 30.546200 13.647200 m 30.871200 14.547200 l 30.221200 14.547200 l cp s
0.100000 slw
[] 0 sd
[] 0 sd
0 slc
0 slj
0.100000 slw
0 slc
0 slj
[] 0 sd
1.000000 0.647059 0.000000 srgb
n 7.521220 16.922200 m 7.846220 17.822200 l 7.196220 17.822200 l ef
0.000000 0.000000 0.000000 srgb
n 7.521220 16.922200 m 7.846220 17.822200 l 7.196220 17.822200 l cp s
0.100000 slw
[] 0 sd
[] 0 sd
0 slc
0 slj
0.100000 slw
0 slc
0 slj
[] 0 sd
1.000000 0.647059 0.000000 srgb
n 7.650000 15.900000 0.400000 0.400000 0 360 ellipse f
0.000000 0.000000 0.000000 srgb
n 7.650000 15.900000 0.400000 0.400000 0 360 ellipse cp s
0 slc
0 slj
[] 0 sd
n 7.650000 15.900000 0.400000 0.400000 0 360 ellipse cp s
gsave 9.275000 16.215000 translate 0.035278 -0.035278 scale
start_ol
3328 1888 moveto
3328 2591 3055 2991 conicto
2782 3392 2304 3392 conicto
1826 3392 1553 2991 conicto
1280 2591 1280 1888 conicto
1280 1185 1553 784 conicto
1826 384 2304 384 conicto
2782 384 3055 784 conicto
3328 1185 3328 1888 conicto
1280 3264 moveto
1471 3589 1762 3746 conicto
2053 3904 2458 3904 conicto
3129 3904 3548 3348 conicto
3968 2793 3968 1888 conicto
3968 983 3548 427 conicto
3129 -128 2458 -128 conicto
2053 -128 1762 29 conicto
1471 187 1280 512 conicto
1280 0 lineto
640 0 lineto
640 5184 lineto
1280 5184 lineto
1280 3264 lineto
end_ol grestore 
gsave 9.846963 16.215000 translate 0.035278 -0.035278 scale
start_ol
2292 1920 moveto
1576 1920 1300 1741 conicto
1024 1562 1024 1131 conicto
1024 787 1231 585 conicto
1438 384 1795 384 conicto
2286 384 2583 763 conicto
2880 1143 2880 1773 conicto
2880 1920 lineto
2292 1920 lineto
3520 2156 moveto
3520 0 lineto
2880 0 lineto
2880 512 lineto
2674 184 2366 28 conicto
2058 -128 1612 -128 conicto
1049 -128 716 199 conicto
384 527 384 1076 conicto
384 1717 802 2042 conicto
1221 2368 2052 2368 conicto
2880 2368 lineto
2880 2434 lineto
2880 2891 2605 3141 conicto
2330 3392 1832 3392 conicto
1516 3392 1216 3312 conicto
917 3232 640 3072 conicto
640 3648 lineto
977 3776 1293 3840 conicto
1610 3904 1910 3904 conicto
2720 3904 3120 3470 conicto
3520 3037 3520 2156 conicto
end_ol grestore 
gsave 10.398942 16.215000 translate 0.035278 -0.035278 scale
start_ol
3008 3712 moveto
3008 3136 lineto
2754 3264 2481 3328 conicto
2208 3392 1915 3392 conicto
1470 3392 1247 3249 conicto
1024 3106 1024 2819 conicto
1024 2601 1180 2476 conicto
1337 2352 1810 2240 conicto
2011 2192 lineto
2657 2047 2928 1782 conicto
3200 1517 3200 1042 conicto
3200 502 2793 187 conicto
2387 -128 1677 -128 conicto
1381 -128 1060 -64 conicto
739 0 384 128 conicto
384 768 lineto
717 576 1040 480 conicto
1363 384 1679 384 conicto
2103 384 2331 540 conicto
2560 697 2560 982 conicto
2560 1246 2398 1386 conicto
2237 1527 1691 1657 conicto
1487 1709 lineto
903 1832 643 2085 conicto
384 2339 384 2781 conicto
384 3319 757 3611 conicto
1130 3904 1816 3904 conicto
2156 3904 2455 3856 conicto
2755 3808 3008 3712 conicto
end_ol grestore 
gsave 10.868503 16.215000 translate 0.035278 -0.035278 scale
start_ol
3840 2072 moveto
3840 1792 lineto
1024 1792 lineto
1064 1104 1407 744 conicto
1750 384 2363 384 conicto
2718 384 3051 464 conicto
3384 544 3712 704 conicto
3712 128 lineto
3381 3 3033 -62 conicto
2685 -128 2327 -128 conicto
1431 -128 907 407 conicto
384 942 384 1854 conicto
384 2797 878 3350 conicto
1373 3904 2212 3904 conicto
2964 3904 3402 3411 conicto
3840 2919 3840 2072 conicto
3200 2240 moveto
3193 2766 2922 3079 conicto
2651 3392 2204 3392 conicto
1698 3392 1394 3089 conicto
1090 2786 1044 2237 conicto
3200 2240 lineto
end_ol grestore 
gsave 11.422978 16.215000 translate 0.035278 -0.035278 scale
start_ol
end_ol grestore 
gsave 11.710208 16.215000 translate 0.035278 -0.035278 scale
start_ol
3008 3712 moveto
3008 3136 lineto
2754 3264 2481 3328 conicto
2208 3392 1915 3392 conicto
1470 3392 1247 3249 conicto
1024 3106 1024 2819 conicto
1024 2601 1180 2476 conicto
1337 2352 1810 2240 conicto
2011 2192 lineto
2657 2047 2928 1782 conicto
3200 1517 3200 1042 conicto
3200 502 2793 187 conicto
2387 -128 1677 -128 conicto
1381 -128 1060 -64 conicto
739 0 384 128 conicto
384 768 lineto
717 576 1040 480 conicto
1363 384 1679 384 conicto
2103 384 2331 540 conicto
2560 697 2560 982 conicto
2560 1246 2398 1386 conicto
2237 1527 1691 1657 conicto
1487 1709 lineto
903 1832 643 2085 conicto
384 2339 384 2781 conicto
384 3319 757 3611 conicto
1130 3904 1816 3904 conicto
2156 3904 2455 3856 conicto
2755 3808 3008 3712 conicto
end_ol grestore 
gsave 12.179769 16.215000 translate 0.035278 -0.035278 scale
start_ol
1280 4864 moveto
1280 3776 lineto
2560 3776 lineto
2560 3328 lineto
1280 3328 lineto
1280 1248 lineto
1280 779 1406 645 conicto
1533 512 1922 512 conicto
2560 512 lineto
2560 0 lineto
1922 0 lineto
1194 0 917 269 conicto
640 538 640 1248 conicto
640 3328 lineto
192 3328 lineto
192 3776 lineto
640 3776 lineto
640 4864 lineto
1280 4864 lineto
end_ol grestore 
gsave 12.534435 16.215000 translate 0.035278 -0.035278 scale
start_ol
2292 1920 moveto
1576 1920 1300 1741 conicto
1024 1562 1024 1131 conicto
1024 787 1231 585 conicto
1438 384 1795 384 conicto
2286 384 2583 763 conicto
2880 1143 2880 1773 conicto
2880 1920 lineto
2292 1920 lineto
3520 2156 moveto
3520 0 lineto
2880 0 lineto
2880 512 lineto
2674 184 2366 28 conicto
2058 -128 1612 -128 conicto
1049 -128 716 199 conicto
384 527 384 1076 conicto
384 1717 802 2042 conicto
1221 2368 2052 2368 conicto
2880 2368 lineto
2880 2434 lineto
2880 2891 2605 3141 conicto
2330 3392 1832 3392 conicto
1516 3392 1216 3312 conicto
917 3232 640 3072 conicto
640 3648 lineto
977 3776 1293 3840 conicto
1610 3904 1910 3904 conicto
2720 3904 3120 3470 conicto
3520 3037 3520 2156 conicto
end_ol grestore 
gsave 13.086414 16.215000 translate 0.035278 -0.035278 scale
start_ol
1280 4864 moveto
1280 3776 lineto
2560 3776 lineto
2560 3328 lineto
1280 3328 lineto
1280 1248 lineto
1280 779 1406 645 conicto
1533 512 1922 512 conicto
2560 512 lineto
2560 0 lineto
1922 0 lineto
1194 0 917 269 conicto
640 538 640 1248 conicto
640 3328 lineto
192 3328 lineto
192 3776 lineto
640 3776 lineto
640 4864 lineto
1280 4864 lineto
end_ol grestore 
gsave 13.441080 16.215000 translate 0.035278 -0.035278 scale
start_ol
640 3776 moveto
1280 3776 lineto
1280 0 lineto
640 0 lineto
640 3776 lineto
640 5184 moveto
1280 5184 lineto
1280 4416 lineto
640 4416 lineto
640 5184 lineto
end_ol grestore 
gsave 13.690846 16.215000 translate 0.035278 -0.035278 scale
start_ol
2114 3392 moveto
1610 3392 1317 2990 conicto
1024 2588 1024 1888 conicto
1024 1188 1315 786 conicto
1606 384 2114 384 conicto
2614 384 2907 788 conicto
3200 1192 3200 1888 conicto
3200 2581 2907 2986 conicto
2614 3392 2114 3392 conicto
2112 3904 moveto
2919 3904 3379 3369 conicto
3840 2834 3840 1888 conicto
3840 945 3379 408 conicto
2919 -128 2112 -128 conicto
1302 -128 843 408 conicto
384 945 384 1888 conicto
384 2834 843 3369 conicto
1302 3904 2112 3904 conicto
end_ol grestore 
gsave 14.242825 16.215000 translate 0.035278 -0.035278 scale
start_ol
3776 2287 moveto
3776 0 lineto
3136 0 lineto
3136 2266 lineto
3136 2831 2934 3111 conicto
2732 3392 2327 3392 conicto
1841 3392 1560 3056 conicto
1280 2721 1280 2141 conicto
1280 0 lineto
640 0 lineto
640 3776 lineto
1280 3776 lineto
1280 3200 lineto
1499 3554 1795 3729 conicto
2092 3904 2480 3904 conicto
3120 3904 3448 3493 conicto
3776 3083 3776 2287 conicto
end_ol grestore 
gsave 14.814788 16.215000 translate 0.035278 -0.035278 scale
start_ol
end_ol grestore 
gsave 15.102018 16.215000 translate 0.035278 -0.035278 scale
start_ol
2560 5184 moveto
2560 4672 lineto
2003 4672 lineto
1668 4672 1538 4545 conicto
1408 4419 1408 4089 conicto
1408 3776 lineto
2432 3776 lineto
2432 3328 lineto
1408 3328 lineto
1408 0 lineto
768 0 lineto
768 3328 lineto
192 3328 lineto
192 3776 lineto
768 3776 lineto
768 4023 lineto
768 4629 1065 4906 conicto
1363 5184 2010 5184 conicto
2560 5184 lineto
end_ol grestore 
gsave 15.419220 16.215000 translate 0.035278 -0.035278 scale
start_ol
2114 3392 moveto
1610 3392 1317 2990 conicto
1024 2588 1024 1888 conicto
1024 1188 1315 786 conicto
1606 384 2114 384 conicto
2614 384 2907 788 conicto
3200 1192 3200 1888 conicto
3200 2581 2907 2986 conicto
2614 3392 2114 3392 conicto
2112 3904 moveto
2919 3904 3379 3369 conicto
3840 2834 3840 1888 conicto
3840 945 3379 408 conicto
2919 -128 2112 -128 conicto
1302 -128 843 408 conicto
384 945 384 1888 conicto
384 2834 843 3369 conicto
1302 3904 2112 3904 conicto
end_ol grestore 
gsave 15.971199 16.215000 translate 0.035278 -0.035278 scale
start_ol
2816 3200 moveto
2715 3266 2596 3297 conicto
2477 3328 2333 3328 conicto
1825 3328 1552 2984 conicto
1280 2640 1280 1996 conicto
1280 0 lineto
640 0 lineto
640 3776 lineto
1280 3776 lineto
1280 3200 lineto
1469 3557 1772 3730 conicto
2076 3904 2509 3904 conicto
2571 3904 2646 3888 conicto
2721 3872 2813 3840 conicto
2816 3200 lineto
end_ol grestore 
gsave 16.343344 16.215000 translate 0.035278 -0.035278 scale
start_ol
end_ol grestore 
gsave 16.630574 16.215000 translate 0.035278 -0.035278 scale
start_ol
2114 3392 moveto
1610 3392 1317 2990 conicto
1024 2588 1024 1888 conicto
1024 1188 1315 786 conicto
1606 384 2114 384 conicto
2614 384 2907 788 conicto
3200 1192 3200 1888 conicto
3200 2581 2907 2986 conicto
2614 3392 2114 3392 conicto
2112 3904 moveto
2919 3904 3379 3369 conicto
3840 2834 3840 1888 conicto
3840 945 3379 408 conicto
2919 -128 2112 -128 conicto
1302 -128 843 408 conicto
384 945 384 1888 conicto
384 2834 843 3369 conicto
1302 3904 2112 3904 conicto
end_ol grestore 
gsave 17.182552 16.215000 translate 0.035278 -0.035278 scale
start_ol
1280 512 moveto
1280 -1408 lineto
640 -1408 lineto
640 3776 lineto
1280 3776 lineto
1280 3264 lineto
1471 3589 1762 3746 conicto
2053 3904 2458 3904 conicto
3129 3904 3548 3348 conicto
3968 2793 3968 1888 conicto
3968 983 3548 427 conicto
3129 -128 2458 -128 conicto
2053 -128 1762 29 conicto
1471 187 1280 512 conicto
3328 1888 moveto
3328 2591 3055 2991 conicto
2782 3392 2304 3392 conicto
1826 3392 1553 2991 conicto
1280 2591 1280 1888 conicto
1280 1185 1553 784 conicto
1826 384 2304 384 conicto
2782 384 3055 784 conicto
3328 1185 3328 1888 conicto
end_ol grestore 
gsave 17.754515 16.215000 translate 0.035278 -0.035278 scale
start_ol
3840 2072 moveto
3840 1792 lineto
1024 1792 lineto
1064 1104 1407 744 conicto
1750 384 2363 384 conicto
2718 384 3051 464 conicto
3384 544 3712 704 conicto
3712 128 lineto
3381 3 3033 -62 conicto
2685 -128 2327 -128 conicto
1431 -128 907 407 conicto
384 942 384 1854 conicto
384 2797 878 3350 conicto
1373 3904 2212 3904 conicto
2964 3904 3402 3411 conicto
3840 2919 3840 2072 conicto
3200 2240 moveto
3193 2766 2922 3079 conicto
2651 3392 2204 3392 conicto
1698 3392 1394 3089 conicto
1090 2786 1044 2237 conicto
3200 2240 lineto
end_ol grestore 
gsave 18.308991 16.215000 translate 0.035278 -0.035278 scale
start_ol
2816 3200 moveto
2715 3266 2596 3297 conicto
2477 3328 2333 3328 conicto
1825 3328 1552 2984 conicto
1280 2640 1280 1996 conicto
1280 0 lineto
640 0 lineto
640 3776 lineto
1280 3776 lineto
1280 3200 lineto
1469 3557 1772 3730 conicto
2076 3904 2509 3904 conicto
2571 3904 2646 3888 conicto
2721 3872 2813 3840 conicto
2816 3200 lineto
end_ol grestore 
gsave 18.681136 16.215000 translate 0.035278 -0.035278 scale
start_ol
2292 1920 moveto
1576 1920 1300 1741 conicto
1024 1562 1024 1131 conicto
1024 787 1231 585 conicto
1438 384 1795 384 conicto
2286 384 2583 763 conicto
2880 1143 2880 1773 conicto
2880 1920 lineto
2292 1920 lineto
3520 2156 moveto
3520 0 lineto
2880 0 lineto
2880 512 lineto
2674 184 2366 28 conicto
2058 -128 1612 -128 conicto
1049 -128 716 199 conicto
384 527 384 1076 conicto
384 1717 802 2042 conicto
1221 2368 2052 2368 conicto
2880 2368 lineto
2880 2434 lineto
2880 2891 2605 3141 conicto
2330 3392 1832 3392 conicto
1516 3392 1216 3312 conicto
917 3232 640 3072 conicto
640 3648 lineto
977 3776 1293 3840 conicto
1610 3904 1910 3904 conicto
2720 3904 3120 3470 conicto
3520 3037 3520 2156 conicto
end_ol grestore 
gsave 19.233115 16.215000 translate 0.035278 -0.035278 scale
start_ol
1280 4864 moveto
1280 3776 lineto
2560 3776 lineto
2560 3328 lineto
1280 3328 lineto
1280 1248 lineto
1280 779 1406 645 conicto
1533 512 1922 512 conicto
2560 512 lineto
2560 0 lineto
1922 0 lineto
1194 0 917 269 conicto
640 538 640 1248 conicto
640 3328 lineto
192 3328 lineto
192 3776 lineto
640 3776 lineto
640 4864 lineto
1280 4864 lineto
end_ol grestore 
gsave 19.587780 16.215000 translate 0.035278 -0.035278 scale
start_ol
2114 3392 moveto
1610 3392 1317 2990 conicto
1024 2588 1024 1888 conicto
1024 1188 1315 786 conicto
1606 384 2114 384 conicto
2614 384 2907 788 conicto
3200 1192 3200 1888 conicto
3200 2581 2907 2986 conicto
2614 3392 2114 3392 conicto
2112 3904 moveto
2919 3904 3379 3369 conicto
3840 2834 3840 1888 conicto
3840 945 3379 408 conicto
2919 -128 2112 -128 conicto
1302 -128 843 408 conicto
384 945 384 1888 conicto
384 2834 843 3369 conicto
1302 3904 2112 3904 conicto
end_ol grestore 
gsave 20.139759 16.215000 translate 0.035278 -0.035278 scale
start_ol
2816 3200 moveto
2715 3266 2596 3297 conicto
2477 3328 2333 3328 conicto
1825 3328 1552 2984 conicto
1280 2640 1280 1996 conicto
1280 0 lineto
640 0 lineto
640 3776 lineto
1280 3776 lineto
1280 3200 lineto
1469 3557 1772 3730 conicto
2076 3904 2509 3904 conicto
2571 3904 2646 3888 conicto
2721 3872 2813 3840 conicto
2816 3200 lineto
end_ol grestore 
gsave 20.511904 16.215000 translate 0.035278 -0.035278 scale
start_ol
end_ol grestore 
gsave 20.799134 16.215000 translate 0.035278 -0.035278 scale
start_ol
2336 4330 moveto
1426 1856 lineto
3249 1856 lineto
2336 4330 lineto
1957 4992 moveto
2718 4992 lineto
4608 0 lineto
3910 0 lineto
3459 1280 lineto
1223 1280 lineto
772 0 lineto
64 0 lineto
1957 4992 lineto
end_ol grestore 
gsave 9.075000 17.915000 translate 0.035278 -0.035278 scale
start_ol
576 4992 moveto
1280 4992 lineto
1280 1957 lineto
1280 1154 1567 801 conicto
1854 448 2498 448 conicto
3138 448 3425 801 conicto
3712 1154 3712 1957 conicto
3712 4992 lineto
4416 4992 lineto
4416 1873 lineto
4416 883 3930 377 conicto
3445 -128 2498 -128 conicto
1547 -128 1061 377 conicto
576 883 576 1873 conicto
576 4992 lineto
end_ol grestore 
gsave 9.734383 17.915000 translate 0.035278 -0.035278 scale
start_ol
640 4992 moveto
3776 4992 lineto
3776 4416 lineto
1344 4416 lineto
1344 2944 lineto
3648 2944 lineto
3648 2368 lineto
1344 2368 lineto
1344 576 lineto
3840 576 lineto
3840 0 lineto
640 0 lineto
640 4992 lineto
end_ol grestore 
gsave 10.303849 17.915000 translate 0.035278 -0.035278 scale
start_ol
end_ol grestore 
gsave 10.591079 17.915000 translate 0.035278 -0.035278 scale
start_ol
2114 3392 moveto
1610 3392 1317 2990 conicto
1024 2588 1024 1888 conicto
1024 1188 1315 786 conicto
1606 384 2114 384 conicto
2614 384 2907 788 conicto
3200 1192 3200 1888 conicto
3200 2581 2907 2986 conicto
2614 3392 2114 3392 conicto
2112 3904 moveto
2919 3904 3379 3369 conicto
3840 2834 3840 1888 conicto
3840 945 3379 408 conicto
2919 -128 2112 -128 conicto
1302 -128 843 408 conicto
384 945 384 1888 conicto
384 2834 843 3369 conicto
1302 3904 2112 3904 conicto
end_ol grestore 
gsave 11.143058 17.915000 translate 0.035278 -0.035278 scale
start_ol
2816 3200 moveto
2715 3266 2596 3297 conicto
2477 3328 2333 3328 conicto
1825 3328 1552 2984 conicto
1280 2640 1280 1996 conicto
1280 0 lineto
640 0 lineto
640 3776 lineto
1280 3776 lineto
1280 3200 lineto
1469 3557 1772 3730 conicto
2076 3904 2509 3904 conicto
2571 3904 2646 3888 conicto
2721 3872 2813 3840 conicto
2816 3200 lineto
end_ol grestore 
gsave 11.515202 17.915000 translate 0.035278 -0.035278 scale
start_ol
end_ol grestore 
gsave 11.802432 17.915000 translate 0.035278 -0.035278 scale
start_ol
3648 4864 moveto
3648 4224 lineto
3269 4385 2933 4464 conicto
2598 4544 2285 4544 conicto
1741 4544 1446 4332 conicto
1152 4120 1152 3730 conicto
1152 3402 1349 3235 conicto
1547 3068 2097 2965 conicto
2501 2880 lineto
3253 2734 3610 2364 conicto
3968 1994 3968 1374 conicto
3968 635 3478 253 conicto
2988 -128 2041 -128 conicto
1684 -128 1281 -47 conicto
879 34 448 192 conicto
448 896 lineto
863 674 1261 561 conicto
1660 448 2045 448 conicto
2629 448 2946 677 conicto
3264 906 3264 1330 conicto
3264 1701 3040 1910 conicto
2816 2119 2306 2223 conicto
1898 2305 lineto
1132 2457 790 2781 conicto
448 3105 448 3682 conicto
448 4350 912 4735 conicto
1377 5120 2193 5120 conicto
2542 5120 2905 5056 conicto
3268 4992 3648 4864 conicto
end_ol grestore 
gsave 12.374396 17.915000 translate 0.035278 -0.035278 scale
start_ol
-64 4992 moveto
4224 4992 lineto
4224 4416 lineto
2432 4416 lineto
2432 0 lineto
1728 0 lineto
1728 4416 lineto
-64 4416 lineto
-64 4992 lineto
end_ol grestore 
gsave 12.856442 17.915000 translate 0.035278 -0.035278 scale
start_ol
2336 4330 moveto
1426 1856 lineto
3249 1856 lineto
2336 4330 lineto
1957 4992 moveto
2718 4992 lineto
4608 0 lineto
3910 0 lineto
3459 1280 lineto
1223 1280 lineto
772 0 lineto
64 0 lineto
1957 4992 lineto
end_ol grestore 
gsave 13.473359 17.915000 translate 0.035278 -0.035278 scale
start_ol
end_ol grestore 
gsave 13.760589 17.915000 translate 0.035278 -0.035278 scale
start_ol
2560 5184 moveto
2560 4672 lineto
2003 4672 lineto
1668 4672 1538 4545 conicto
1408 4419 1408 4089 conicto
1408 3776 lineto
2432 3776 lineto
2432 3328 lineto
1408 3328 lineto
1408 0 lineto
768 0 lineto
768 3328 lineto
192 3328 lineto
192 3776 lineto
768 3776 lineto
768 4023 lineto
768 4629 1065 4906 conicto
1363 5184 2010 5184 conicto
2560 5184 lineto
end_ol grestore 
gsave 14.077791 17.915000 translate 0.035278 -0.035278 scale
start_ol
2114 3392 moveto
1610 3392 1317 2990 conicto
1024 2588 1024 1888 conicto
1024 1188 1315 786 conicto
1606 384 2114 384 conicto
2614 384 2907 788 conicto
3200 1192 3200 1888 conicto
3200 2581 2907 2986 conicto
2614 3392 2114 3392 conicto
2112 3904 moveto
2919 3904 3379 3369 conicto
3840 2834 3840 1888 conicto
3840 945 3379 408 conicto
2919 -128 2112 -128 conicto
1302 -128 843 408 conicto
384 945 384 1888 conicto
384 2834 843 3369 conicto
1302 3904 2112 3904 conicto
end_ol grestore 
gsave 14.629770 17.915000 translate 0.035278 -0.035278 scale
start_ol
2816 3200 moveto
2715 3266 2596 3297 conicto
2477 3328 2333 3328 conicto
1825 3328 1552 2984 conicto
1280 2640 1280 1996 conicto
1280 0 lineto
640 0 lineto
640 3776 lineto
1280 3776 lineto
1280 3200 lineto
1469 3557 1772 3730 conicto
2076 3904 2509 3904 conicto
2571 3904 2646 3888 conicto
2721 3872 2813 3840 conicto
2816 3200 lineto
end_ol grestore 
gsave 15.001915 17.915000 translate 0.035278 -0.035278 scale
start_ol
end_ol grestore 
gsave 15.289145 17.915000 translate 0.035278 -0.035278 scale
start_ol
2114 3392 moveto
1610 3392 1317 2990 conicto
1024 2588 1024 1888 conicto
1024 1188 1315 786 conicto
1606 384 2114 384 conicto
2614 384 2907 788 conicto
3200 1192 3200 1888 conicto
3200 2581 2907 2986 conicto
2614 3392 2114 3392 conicto
2112 3904 moveto
2919 3904 3379 3369 conicto
3840 2834 3840 1888 conicto
3840 945 3379 408 conicto
2919 -128 2112 -128 conicto
1302 -128 843 408 conicto
384 945 384 1888 conicto
384 2834 843 3369 conicto
1302 3904 2112 3904 conicto
end_ol grestore 
gsave 15.841123 17.915000 translate 0.035278 -0.035278 scale
start_ol
1280 512 moveto
1280 -1408 lineto
640 -1408 lineto
640 3776 lineto
1280 3776 lineto
1280 3264 lineto
1471 3589 1762 3746 conicto
2053 3904 2458 3904 conicto
3129 3904 3548 3348 conicto
3968 2793 3968 1888 conicto
3968 983 3548 427 conicto
3129 -128 2458 -128 conicto
2053 -128 1762 29 conicto
1471 187 1280 512 conicto
3328 1888 moveto
3328 2591 3055 2991 conicto
2782 3392 2304 3392 conicto
1826 3392 1553 2991 conicto
1280 2591 1280 1888 conicto
1280 1185 1553 784 conicto
1826 384 2304 384 conicto
2782 384 3055 784 conicto
3328 1185 3328 1888 conicto
end_ol grestore 
gsave 16.413086 17.915000 translate 0.035278 -0.035278 scale
start_ol
3840 2072 moveto
3840 1792 lineto
1024 1792 lineto
1064 1104 1407 744 conicto
1750 384 2363 384 conicto
2718 384 3051 464 conicto
3384 544 3712 704 conicto
3712 128 lineto
3381 3 3033 -62 conicto
2685 -128 2327 -128 conicto
1431 -128 907 407 conicto
384 942 384 1854 conicto
384 2797 878 3350 conicto
1373 3904 2212 3904 conicto
2964 3904 3402 3411 conicto
3840 2919 3840 2072 conicto
3200 2240 moveto
3193 2766 2922 3079 conicto
2651 3392 2204 3392 conicto
1698 3392 1394 3089 conicto
1090 2786 1044 2237 conicto
3200 2240 lineto
end_ol grestore 
gsave 16.967562 17.915000 translate 0.035278 -0.035278 scale
start_ol
2816 3200 moveto
2715 3266 2596 3297 conicto
2477 3328 2333 3328 conicto
1825 3328 1552 2984 conicto
1280 2640 1280 1996 conicto
1280 0 lineto
640 0 lineto
640 3776 lineto
1280 3776 lineto
1280 3200 lineto
1469 3557 1772 3730 conicto
2076 3904 2509 3904 conicto
2571 3904 2646 3888 conicto
2721 3872 2813 3840 conicto
2816 3200 lineto
end_ol grestore 
gsave 17.339707 17.915000 translate 0.035278 -0.035278 scale
start_ol
2292 1920 moveto
1576 1920 1300 1741 conicto
1024 1562 1024 1131 conicto
1024 787 1231 585 conicto
1438 384 1795 384 conicto
2286 384 2583 763 conicto
2880 1143 2880 1773 conicto
2880 1920 lineto
2292 1920 lineto
3520 2156 moveto
3520 0 lineto
2880 0 lineto
2880 512 lineto
2674 184 2366 28 conicto
2058 -128 1612 -128 conicto
1049 -128 716 199 conicto
384 527 384 1076 conicto
384 1717 802 2042 conicto
1221 2368 2052 2368 conicto
2880 2368 lineto
2880 2434 lineto
2880 2891 2605 3141 conicto
2330 3392 1832 3392 conicto
1516 3392 1216 3312 conicto
917 3232 640 3072 conicto
640 3648 lineto
977 3776 1293 3840 conicto
1610 3904 1910 3904 conicto
2720 3904 3120 3470 conicto
3520 3037 3520 2156 conicto
end_ol grestore 
gsave 17.891686 17.915000 translate 0.035278 -0.035278 scale
start_ol
1280 4864 moveto
1280 3776 lineto
2560 3776 lineto
2560 3328 lineto
1280 3328 lineto
1280 1248 lineto
1280 779 1406 645 conicto
1533 512 1922 512 conicto
2560 512 lineto
2560 0 lineto
1922 0 lineto
1194 0 917 269 conicto
640 538 640 1248 conicto
640 3328 lineto
192 3328 lineto
192 3776 lineto
640 3776 lineto
640 4864 lineto
1280 4864 lineto
end_ol grestore 
gsave 18.246351 17.915000 translate 0.035278 -0.035278 scale
start_ol
2114 3392 moveto
1610 3392 1317 2990 conicto
1024 2588 1024 1888 conicto
1024 1188 1315 786 conicto
1606 384 2114 384 conicto
2614 384 2907 788 conicto
3200 1192 3200 1888 conicto
3200 2581 2907 2986 conicto
2614 3392 2114 3392 conicto
2112 3904 moveto
2919 3904 3379 3369 conicto
3840 2834 3840 1888 conicto
3840 945 3379 408 conicto
2919 -128 2112 -128 conicto
1302 -128 843 408 conicto
384 945 384 1888 conicto
384 2834 843 3369 conicto
1302 3904 2112 3904 conicto
end_ol grestore 
gsave 18.798330 17.915000 translate 0.035278 -0.035278 scale
start_ol
2816 3200 moveto
2715 3266 2596 3297 conicto
2477 3328 2333 3328 conicto
1825 3328 1552 2984 conicto
1280 2640 1280 1996 conicto
1280 0 lineto
640 0 lineto
640 3776 lineto
1280 3776 lineto
1280 3200 lineto
1469 3557 1772 3730 conicto
2076 3904 2509 3904 conicto
2571 3904 2646 3888 conicto
2721 3872 2813 3840 conicto
2816 3200 lineto
end_ol grestore 
gsave 19.170475 17.915000 translate 0.035278 -0.035278 scale
start_ol
end_ol grestore 
gsave 19.457705 17.915000 translate 0.035278 -0.035278 scale
start_ol
2336 4330 moveto
1426 1856 lineto
3249 1856 lineto
2336 4330 lineto
1957 4992 moveto
2718 4992 lineto
4608 0 lineto
3910 0 lineto
3459 1280 lineto
1223 1280 lineto
772 0 lineto
64 0 lineto
1957 4992 lineto
end_ol grestore 
gsave 4.500000 16.590000 translate 0.035278 -0.035278 scale
start_ol
640 4992 moveto
1344 4992 lineto
1344 2882 lineto
3557 4992 lineto
4416 4992 lineto
1968 2665 lineto
4608 0 lineto
3725 0 lineto
1344 2404 lineto
1344 0 lineto
640 0 lineto
640 4992 lineto
end_ol grestore 
gsave 5.046985 16.590000 translate 0.035278 -0.035278 scale
start_ol
3840 2072 moveto
3840 1792 lineto
1024 1792 lineto
1064 1104 1407 744 conicto
1750 384 2363 384 conicto
2718 384 3051 464 conicto
3384 544 3712 704 conicto
3712 128 lineto
3381 3 3033 -62 conicto
2685 -128 2327 -128 conicto
1431 -128 907 407 conicto
384 942 384 1854 conicto
384 2797 878 3350 conicto
1373 3904 2212 3904 conicto
2964 3904 3402 3411 conicto
3840 2919 3840 2072 conicto
3200 2240 moveto
3193 2766 2922 3079 conicto
2651 3392 2204 3392 conicto
1698 3392 1394 3089 conicto
1090 2786 1044 2237 conicto
3200 2240 lineto
end_ol grestore 
gsave 5.601460 16.590000 translate 0.035278 -0.035278 scale
start_ol
2184 -332 moveto
1922 -1000 1673 -1204 conicto
1424 -1408 1007 -1408 conicto
512 -1408 lineto
512 -896 lineto
875 -896 lineto
1131 -896 1272 -777 conicto
1413 -659 1585 -217 conicto
1696 66 lineto
192 3776 lineto
828 3776 lineto
2006 823 lineto
3184 3776 lineto
3840 3776 lineto
2184 -332 lineto
end_ol grestore 
gsave 6.071021 16.590000 translate 0.035278 -0.035278 scale
start_ol
832 832 moveto
1536 832 lineto
1536 0 lineto
832 0 lineto
832 832 lineto
832 3520 moveto
1536 3520 lineto
1536 2688 lineto
832 2688 lineto
832 3520 lineto
end_ol grestore 
showpage
