%!PS-Adobe-2.0 EPSF-2.0
%%Title: source/figures/lte-u-architecture.dia
%%Creator: Dia v0.97.2
%%CreationDate: Tue Mar 15 13:13:30 2016
%%For: cttc
%%Orientation: Portrait
%%Magnification: 1.0000
%%BoundingBox: 0 0 1362 851
%%BeginSetup
%%EndSetup
%%EndComments
%%BeginProlog
[ /.notdef /.notdef /.notdef /.notdef /.notdef /.notdef /.notdef /.notdef /.notdef /.notdef
/.notdef /.notdef /.notdef /.notdef /.notdef /.notdef /.notdef /.notdef /.notdef /.notdef
/.notdef /.notdef /.notdef /.notdef /.notdef /.notdef /.notdef /.notdef /.notdef /.notdef
/.notdef /.notdef /space /exclam /quotedbl /numbersign /dollar /percent /ampersand /quoteright
/parenleft /parenright /asterisk /plus /comma /hyphen /period /slash /zero /one
/two /three /four /five /six /seven /eight /nine /colon /semicolon
/less /equal /greater /question /at /A /B /C /D /E
/F /G /H /I /J /K /L /M /N /O
/P /Q /R /S /T /U /V /W /X /Y
/Z /bracketleft /backslash /bracketright /asciicircum /underscore /quoteleft /a /b /c
/d /e /f /g /h /i /j /k /l /m
/n /o /p /q /r /s /t /u /v /w
/x /y /z /braceleft /bar /braceright /asciitilde /.notdef /.notdef /.notdef
/.notdef /.notdef /.notdef /.notdef /.notdef /.notdef /.notdef /.notdef /.notdef /.notdef
/.notdef /.notdef /.notdef /.notdef /.notdef /.notdef /.notdef /.notdef /.notdef /.notdef
/.notdef /.notdef /.notdef /.notdef /.notdef /.notdef /.notdef /.notdef /.notdef /.notdef
/space /exclamdown /cent /sterling /currency /yen /brokenbar /section /dieresis /copyright
/ordfeminine /guillemotleft /logicalnot /hyphen /registered /macron /degree /plusminus /twosuperior /threesuperior
/acute /mu /paragraph /periodcentered /cedilla /onesuperior /ordmasculine /guillemotright /onequarter /onehalf
/threequarters /questiondown /Agrave /Aacute /Acircumflex /Atilde /Adieresis /Aring /AE /Ccedilla
/Egrave /Eacute /Ecircumflex /Edieresis /Igrave /Iacute /Icircumflex /Idieresis /Eth /Ntilde
/Ograve /Oacute /Ocircumflex /Otilde /Odieresis /multiply /Oslash /Ugrave /Uacute /Ucircumflex
/Udieresis /Yacute /Thorn /germandbls /agrave /aacute /acircumflex /atilde /adieresis /aring
/ae /ccedilla /egrave /eacute /ecircumflex /edieresis /igrave /iacute /icircumflex /idieresis
/eth /ntilde /ograve /oacute /ocircumflex /otilde /odieresis /divide /oslash /ugrave
/uacute /ucircumflex /udieresis /yacute /thorn /ydieresis] /isolatin1encoding exch def
/cp {closepath} bind def
/c {curveto} bind def
/f {fill} bind def
/a {arc} bind def
/ef {eofill} bind def
/ex {exch} bind def
/gr {grestore} bind def
/gs {gsave} bind def
/sa {save} bind def
/rs {restore} bind def
/l {lineto} bind def
/m {moveto} bind def
/rm {rmoveto} bind def
/n {newpath} bind def
/s {stroke} bind def
/sh {show} bind def
/slc {setlinecap} bind def
/slj {setlinejoin} bind def
/slw {setlinewidth} bind def
/srgb {setrgbcolor} bind def
/rot {rotate} bind def
/sc {scale} bind def
/sd {setdash} bind def
/ff {findfont} bind def
/sf {setfont} bind def
/scf {scalefont} bind def
/sw {stringwidth pop} bind def
/tr {translate} bind def

/ellipsedict 8 dict def
ellipsedict /mtrx matrix put
/ellipse
{ ellipsedict begin
   /endangle exch def
   /startangle exch def
   /yrad exch def
   /xrad exch def
   /y exch def
   /x exch def   /savematrix mtrx currentmatrix def
   x y tr xrad yrad sc
   0 0 1 startangle endangle arc
   savematrix setmatrix
   end
} def

/mergeprocs {
dup length
3 -1 roll
dup
length
dup
5 1 roll
3 -1 roll
add
array cvx
dup
3 -1 roll
0 exch
putinterval
dup
4 2 roll
putinterval
} bind def
/dpi_x 300 def
/dpi_y 300 def
/conicto {
    /to_y exch def
    /to_x exch def
    /conic_cntrl_y exch def
    /conic_cntrl_x exch def
    currentpoint
    /p0_y exch def
    /p0_x exch def
    /p1_x p0_x conic_cntrl_x p0_x sub 2 3 div mul add def
    /p1_y p0_y conic_cntrl_y p0_y sub 2 3 div mul add def
    /p2_x p1_x to_x p0_x sub 1 3 div mul add def
    /p2_y p1_y to_y p0_y sub 1 3 div mul add def
    p1_x p1_y p2_x p2_y to_x to_y curveto
} bind def
/start_ol { gsave 1.1 dpi_x div dup scale} bind def
/end_ol { closepath fill grestore } bind def
28.346000 -28.346000 scale
-17.039100 -12.979969 translate
%%EndProlog


0.100000 slw
[1.000000] 0 sd
[0.500000] 0 sd
0 slj
0.819608 0.980392 0.870588 srgb
n 17.089100 -16.984800 m 17.089100 12.929969 l 65.006434 12.929969 l 65.006434 -16.984800 l f
0.000000 0.000000 0.000000 srgb
n 17.089100 -16.984800 m 17.089100 12.929969 l 65.006434 12.929969 l 65.006434 -16.984800 l cp s
1.000000 1.000000 1.000000 srgb
n 18.043400 -14.909800 m 18.043400 12.067810 l 28.954289 12.067810 l 28.954289 -14.909800 l f
0.100000 slw
[] 0 sd
[] 0 sd
0 slj
0.000000 0.000000 0.000000 srgb
n 18.043400 -14.909800 m 18.043400 12.067810 l 28.954289 12.067810 l 28.954289 -14.909800 l cp s
1.000000 1.000000 1.000000 srgb
n 34.674600 -9.050510 m 34.674600 2.273304 l 46.980315 2.273304 l 46.980315 -9.050510 l f
0.100000 slw
[] 0 sd
[] 0 sd
0 slj
0.000000 0.000000 0.000000 srgb
n 34.674600 -9.050510 m 34.674600 2.273304 l 46.980315 2.273304 l 46.980315 -9.050510 l cp s
gsave 38.883707 -4.724436 translate 0.035278 -0.035278 scale
start_ol
1024 7808 moveto
2112 7808 lineto
2112 896 lineto
5888 896 lineto
5888 0 lineto
1024 0 lineto
1024 7808 lineto
end_ol grestore 
gsave 39.473149 -4.724436 translate 0.035278 -0.035278 scale
start_ol
0 7808 moveto
6592 7808 lineto
6592 6912 lineto
3840 6912 lineto
3840 0 lineto
2752 0 lineto
2752 6912 lineto
0 6912 lineto
0 7808 lineto
end_ol grestore 
gsave 40.334839 -4.724436 translate 0.035278 -0.035278 scale
start_ol
1024 7808 moveto
5952 7808 lineto
5952 6912 lineto
2112 6912 lineto
2112 4608 lineto
5760 4608 lineto
5760 3712 lineto
2112 3712 lineto
2112 896 lineto
6016 896 lineto
6016 0 lineto
1024 0 lineto
1024 7808 lineto
end_ol grestore 
gsave 41.226502 -4.724436 translate 0.035278 -0.035278 scale
start_ol
512 3328 moveto
3328 3328 lineto
3328 2496 lineto
512 2496 lineto
512 3328 lineto
end_ol grestore 
gsave 41.736023 -4.724436 translate 0.035278 -0.035278 scale
start_ol
960 7808 moveto
2048 7808 lineto
2048 3063 lineto
2048 1808 2493 1256 conicto
2939 704 3939 704 conicto
4933 704 5378 1256 conicto
5824 1808 5824 3063 conicto
5824 7808 lineto
6912 7808 lineto
6912 2933 lineto
6912 1418 6159 645 conicto
5407 -128 3939 -128 conicto
2465 -128 1712 645 conicto
960 1418 960 2933 conicto
960 7808 lineto
end_ol grestore 
gsave 36.523707 -2.960548 translate 0.035278 -0.035278 scale
start_ol
6848 7168 moveto
6848 6080 lineto
6314 6563 5710 6801 conicto
5106 7040 4426 7040 conicto
3087 7040 2375 6233 conicto
1664 5427 1664 3901 conicto
1664 2381 2375 1574 conicto
3087 768 4426 768 conicto
5106 768 5710 1006 conicto
6314 1245 6848 1728 conicto
6848 640 lineto
6296 256 5678 64 conicto
5061 -128 4374 -128 conicto
2608 -128 1592 952 conicto
576 2032 576 3901 conicto
576 5776 1592 6856 conicto
2608 7936 4374 7936 conicto
5072 7936 5689 7744 conicto
6306 7552 6848 7168 conicto
end_ol grestore 
gsave 37.507784 -2.960548 translate 0.035278 -0.035278 scale
start_ol
3267 5120 moveto
2496 5120 2048 4529 conicto
1600 3939 1600 2912 conicto
1600 1885 2045 1294 conicto
2491 704 3267 704 conicto
4032 704 4480 1297 conicto
4928 1890 4928 2912 conicto
4928 3929 4480 4524 conicto
4032 5120 3267 5120 conicto
3264 5952 moveto
4519 5952 5235 5145 conicto
5952 4339 5952 2912 conicto
5952 1490 5235 681 conicto
4519 -128 3264 -128 conicto
2004 -128 1290 681 conicto
576 1490 576 2912 conicto
576 4339 1290 5145 conicto
2004 5952 3264 5952 conicto
end_ol grestore 
gsave 38.369474 -2.960548 translate 0.035278 -0.035278 scale
start_ol
6016 3168 moveto
6016 2688 lineto
1600 2688 lineto
1662 1719 2193 1211 conicto
2724 704 3672 704 conicto
4221 704 4736 832 conicto
5252 960 5760 1216 conicto
5760 320 lineto
5244 101 4702 -13 conicto
4161 -128 3603 -128 conicto
2207 -128 1391 678 conicto
576 1485 576 2860 conicto
576 4282 1354 5117 conicto
2133 5952 3453 5952 conicto
4638 5952 5327 5203 conicto
6016 4455 6016 3168 conicto
5056 3456 moveto
5046 4215 4615 4667 conicto
4184 5120 3474 5120 conicto
2670 5120 2187 4682 conicto
1704 4245 1631 3451 conicto
5056 3456 lineto
end_ol grestore 
gsave 39.211179 -2.960548 translate 0.035278 -0.035278 scale
start_ol
5888 5824 moveto
3770 2990 lineto
6016 0 lineto
4874 0 lineto
3158 2288 lineto
1454 0 lineto
320 0 lineto
2593 3047 lineto
512 5824 lineto
1647 5824 lineto
3200 3749 lineto
4753 5824 lineto
5888 5824 lineto
end_ol grestore 
gsave 40.045394 -2.960548 translate 0.035278 -0.035278 scale
start_ol
1024 5824 moveto
1984 5824 lineto
1984 0 lineto
1024 0 lineto
1024 5824 lineto
1024 8128 moveto
1984 8128 lineto
1984 6912 lineto
1024 6912 lineto
1024 8128 lineto
end_ol grestore 
gsave 40.437523 -2.960548 translate 0.035278 -0.035278 scale
start_ol
4736 5568 moveto
4736 4672 lineto
4335 4896 3903 5008 conicto
3471 5120 3009 5120 conicto
2304 5120 1952 4905 conicto
1600 4690 1600 4260 conicto
1600 3932 1854 3745 conicto
2109 3558 2877 3389 conicto
3203 3319 lineto
4209 3103 4632 2709 conicto
5056 2316 5056 1611 conicto
5056 808 4409 340 conicto
3763 -128 2633 -128 conicto
2162 -128 1651 -32 conicto
1141 64 576 256 conicto
576 1280 lineto
1114 992 1636 848 conicto
2159 704 2671 704 conicto
3357 704 3726 931 conicto
4096 1159 4096 1572 conicto
4096 1955 3834 2159 conicto
3572 2364 2685 2553 conicto
2352 2628 lineto
1446 2814 1043 3197 conicto
640 3581 640 4251 conicto
640 5066 1222 5509 conicto
1804 5952 2875 5952 conicto
3405 5952 3873 5856 conicto
4341 5760 4736 5568 conicto
end_ol grestore 
gsave 41.171833 -2.960548 translate 0.035278 -0.035278 scale
start_ol
1984 7488 moveto
1984 5824 lineto
3968 5824 lineto
3968 5056 lineto
1984 5056 lineto
1984 1935 lineto
1984 1232 2180 1032 conicto
2377 832 2979 832 conicto
3968 832 lineto
3968 0 lineto
2979 0 lineto
1869 0 1446 417 conicto
1024 834 1024 1935 conicto
1024 5056 lineto
320 5056 lineto
320 5824 lineto
1024 5824 lineto
1024 7488 lineto
1984 7488 lineto
end_ol grestore 
gsave 41.723812 -2.960548 translate 0.035278 -0.035278 scale
start_ol
3656 2944 moveto
2495 2944 2047 2683 conicto
1600 2422 1600 1793 conicto
1600 1292 1935 998 conicto
2271 704 2849 704 conicto
3645 704 4126 1257 conicto
4608 1811 4608 2730 conicto
4608 2944 lineto
3656 2944 lineto
5568 3349 moveto
5568 0 lineto
4608 0 lineto
4608 896 lineto
4280 371 3790 121 conicto
3301 -128 2593 -128 conicto
1697 -128 1168 375 conicto
640 879 640 1724 conicto
640 2710 1299 3211 conicto
1958 3712 3265 3712 conicto
4608 3712 lineto
4608 3796 lineto
4608 4428 4176 4774 conicto
3744 5120 2962 5120 conicto
2465 5120 1994 4992 conicto
1523 4864 1088 4608 conicto
1088 5504 lineto
1612 5728 2104 5840 conicto
2597 5952 3064 5952 conicto
4324 5952 4946 5306 conicto
5568 4661 5568 3349 conicto
end_ol grestore 
gsave 42.587999 -2.960548 translate 0.035278 -0.035278 scale
start_ol
5824 3521 moveto
5824 0 lineto
4864 0 lineto
4864 3490 lineto
4864 4308 4543 4714 conicto
4222 5120 3581 5120 conicto
2810 5120 2365 4631 conicto
1920 4142 1920 3297 conicto
1920 0 lineto
960 0 lineto
960 5824 lineto
1920 5824 lineto
1920 4928 lineto
2262 5443 2726 5697 conicto
3190 5952 3797 5952 conicto
4797 5952 5310 5335 conicto
5824 4718 5824 3521 conicto
end_ol grestore 
gsave 43.482158 -2.960548 translate 0.035278 -0.035278 scale
start_ol
5184 5568 moveto
5184 4672 lineto
4780 4896 4373 5008 conicto
3967 5120 3553 5120 conicto
2625 5120 2112 4540 conicto
1600 3960 1600 2912 conicto
1600 1864 2112 1284 conicto
2625 704 3553 704 conicto
3967 704 4373 816 conicto
4780 928 5184 1152 conicto
5184 256 lineto
4784 64 4354 -32 conicto
3925 -128 3442 -128 conicto
2126 -128 1351 694 conicto
576 1516 576 2912 conicto
576 4329 1358 5140 conicto
2141 5952 3504 5952 conicto
3946 5952 4367 5856 conicto
4789 5760 5184 5568 conicto
end_ol grestore 
gsave 44.256428 -2.960548 translate 0.035278 -0.035278 scale
start_ol
6016 3168 moveto
6016 2688 lineto
1600 2688 lineto
1662 1719 2193 1211 conicto
2724 704 3672 704 conicto
4221 704 4736 832 conicto
5252 960 5760 1216 conicto
5760 320 lineto
5244 101 4702 -13 conicto
4161 -128 3603 -128 conicto
2207 -128 1391 678 conicto
576 1485 576 2860 conicto
576 4282 1354 5117 conicto
2133 5952 3453 5952 conicto
4638 5952 5327 5203 conicto
6016 4455 6016 3168 conicto
5056 3456 moveto
5046 4215 4615 4667 conicto
4184 5120 3474 5120 conicto
2670 5120 2187 4682 conicto
1704 4245 1631 3451 conicto
5056 3456 lineto
end_ol grestore 
gsave 37.734957 -1.196659 translate 0.035278 -0.035278 scale
start_ol
1024 7808 moveto
2644 7808 lineto
4573 2470 lineto
6513 7808 lineto
8128 7808 lineto
8128 0 lineto
7040 0 lineto
7040 6852 lineto
5090 1472 lineto
4062 1472 lineto
2112 6852 lineto
2112 0 lineto
1024 0 lineto
1024 7808 lineto
end_ol grestore 
gsave 38.951313 -1.196659 translate 0.035278 -0.035278 scale
start_ol
3656 2944 moveto
2495 2944 2047 2683 conicto
1600 2422 1600 1793 conicto
1600 1292 1935 998 conicto
2271 704 2849 704 conicto
3645 704 4126 1257 conicto
4608 1811 4608 2730 conicto
4608 2944 lineto
3656 2944 lineto
5568 3349 moveto
5568 0 lineto
4608 0 lineto
4608 896 lineto
4280 371 3790 121 conicto
3301 -128 2593 -128 conicto
1697 -128 1168 375 conicto
640 879 640 1724 conicto
640 2710 1299 3211 conicto
1958 3712 3265 3712 conicto
4608 3712 lineto
4608 3796 lineto
4608 4428 4176 4774 conicto
3744 5120 2962 5120 conicto
2465 5120 1994 4992 conicto
1523 4864 1088 4608 conicto
1088 5504 lineto
1612 5728 2104 5840 conicto
2597 5952 3064 5952 conicto
4324 5952 4946 5306 conicto
5568 4661 5568 3349 conicto
end_ol grestore 
gsave 39.815500 -1.196659 translate 0.035278 -0.035278 scale
start_ol
5824 3521 moveto
5824 0 lineto
4864 0 lineto
4864 3490 lineto
4864 4308 4543 4714 conicto
4222 5120 3581 5120 conicto
2810 5120 2365 4631 conicto
1920 4142 1920 3297 conicto
1920 0 lineto
960 0 lineto
960 5824 lineto
1920 5824 lineto
1920 4928 lineto
2262 5443 2726 5697 conicto
3190 5952 3797 5952 conicto
4797 5952 5310 5335 conicto
5824 4718 5824 3521 conicto
end_ol grestore 
gsave 40.709659 -1.196659 translate 0.035278 -0.035278 scale
start_ol
3656 2944 moveto
2495 2944 2047 2683 conicto
1600 2422 1600 1793 conicto
1600 1292 1935 998 conicto
2271 704 2849 704 conicto
3645 704 4126 1257 conicto
4608 1811 4608 2730 conicto
4608 2944 lineto
3656 2944 lineto
5568 3349 moveto
5568 0 lineto
4608 0 lineto
4608 896 lineto
4280 371 3790 121 conicto
3301 -128 2593 -128 conicto
1697 -128 1168 375 conicto
640 879 640 1724 conicto
640 2710 1299 3211 conicto
1958 3712 3265 3712 conicto
4608 3712 lineto
4608 3796 lineto
4608 4428 4176 4774 conicto
3744 5120 2962 5120 conicto
2465 5120 1994 4992 conicto
1523 4864 1088 4608 conicto
1088 5504 lineto
1612 5728 2104 5840 conicto
2597 5952 3064 5952 conicto
4324 5952 4946 5306 conicto
5568 4661 5568 3349 conicto
end_ol grestore 
gsave 41.573847 -1.196659 translate 0.035278 -0.035278 scale
start_ol
4864 2973 moveto
4864 3996 4434 4558 conicto
4005 5120 3229 5120 conicto
2459 5120 2029 4558 conicto
1600 3996 1600 2973 conicto
1600 1956 2029 1394 conicto
2459 832 3229 832 conicto
4005 832 4434 1394 conicto
4864 1956 4864 2973 conicto
5824 751 moveto
5824 -763 5157 -1501 conicto
4491 -2240 3116 -2240 conicto
2608 -2240 2156 -2161 conicto
1705 -2083 1280 -1920 conicto
1280 -960 lineto
1706 -1189 2121 -1298 conicto
2536 -1408 2967 -1408 conicto
3918 -1408 4391 -915 conicto
4864 -423 4864 573 conicto
4864 1024 lineto
4565 509 4098 254 conicto
3631 0 2980 0 conicto
1899 0 1237 814 conicto
576 1629 576 2973 conicto
576 4323 1237 5137 conicto
1899 5952 2980 5952 conicto
3631 5952 4098 5697 conicto
4565 5443 4864 4928 conicto
4864 5824 lineto
5824 5824 lineto
5824 751 lineto
end_ol grestore 
gsave 42.468006 -1.196659 translate 0.035278 -0.035278 scale
start_ol
6016 3168 moveto
6016 2688 lineto
1600 2688 lineto
1662 1719 2193 1211 conicto
2724 704 3672 704 conicto
4221 704 4736 832 conicto
5252 960 5760 1216 conicto
5760 320 lineto
5244 101 4702 -13 conicto
4161 -128 3603 -128 conicto
2207 -128 1391 678 conicto
576 1485 576 2860 conicto
576 4282 1354 5117 conicto
2133 5952 3453 5952 conicto
4638 5952 5327 5203 conicto
6016 4455 6016 3168 conicto
5056 3456 moveto
5046 4215 4615 4667 conicto
4184 5120 3474 5120 conicto
2670 5120 2187 4682 conicto
1704 4245 1631 3451 conicto
5056 3456 lineto
end_ol grestore 
gsave 43.334690 -1.196659 translate 0.035278 -0.035278 scale
start_ol
4416 4928 moveto
4252 5027 4058 5073 conicto
3865 5120 3632 5120 conicto
2805 5120 2362 4591 conicto
1920 4063 1920 3073 conicto
1920 0 lineto
960 0 lineto
960 5824 lineto
1920 5824 lineto
1920 4928 lineto
2227 5448 2720 5700 conicto
3213 5952 3918 5952 conicto
4019 5952 4140 5936 conicto
4262 5920 4411 5888 conicto
4416 4928 lineto
end_ol grestore 
gsave 19.363700 -1.893880 translate 0.035278 -0.035278 scale
start_ol
960 7808 moveto
2944 7808 lineto
2944 1472 lineto
6528 1472 lineto
6528 0 lineto
960 0 lineto
960 7808 lineto
end_ol grestore 
gsave 20.262853 -1.893880 translate 0.035278 -0.035278 scale
start_ol
2944 7488 moveto
2944 5824 lineto
4864 5824 lineto
4864 4480 lineto
2944 4480 lineto
2944 2030 lineto
2944 1628 3108 1486 conicto
3273 1344 3760 1344 conicto
4736 1344 lineto
4736 0 lineto
3108 0 lineto
2007 0 1547 462 conicto
1088 924 1088 2030 conicto
1088 4480 lineto
128 4480 lineto
128 5824 lineto
1088 5824 lineto
1088 7488 lineto
2944 7488 lineto
end_ol grestore 
gsave 20.937218 -1.893880 translate 0.035278 -0.035278 scale
start_ol
6720 2900 moveto
6720 2368 lineto
2304 2368 lineto
2373 1728 2787 1408 conicto
3201 1088 3944 1088 conicto
4543 1088 5172 1262 conicto
5801 1437 6464 1792 conicto
6464 320 lineto
5799 98 5134 -15 conicto
4469 -128 3804 -128 conicto
2212 -128 1330 671 conicto
448 1470 448 2912 conicto
448 4329 1311 5140 conicto
2175 5952 3688 5952 conicto
5066 5952 5893 5121 conicto
6720 4290 6720 2900 conicto
4864 3520 moveto
4864 4066 4539 4401 conicto
4214 4736 3691 4736 conicto
3123 4736 2768 4422 conicto
2413 4109 2326 3520 conicto
4864 3520 lineto
end_ol grestore 
gsave 21.893819 -1.893880 translate 0.035278 -0.035278 scale
start_ol
end_ol grestore 
gsave 22.385854 -1.893880 translate 0.035278 -0.035278 scale
start_ol
2944 6336 moveto
2944 1472 lineto
3681 1472 lineto
4942 1472 5607 2096 conicto
6272 2721 6272 3912 conicto
6272 5097 5609 5716 conicto
4947 6336 3681 6336 conicto
2944 6336 lineto
960 7808 moveto
3056 7808 lineto
4848 7808 5725 7554 conicto
6602 7301 7229 6694 conicto
7783 6166 8051 5475 conicto
8320 4785 8320 3912 conicto
8320 3028 8051 2335 conicto
7783 1642 7229 1114 conicto
6597 507 5711 253 conicto
4826 0 3056 0 conicto
960 0 lineto
960 7808 lineto
end_ol grestore 
gsave 23.557255 -1.893880 translate 0.035278 -0.035278 scale
start_ol
6720 2900 moveto
6720 2368 lineto
2304 2368 lineto
2373 1728 2787 1408 conicto
3201 1088 3944 1088 conicto
4543 1088 5172 1262 conicto
5801 1437 6464 1792 conicto
6464 320 lineto
5799 98 5134 -15 conicto
4469 -128 3804 -128 conicto
2212 -128 1330 671 conicto
448 1470 448 2912 conicto
448 4329 1311 5140 conicto
2175 5952 3688 5952 conicto
5066 5952 5893 5121 conicto
6720 4290 6720 2900 conicto
4864 3520 moveto
4864 4066 4539 4401 conicto
4214 4736 3691 4736 conicto
3123 4736 2768 4422 conicto
2413 4109 2326 3520 conicto
4864 3520 lineto
end_ol grestore 
gsave 24.513856 -1.893880 translate 0.035278 -0.035278 scale
start_ol
192 5824 moveto
2062 5824 lineto
3520 1799 lineto
4972 5824 lineto
6848 5824 lineto
4544 0 lineto
2491 0 lineto
192 5824 lineto
end_ol grestore 
gsave 25.432994 -1.893880 translate 0.035278 -0.035278 scale
start_ol
896 5824 moveto
2752 5824 lineto
2752 0 lineto
896 0 lineto
896 5824 lineto
896 8128 moveto
2752 8128 lineto
2752 6592 lineto
896 6592 lineto
896 8128 lineto
end_ol grestore 
gsave 25.915040 -1.893880 translate 0.035278 -0.035278 scale
start_ol
5632 5632 moveto
5632 4096 lineto
5245 4357 4855 4482 conicto
4466 4608 4048 4608 conicto
3253 4608 2810 4161 conicto
2368 3714 2368 2912 conicto
2368 2110 2810 1663 conicto
3253 1216 4048 1216 conicto
4493 1216 4893 1345 conicto
5293 1475 5632 1728 conicto
5632 192 lineto
5192 32 4738 -48 conicto
4285 -128 3829 -128 conicto
2241 -128 1344 676 conicto
448 1480 448 2912 conicto
448 4344 1344 5148 conicto
2241 5952 3829 5952 conicto
4290 5952 4738 5872 conicto
5186 5792 5632 5632 conicto
end_ol grestore 
gsave 26.751751 -1.893880 translate 0.035278 -0.035278 scale
start_ol
6720 2900 moveto
6720 2368 lineto
2304 2368 lineto
2373 1728 2787 1408 conicto
3201 1088 3944 1088 conicto
4543 1088 5172 1262 conicto
5801 1437 6464 1792 conicto
6464 320 lineto
5799 98 5134 -15 conicto
4469 -128 3804 -128 conicto
2212 -128 1330 671 conicto
448 1470 448 2912 conicto
448 4329 1311 5140 conicto
2175 5952 3688 5952 conicto
5066 5952 5893 5121 conicto
6720 4290 6720 2900 conicto
4864 3520 moveto
4864 4066 4539 4401 conicto
4214 4736 3691 4736 conicto
3123 4736 2768 4422 conicto
2413 4109 2326 3520 conicto
4864 3520 lineto
end_ol grestore 
1.000000 1.000000 1.000000 srgb
n 53.205200 -15.086800 m 53.205200 11.890810 l 63.958595 11.890810 l 63.958595 -15.086800 l f
0.100000 slw
[] 0 sd
[] 0 sd
0 slj
0.000000 0.000000 0.000000 srgb
n 53.205200 -15.086800 m 53.205200 11.890810 l 63.958595 11.890810 l 63.958595 -15.086800 l cp s
gsave 53.840600 -1.370840 translate 0.035278 -0.035278 scale
start_ol
320 7808 moveto
2246 7808 lineto
3592 2134 lineto
4928 7808 lineto
6864 7808 lineto
8200 2134 lineto
9546 7808 lineto
11456 7808 lineto
9619 0 lineto
7302 0 lineto
5888 5936 lineto
4489 0 lineto
2173 0 lineto
320 7808 lineto
end_ol grestore 
gsave 55.396639 -1.370840 translate 0.035278 -0.035278 scale
start_ol
896 5824 moveto
2752 5824 lineto
2752 0 lineto
896 0 lineto
896 5824 lineto
896 8128 moveto
2752 8128 lineto
2752 6592 lineto
896 6592 lineto
896 8128 lineto
end_ol grestore 
gsave 55.878685 -1.370840 translate 0.035278 -0.035278 scale
start_ol
960 7808 moveto
6400 7808 lineto
6400 6336 lineto
2944 6336 lineto
2944 4800 lineto
6208 4800 lineto
6208 3328 lineto
2944 3328 lineto
2944 0 lineto
960 0 lineto
960 7808 lineto
end_ol grestore 
gsave 56.842777 -1.370840 translate 0.035278 -0.035278 scale
start_ol
896 5824 moveto
2752 5824 lineto
2752 0 lineto
896 0 lineto
896 5824 lineto
896 8128 moveto
2752 8128 lineto
2752 6592 lineto
896 6592 lineto
896 8128 lineto
end_ol grestore 
gsave 57.324824 -1.370840 translate 0.035278 -0.035278 scale
start_ol
end_ol grestore 
gsave 57.816858 -1.370840 translate 0.035278 -0.035278 scale
start_ol
2944 6336 moveto
2944 1472 lineto
3681 1472 lineto
4942 1472 5607 2096 conicto
6272 2721 6272 3912 conicto
6272 5097 5609 5716 conicto
4947 6336 3681 6336 conicto
2944 6336 lineto
960 7808 moveto
3056 7808 lineto
4848 7808 5725 7554 conicto
6602 7301 7229 6694 conicto
7783 6166 8051 5475 conicto
8320 4785 8320 3912 conicto
8320 3028 8051 2335 conicto
7783 1642 7229 1114 conicto
6597 507 5711 253 conicto
4826 0 3056 0 conicto
960 0 lineto
960 7808 lineto
end_ol grestore 
gsave 58.988259 -1.370840 translate 0.035278 -0.035278 scale
start_ol
6720 2900 moveto
6720 2368 lineto
2304 2368 lineto
2373 1728 2787 1408 conicto
3201 1088 3944 1088 conicto
4543 1088 5172 1262 conicto
5801 1437 6464 1792 conicto
6464 320 lineto
5799 98 5134 -15 conicto
4469 -128 3804 -128 conicto
2212 -128 1330 671 conicto
448 1470 448 2912 conicto
448 4329 1311 5140 conicto
2175 5952 3688 5952 conicto
5066 5952 5893 5121 conicto
6720 4290 6720 2900 conicto
4864 3520 moveto
4864 4066 4539 4401 conicto
4214 4736 3691 4736 conicto
3123 4736 2768 4422 conicto
2413 4109 2326 3520 conicto
4864 3520 lineto
end_ol grestore 
gsave 59.944860 -1.370840 translate 0.035278 -0.035278 scale
start_ol
192 5824 moveto
2062 5824 lineto
3520 1799 lineto
4972 5824 lineto
6848 5824 lineto
4544 0 lineto
2491 0 lineto
192 5824 lineto
end_ol grestore 
gsave 60.863998 -1.370840 translate 0.035278 -0.035278 scale
start_ol
896 5824 moveto
2752 5824 lineto
2752 0 lineto
896 0 lineto
896 5824 lineto
896 8128 moveto
2752 8128 lineto
2752 6592 lineto
896 6592 lineto
896 8128 lineto
end_ol grestore 
gsave 61.346044 -1.370840 translate 0.035278 -0.035278 scale
start_ol
5632 5632 moveto
5632 4096 lineto
5245 4357 4855 4482 conicto
4466 4608 4048 4608 conicto
3253 4608 2810 4161 conicto
2368 3714 2368 2912 conicto
2368 2110 2810 1663 conicto
3253 1216 4048 1216 conicto
4493 1216 4893 1345 conicto
5293 1475 5632 1728 conicto
5632 192 lineto
5192 32 4738 -48 conicto
4285 -128 3829 -128 conicto
2241 -128 1344 676 conicto
448 1480 448 2912 conicto
448 4344 1344 5148 conicto
2241 5952 3829 5952 conicto
4290 5952 4738 5872 conicto
5186 5792 5632 5632 conicto
end_ol grestore 
gsave 62.182755 -1.370840 translate 0.035278 -0.035278 scale
start_ol
6720 2900 moveto
6720 2368 lineto
2304 2368 lineto
2373 1728 2787 1408 conicto
3201 1088 3944 1088 conicto
4543 1088 5172 1262 conicto
5801 1437 6464 1792 conicto
6464 320 lineto
5799 98 5134 -15 conicto
4469 -128 3804 -128 conicto
2212 -128 1330 671 conicto
448 1470 448 2912 conicto
448 4329 1311 5140 conicto
2175 5952 3688 5952 conicto
5066 5952 5893 5121 conicto
6720 4290 6720 2900 conicto
4864 3520 moveto
4864 4066 4539 4401 conicto
4214 4736 3691 4736 conicto
3123 4736 2768 4422 conicto
2413 4109 2326 3520 conicto
4864 3520 lineto
end_ol grestore 
0.100000 slw
[] 0 sd
[] 0 sd
0 slc
n 28.954300 -6.869410 m 34.108697 -6.869410 l s
[] 0 sd
0 slj
0 slc
n 34.483697 -6.869410 m 33.983697 -6.619410 l 34.108697 -6.869410 l 33.983697 -7.119410 l ef
n 34.483697 -6.869410 m 33.983697 -6.619410 l 34.108697 -6.869410 l 33.983697 -7.119410 l cp s
0.100000 slw
[] 0 sd
[] 0 sd
0 slc
n 34.725200 -3.043740 m 29.376203 -3.043740 l s
[] 0 sd
0 slj
0 slc
n 29.001203 -3.043740 m 29.501203 -3.293740 l 29.376203 -3.043740 l 29.501203 -2.793740 l ef
n 29.001203 -3.043740 m 29.501203 -3.293740 l 29.376203 -3.043740 l 29.501203 -2.793740 l cp s
0.100000 slw
[] 0 sd
[] 0 sd
0 slc
n 34.629500 0.916798 m 29.280603 0.916798 l s
[] 0 sd
0 slj
0 slc
n 28.905603 0.916798 m 29.405603 0.666798 l 29.280603 0.916798 l 29.405603 1.166798 l ef
n 28.905603 0.916798 m 29.405603 0.666798 l 29.280603 0.916798 l 29.405603 1.166798 l cp s
0.100000 slw
[] 0 sd
[] 0 sd
0 slc
n 52.966800 -6.831820 m 47.617903 -6.831820 l s
[] 0 sd
0 slj
0 slc
n 47.242903 -6.831820 m 47.742903 -7.081820 l 47.617903 -6.831820 l 47.742903 -6.581820 l ef
n 47.242903 -6.831820 m 47.742903 -7.081820 l 47.617903 -6.831820 l 47.742903 -6.581820 l cp s
0.100000 slw
[] 0 sd
[] 0 sd
0 slc
n 52.953900 -2.908880 m 47.604903 -2.908880 l s
[] 0 sd
0 slj
0 slc
n 47.229903 -2.908880 m 47.729903 -3.158880 l 47.604903 -2.908880 l 47.729903 -2.658880 l ef
n 47.229903 -2.908880 m 47.729903 -3.158880 l 47.604903 -2.908880 l 47.729903 -2.658880 l cp s
0.100000 slw
[] 0 sd
[] 0 sd
0 slc
n 53.005800 1.208590 m 47.656803 1.208590 l s
[] 0 sd
0 slj
0 slc
n 47.281803 1.208590 m 47.781803 0.958590 l 47.656803 1.208590 l 47.781803 1.458590 l ef
n 47.281803 1.208590 m 47.781803 0.958590 l 47.656803 1.208590 l 47.781803 1.458590 l cp s
gsave 31.094100 -7.258470 translate 0.035278 -0.035278 scale
start_ol
2809 2197 moveto
3006 2128 3192 1902 conicto
3378 1677 3566 1283 conicto
4224 0 lineto
3530 0 lineto
2956 1204 lineto
2723 1676 2504 1830 conicto
2286 1984 1908 1984 conicto
1216 1984 lineto
1216 0 lineto
576 0 lineto
576 4672 lineto
2015 4672 lineto
2806 4672 3195 4338 conicto
3584 4004 3584 3330 conicto
3584 2890 3385 2599 conicto
3187 2309 2809 2197 conicto
1216 4160 moveto
1216 2496 lineto
2015 2496 lineto
2475 2496 2709 2708 conicto
2944 2920 2944 3331 conicto
2944 3742 2709 3951 conicto
2475 4160 2015 4160 conicto
1216 4160 lineto
end_ol grestore 
gsave 31.681045 -7.258470 translate 0.035278 -0.035278 scale
start_ol
576 4672 moveto
3520 4672 lineto
3520 4160 lineto
1216 4160 lineto
1216 2752 lineto
3456 2752 lineto
3456 2240 lineto
1216 2240 lineto
1216 512 lineto
3584 512 lineto
3584 0 lineto
576 0 lineto
576 4672 lineto
end_ol grestore 
gsave 32.215545 -7.258470 translate 0.035278 -0.035278 scale
start_ol
2531 4288 moveto
1839 4288 1431 3772 conicto
1024 3256 1024 2366 conicto
1024 1480 1431 964 conicto
1839 448 2531 448 conicto
3223 448 3627 964 conicto
4032 1480 4032 2366 conicto
4032 3256 3627 3772 conicto
3223 4288 2531 4288 conicto
3422 111 moveto
4248 -832 lineto
3486 -832 lineto
2795 -55 lineto
2692 -59 2638 -61 conicto
2584 -64 2534 -64 conicto
1555 -64 969 597 conicto
384 1258 384 2366 conicto
384 3478 969 4139 conicto
1554 4800 2531 4800 conicto
3505 4800 4088 4139 conicto
4672 3478 4672 2366 conicto
4672 1549 4351 968 conicto
4030 387 3422 111 conicto
end_ol grestore 
gsave 30.692100 -3.520650 translate 0.035278 -0.035278 scale
start_ol
0 4672 moveto
3968 4672 lineto
3968 4160 lineto
2304 4160 lineto
2304 0 lineto
1664 0 lineto
1664 4160 lineto
0 4160 lineto
0 4672 lineto
end_ol grestore 
gsave 31.209112 -3.520650 translate 0.035278 -0.035278 scale
start_ol
3520 3520 moveto
2259 1807 lineto
3584 0 lineto
2909 0 lineto
1895 1383 lineto
873 0 lineto
192 0 lineto
1559 1842 lineto
320 3520 lineto
995 3520 lineto
1920 2266 lineto
2845 3520 lineto
3520 3520 lineto
end_ol grestore 
gsave 31.708646 -3.520650 translate 0.035278 -0.035278 scale
start_ol
2531 4288 moveto
1839 4288 1431 3772 conicto
1024 3256 1024 2366 conicto
1024 1480 1431 964 conicto
1839 448 2531 448 conicto
3223 448 3627 964 conicto
4032 1480 4032 2366 conicto
4032 3256 3627 3772 conicto
3223 4288 2531 4288 conicto
2531 4800 moveto
3505 4800 4088 4139 conicto
4672 3478 4672 2366 conicto
4672 1258 4088 597 conicto
3505 -64 2531 -64 conicto
1554 -64 969 595 conicto
384 1255 384 2366 conicto
384 3478 969 4139 conicto
1554 4800 2531 4800 conicto
end_ol grestore 
gsave 32.375520 -3.520650 translate 0.035278 -0.035278 scale
start_ol
1152 576 moveto
1152 -1344 lineto
576 -1344 lineto
576 3520 lineto
1152 3520 lineto
1152 3008 lineto
1334 3333 1611 3490 conicto
1888 3648 2274 3648 conicto
2913 3648 3312 3136 conicto
3712 2625 3712 1792 conicto
3712 959 3312 447 conicto
2913 -64 2274 -64 conicto
1888 -64 1611 93 conicto
1334 251 1152 576 conicto
3072 1792 moveto
3072 2421 2816 2778 conicto
2560 3136 2112 3136 conicto
1664 3136 1408 2778 conicto
1152 2421 1152 1792 conicto
1152 1163 1408 805 conicto
1664 448 2112 448 conicto
2560 448 2816 805 conicto
3072 1163 3072 1792 conicto
end_ol grestore 
gsave 30.692100 0.564391 translate 0.035278 -0.035278 scale
start_ol
4160 4352 moveto
4160 3712 lineto
3837 4002 3471 4145 conicto
3106 4288 2695 4288 conicto
1885 4288 1454 3794 conicto
1024 3300 1024 2366 conicto
1024 1436 1454 942 conicto
1885 448 2695 448 conicto
3106 448 3471 591 conicto
3837 734 4160 1024 conicto
4160 384 lineto
3828 160 3456 48 conicto
3084 -64 2670 -64 conicto
1607 -64 995 587 conicto
384 1239 384 2366 conicto
384 3497 995 4148 conicto
1607 4800 2670 4800 conicto
3091 4800 3462 4688 conicto
3834 4576 4160 4352 conicto
end_ol grestore 
gsave 31.281542 0.564391 translate 0.035278 -0.035278 scale
start_ol
0 4672 moveto
3968 4672 lineto
3968 4160 lineto
2304 4160 lineto
2304 0 lineto
1664 0 lineto
1664 4160 lineto
0 4160 lineto
0 4672 lineto
end_ol grestore 
gsave 31.798554 0.564391 translate 0.035278 -0.035278 scale
start_ol
2809 2197 moveto
3006 2128 3192 1902 conicto
3378 1677 3566 1283 conicto
4224 0 lineto
3530 0 lineto
2956 1204 lineto
2723 1676 2504 1830 conicto
2286 1984 1908 1984 conicto
1216 1984 lineto
1216 0 lineto
576 0 lineto
576 4672 lineto
2015 4672 lineto
2806 4672 3195 4338 conicto
3584 4004 3584 3330 conicto
3584 2890 3385 2599 conicto
3187 2309 2809 2197 conicto
1216 4160 moveto
1216 2496 lineto
2015 2496 lineto
2475 2496 2709 2708 conicto
2944 2920 2944 3331 conicto
2944 3742 2709 3951 conicto
2475 4160 2015 4160 conicto
1216 4160 lineto
end_ol grestore 
gsave 32.385499 0.564391 translate 0.035278 -0.035278 scale
start_ol
576 4672 moveto
1216 4672 lineto
1216 512 lineto
3456 512 lineto
3456 0 lineto
576 0 lineto
576 4672 lineto
end_ol grestore 
gsave 49.418400 -7.249070 translate 0.035278 -0.035278 scale
start_ol
1216 2240 moveto
1216 512 lineto
2232 512 lineto
2758 512 3011 725 conicto
3264 938 3264 1378 conicto
3264 1820 3011 2030 conicto
2758 2240 2232 2240 conicto
1216 2240 lineto
1216 4160 moveto
1216 2752 lineto
2153 2752 lineto
2617 2752 2844 2925 conicto
3072 3099 3072 3456 conicto
3072 3810 2844 3985 conicto
2617 4160 2153 4160 conicto
1216 4160 lineto
576 4672 moveto
2200 4672 lineto
2926 4672 3319 4372 conicto
3712 4073 3712 3522 conicto
3712 3094 3510 2841 conicto
3309 2589 2918 2527 conicto
3386 2427 3645 2108 conicto
3904 1789 3904 1312 conicto
3904 684 3477 342 conicto
3051 0 2263 0 conicto
576 0 lineto
576 4672 lineto
end_ol grestore 
gsave 49.997854 -7.249070 translate 0.035278 -0.035278 scale
start_ol
1216 4160 moveto
1216 512 lineto
1978 512 lineto
2943 512 3391 952 conicto
3840 1392 3840 2341 conicto
3840 3283 3391 3721 conicto
2943 4160 1978 4160 conicto
1216 4160 lineto
576 4672 moveto
1881 4672 lineto
3224 4672 3852 4107 conicto
4480 3542 4480 2341 conicto
4480 1133 3849 566 conicto
3218 0 1881 0 conicto
576 0 lineto
576 4672 lineto
end_ol grestore 
gsave 49.405500 -3.326130 translate 0.035278 -0.035278 scale
start_ol
576 4672 moveto
3520 4672 lineto
3520 4160 lineto
1216 4160 lineto
1216 2752 lineto
3456 2752 lineto
3456 2240 lineto
1216 2240 lineto
1216 512 lineto
3584 512 lineto
3584 0 lineto
576 0 lineto
576 4672 lineto
end_ol grestore 
gsave 49.940000 -3.326130 translate 0.035278 -0.035278 scale
start_ol
1216 4160 moveto
1216 512 lineto
1978 512 lineto
2943 512 3391 952 conicto
3840 1392 3840 2341 conicto
3840 3283 3391 3721 conicto
2943 4160 1978 4160 conicto
1216 4160 lineto
576 4672 moveto
1881 4672 lineto
3224 4672 3852 4107 conicto
4480 3542 4480 2341 conicto
4480 1133 3849 566 conicto
3218 0 1881 0 conicto
576 0 lineto
576 4672 lineto
end_ol grestore 
gsave 49.651900 0.596812 translate 0.035278 -0.035278 scale
start_ol
1216 4160 moveto
1216 2368 lineto
2015 2368 lineto
2459 2368 2701 2601 conicto
2944 2834 2944 3266 conicto
2944 3694 2701 3927 conicto
2459 4160 2015 4160 conicto
1216 4160 lineto
576 4672 moveto
2015 4672 lineto
2790 4672 3187 4314 conicto
3584 3956 3584 3266 conicto
3584 2569 3187 2212 conicto
2790 1856 2015 1856 conicto
1216 1856 lineto
1216 0 lineto
576 0 lineto
576 4672 lineto
end_ol grestore 
gsave 50.161421 0.596812 translate 0.035278 -0.035278 scale
start_ol
1216 4160 moveto
1216 512 lineto
1978 512 lineto
2943 512 3391 952 conicto
3840 1392 3840 2341 conicto
3840 3283 3391 3721 conicto
2943 4160 1978 4160 conicto
1216 4160 lineto
576 4672 moveto
1881 4672 lineto
3224 4672 3852 4107 conicto
4480 3542 4480 2341 conicto
4480 1133 3849 566 conicto
3218 0 1881 0 conicto
576 0 lineto
576 4672 lineto
end_ol grestore 
gsave 18.112700 -15.642300 translate 0.035278 -0.035278 scale
start_ol
6784 3534 moveto
6784 0 lineto
4928 0 lineto
4928 575 lineto
4928 2705 lineto
4928 3456 4893 3741 conicto
4859 4026 4773 4161 conicto
4661 4342 4469 4443 conicto
4277 4544 4032 4544 conicto
3435 4544 3093 4096 conicto
2752 3648 2752 2855 conicto
2752 0 lineto
896 0 lineto
896 5824 lineto
2752 5824 lineto
2752 4928 lineto
3177 5453 3655 5702 conicto
4133 5952 4710 5952 conicto
5729 5952 6256 5333 conicto
6784 4714 6784 3534 conicto
end_ol grestore 
gsave 19.116761 -15.642300 translate 0.035278 -0.035278 scale
start_ol
5504 5632 moveto
5504 4224 lineto
4915 4480 4367 4608 conicto
3820 4736 3333 4736 conicto
2811 4736 2557 4601 conicto
2304 4466 2304 4186 conicto
2304 3958 2497 3836 conicto
2691 3715 3191 3657 conicto
3516 3610 lineto
4919 3430 5403 3017 conicto
5888 2605 5888 1723 conicto
5888 800 5194 336 conicto
4501 -128 3125 -128 conicto
2542 -128 1919 -48 conicto
1297 32 640 192 conicto
640 1600 lineto
1212 1344 1812 1216 conicto
2413 1088 3033 1088 conicto
3594 1088 3877 1236 conicto
4160 1384 4160 1674 conicto
4160 1919 3972 2039 conicto
3784 2159 3222 2225 conicto
2897 2266 lineto
1610 2422 1093 2844 conicto
576 3267 576 4127 conicto
576 5055 1215 5503 conicto
1854 5952 3174 5952 conicto
3692 5952 4263 5874 conicto
4834 5797 5504 5632 conicto
end_ol grestore 
gsave 19.955969 -15.642300 translate 0.035278 -0.035278 scale
start_ol
576 3840 moveto
3840 3840 lineto
3840 2304 lineto
576 2304 lineto
576 3840 lineto
end_ol grestore 
gsave 20.540417 -15.642300 translate 0.035278 -0.035278 scale
start_ol
5002 4218 moveto
5782 4015 6187 3512 conicto
6592 3009 6592 2233 conicto
6592 1076 5702 474 conicto
4813 -128 3106 -128 conicto
2504 -128 1899 -32 conicto
1295 64 704 256 conicto
704 1792 lineto
1274 1507 1835 1361 conicto
2397 1216 2941 1216 conicto
3748 1216 4178 1496 conicto
4608 1776 4608 2299 conicto
4608 2837 4165 3114 conicto
3723 3392 2860 3392 conicto
2048 3392 lineto
2048 4672 lineto
2902 4672 lineto
3667 4672 4041 4912 conicto
4416 5152 4416 5643 conicto
4416 6096 4051 6344 conicto
3686 6592 3019 6592 conicto
2527 6592 2024 6478 conicto
1521 6365 1024 6144 conicto
1024 7616 lineto
1621 7776 2208 7856 conicto
2795 7936 3361 7936 conicto
4886 7936 5643 7439 conicto
6400 6943 6400 5944 conicto
6400 5263 6046 4829 conicto
5693 4395 5002 4218 conicto
end_ol grestore 
gsave 21.521997 -15.642300 translate 0.035278 -0.035278 scale
start_ol
end_ol grestore 
gsave 22.014031 -15.642300 translate 0.035278 -0.035278 scale
start_ol
6720 2900 moveto
6720 2368 lineto
2304 2368 lineto
2373 1728 2787 1408 conicto
3201 1088 3944 1088 conicto
4543 1088 5172 1262 conicto
5801 1437 6464 1792 conicto
6464 320 lineto
5799 98 5134 -15 conicto
4469 -128 3804 -128 conicto
2212 -128 1330 671 conicto
448 1470 448 2912 conicto
448 4329 1311 5140 conicto
2175 5952 3688 5952 conicto
5066 5952 5893 5121 conicto
6720 4290 6720 2900 conicto
4864 3520 moveto
4864 4066 4539 4401 conicto
4214 4736 3691 4736 conicto
3123 4736 2768 4422 conicto
2413 4109 2326 3520 conicto
4864 3520 lineto
end_ol grestore 
gsave 22.970632 -15.642300 translate 0.035278 -0.035278 scale
start_ol
960 7808 moveto
3215 7808 lineto
6016 2453 lineto
6016 7808 lineto
7936 7808 lineto
7936 0 lineto
5681 0 lineto
2880 5355 lineto
2880 0 lineto
960 0 lineto
960 7808 lineto
end_ol grestore 
gsave 24.149524 -15.642300 translate 0.035278 -0.035278 scale
start_ol
4074 4736 moveto
4557 4736 4806 4954 conicto
5056 5173 5056 5600 conicto
5056 6021 4806 6242 conicto
4557 6464 4074 6464 conicto
2944 6464 lineto
2944 4736 lineto
4074 4736 lineto
4143 1344 moveto
4757 1344 5066 1600 conicto
5376 1857 5376 2376 conicto
5376 2884 5069 3138 conicto
4762 3392 4143 3392 conicto
2944 3392 lineto
2944 1344 lineto
4143 1344 lineto
6018 4141 moveto
6658 3954 7009 3451 conicto
7360 2949 7360 2218 conicto
7360 1099 6601 549 conicto
5842 0 4292 0 conicto
960 0 lineto
960 7808 lineto
3968 7808 lineto
5587 7808 6313 7311 conicto
7040 6815 7040 5721 conicto
7040 5145 6778 4741 conicto
6516 4337 6018 4141 conicto
end_ol grestore 
gsave 25.223518 -15.642300 translate 0.035278 -0.035278 scale
start_ol
end_ol grestore 
gsave 25.715552 -15.642300 translate 0.035278 -0.035278 scale
start_ol
6784 3534 moveto
6784 0 lineto
4928 0 lineto
4928 575 lineto
4928 2705 lineto
4928 3456 4893 3741 conicto
4859 4026 4773 4161 conicto
4661 4342 4469 4443 conicto
4277 4544 4032 4544 conicto
3435 4544 3093 4096 conicto
2752 3648 2752 2855 conicto
2752 0 lineto
896 0 lineto
896 5824 lineto
2752 5824 lineto
2752 4928 lineto
3177 5453 3655 5702 conicto
4133 5952 4710 5952 conicto
5729 5952 6256 5333 conicto
6784 4714 6784 3534 conicto
end_ol grestore 
gsave 26.719612 -15.642300 translate 0.035278 -0.035278 scale
start_ol
3656 4608 moveto
3028 4608 2698 4171 conicto
2368 3734 2368 2912 conicto
2368 2090 2698 1653 conicto
3028 1216 3656 1216 conicto
4273 1216 4600 1653 conicto
4928 2090 4928 2912 conicto
4928 3734 4600 4171 conicto
4273 4608 3656 4608 conicto
3656 5952 moveto
5158 5952 6003 5145 conicto
6848 4339 6848 2912 conicto
6848 1485 6003 678 conicto
5158 -128 3656 -128 conicto
2148 -128 1298 678 conicto
448 1485 448 2912 conicto
448 4339 1298 5145 conicto
2148 5952 3656 5952 conicto
end_ol grestore 
gsave 27.688707 -15.642300 translate 0.035278 -0.035278 scale
start_ol
4928 4928 moveto
4928 8128 lineto
6784 8128 lineto
6784 0 lineto
4928 0 lineto
4928 896 lineto
4540 365 4073 118 conicto
3606 -128 2993 -128 conicto
1907 -128 1209 722 conicto
512 1573 512 2912 conicto
512 4251 1209 5101 conicto
1907 5952 2993 5952 conicto
3601 5952 4070 5702 conicto
4540 5453 4928 4928 conicto
3677 1216 moveto
4287 1216 4607 1650 conicto
4928 2085 4928 2912 conicto
4928 3739 4607 4173 conicto
4287 4608 3677 4608 conicto
3073 4608 2752 4173 conicto
2432 3739 2432 2912 conicto
2432 2085 2752 1650 conicto
3073 1216 3677 1216 conicto
end_ol grestore 
gsave 28.697761 -15.642300 translate 0.035278 -0.035278 scale
start_ol
6720 2900 moveto
6720 2368 lineto
2304 2368 lineto
2373 1728 2787 1408 conicto
3201 1088 3944 1088 conicto
4543 1088 5172 1262 conicto
5801 1437 6464 1792 conicto
6464 320 lineto
5799 98 5134 -15 conicto
4469 -128 3804 -128 conicto
2212 -128 1330 671 conicto
448 1470 448 2912 conicto
448 4329 1311 5140 conicto
2175 5952 3688 5952 conicto
5066 5952 5893 5121 conicto
6720 4290 6720 2900 conicto
4864 3520 moveto
4864 4066 4539 4401 conicto
4214 4736 3691 4736 conicto
3123 4736 2768 4422 conicto
2413 4109 2326 3520 conicto
4864 3520 lineto
end_ol grestore 
showpage
