%!PS-Adobe-2.0 EPSF-2.0
%%Title: ieee80211ax-indoor-propagation-loss.eps
%%Creator: gnuplot 4.6 patchlevel 4
%%CreationDate: Tue May 26 11:12:55 2015
%%DocumentFonts: (atend)
%%BoundingBox: 50 50 410 302
%%EndComments
%%BeginProlog
/gnudict 256 dict def
gnudict begin
%
% The following true/false flags may be edited by hand if desired.
% The unit line width and grayscale image gamma correction may also be changed.
%
/Color true def
/Blacktext false def
/Solid false def
/Dashlength 1 def
/Landscape false def
/Level1 false def
/Rounded false def
/ClipToBoundingBox false def
/SuppressPDFMark false def
/TransparentPatterns false def
/gnulinewidth 5.000 def
/userlinewidth gnulinewidth def
/Gamma 1.0 def
/BackgroundColor {-1.000 -1.000 -1.000} def
%
/vshift -46 def
/dl1 {
  10.0 Dashlength mul mul
  Rounded { currentlinewidth 0.75 mul sub dup 0 le { pop 0.01 } if } if
} def
/dl2 {
  10.0 Dashlength mul mul
  Rounded { currentlinewidth 0.75 mul add } if
} def
/hpt_ 31.5 def
/vpt_ 31.5 def
/hpt hpt_ def
/vpt vpt_ def
/doclip {
  ClipToBoundingBox {
    newpath 50 50 moveto 410 50 lineto 410 302 lineto 50 302 lineto closepath
    clip
  } if
} def
%
% Gnuplot Prolog Version 4.6 (September 2012)
%
%/SuppressPDFMark true def
%
/M {moveto} bind def
/L {lineto} bind def
/R {rmoveto} bind def
/V {rlineto} bind def
/N {newpath moveto} bind def
/Z {closepath} bind def
/C {setrgbcolor} bind def
/f {rlineto fill} bind def
/g {setgray} bind def
/Gshow {show} def   % May be redefined later in the file to support UTF-8
/vpt2 vpt 2 mul def
/hpt2 hpt 2 mul def
/Lshow {currentpoint stroke M 0 vshift R 
	Blacktext {gsave 0 setgray show grestore} {show} ifelse} def
/Rshow {currentpoint stroke M dup stringwidth pop neg vshift R
	Blacktext {gsave 0 setgray show grestore} {show} ifelse} def
/Cshow {currentpoint stroke M dup stringwidth pop -2 div vshift R 
	Blacktext {gsave 0 setgray show grestore} {show} ifelse} def
/UP {dup vpt_ mul /vpt exch def hpt_ mul /hpt exch def
  /hpt2 hpt 2 mul def /vpt2 vpt 2 mul def} def
/DL {Color {setrgbcolor Solid {pop []} if 0 setdash}
 {pop pop pop 0 setgray Solid {pop []} if 0 setdash} ifelse} def
/BL {stroke userlinewidth 2 mul setlinewidth
	Rounded {1 setlinejoin 1 setlinecap} if} def
/AL {stroke userlinewidth 2 div setlinewidth
	Rounded {1 setlinejoin 1 setlinecap} if} def
/UL {dup gnulinewidth mul /userlinewidth exch def
	dup 1 lt {pop 1} if 10 mul /udl exch def} def
/PL {stroke userlinewidth setlinewidth
	Rounded {1 setlinejoin 1 setlinecap} if} def
3.8 setmiterlimit
% Default Line colors
/LCw {1 1 1} def
/LCb {0 0 0} def
/LCa {0 0 0} def
/LC0 {1 0 0} def
/LC1 {0 1 0} def
/LC2 {0 0 1} def
/LC3 {1 0 1} def
/LC4 {0 1 1} def
/LC5 {1 1 0} def
/LC6 {0 0 0} def
/LC7 {1 0.3 0} def
/LC8 {0.5 0.5 0.5} def
% Default Line Types
/LTw {PL [] 1 setgray} def
/LTb {BL [] LCb DL} def
/LTa {AL [1 udl mul 2 udl mul] 0 setdash LCa setrgbcolor} def
/LT0 {PL [] LC0 DL} def
/LT1 {PL [4 dl1 2 dl2] LC1 DL} def
/LT2 {PL [2 dl1 3 dl2] LC2 DL} def
/LT3 {PL [1 dl1 1.5 dl2] LC3 DL} def
/LT4 {PL [6 dl1 2 dl2 1 dl1 2 dl2] LC4 DL} def
/LT5 {PL [3 dl1 3 dl2 1 dl1 3 dl2] LC5 DL} def
/LT6 {PL [2 dl1 2 dl2 2 dl1 6 dl2] LC6 DL} def
/LT7 {PL [1 dl1 2 dl2 6 dl1 2 dl2 1 dl1 2 dl2] LC7 DL} def
/LT8 {PL [2 dl1 2 dl2 2 dl1 2 dl2 2 dl1 2 dl2 2 dl1 4 dl2] LC8 DL} def
/Pnt {stroke [] 0 setdash gsave 1 setlinecap M 0 0 V stroke grestore} def
/Dia {stroke [] 0 setdash 2 copy vpt add M
  hpt neg vpt neg V hpt vpt neg V
  hpt vpt V hpt neg vpt V closepath stroke
  Pnt} def
/Pls {stroke [] 0 setdash vpt sub M 0 vpt2 V
  currentpoint stroke M
  hpt neg vpt neg R hpt2 0 V stroke
 } def
/Box {stroke [] 0 setdash 2 copy exch hpt sub exch vpt add M
  0 vpt2 neg V hpt2 0 V 0 vpt2 V
  hpt2 neg 0 V closepath stroke
  Pnt} def
/Crs {stroke [] 0 setdash exch hpt sub exch vpt add M
  hpt2 vpt2 neg V currentpoint stroke M
  hpt2 neg 0 R hpt2 vpt2 V stroke} def
/TriU {stroke [] 0 setdash 2 copy vpt 1.12 mul add M
  hpt neg vpt -1.62 mul V
  hpt 2 mul 0 V
  hpt neg vpt 1.62 mul V closepath stroke
  Pnt} def
/Star {2 copy Pls Crs} def
/BoxF {stroke [] 0 setdash exch hpt sub exch vpt add M
  0 vpt2 neg V hpt2 0 V 0 vpt2 V
  hpt2 neg 0 V closepath fill} def
/TriUF {stroke [] 0 setdash vpt 1.12 mul add M
  hpt neg vpt -1.62 mul V
  hpt 2 mul 0 V
  hpt neg vpt 1.62 mul V closepath fill} def
/TriD {stroke [] 0 setdash 2 copy vpt 1.12 mul sub M
  hpt neg vpt 1.62 mul V
  hpt 2 mul 0 V
  hpt neg vpt -1.62 mul V closepath stroke
  Pnt} def
/TriDF {stroke [] 0 setdash vpt 1.12 mul sub M
  hpt neg vpt 1.62 mul V
  hpt 2 mul 0 V
  hpt neg vpt -1.62 mul V closepath fill} def
/DiaF {stroke [] 0 setdash vpt add M
  hpt neg vpt neg V hpt vpt neg V
  hpt vpt V hpt neg vpt V closepath fill} def
/Pent {stroke [] 0 setdash 2 copy gsave
  translate 0 hpt M 4 {72 rotate 0 hpt L} repeat
  closepath stroke grestore Pnt} def
/PentF {stroke [] 0 setdash gsave
  translate 0 hpt M 4 {72 rotate 0 hpt L} repeat
  closepath fill grestore} def
/Circle {stroke [] 0 setdash 2 copy
  hpt 0 360 arc stroke Pnt} def
/CircleF {stroke [] 0 setdash hpt 0 360 arc fill} def
/C0 {BL [] 0 setdash 2 copy moveto vpt 90 450 arc} bind def
/C1 {BL [] 0 setdash 2 copy moveto
	2 copy vpt 0 90 arc closepath fill
	vpt 0 360 arc closepath} bind def
/C2 {BL [] 0 setdash 2 copy moveto
	2 copy vpt 90 180 arc closepath fill
	vpt 0 360 arc closepath} bind def
/C3 {BL [] 0 setdash 2 copy moveto
	2 copy vpt 0 180 arc closepath fill
	vpt 0 360 arc closepath} bind def
/C4 {BL [] 0 setdash 2 copy moveto
	2 copy vpt 180 270 arc closepath fill
	vpt 0 360 arc closepath} bind def
/C5 {BL [] 0 setdash 2 copy moveto
	2 copy vpt 0 90 arc
	2 copy moveto
	2 copy vpt 180 270 arc closepath fill
	vpt 0 360 arc} bind def
/C6 {BL [] 0 setdash 2 copy moveto
	2 copy vpt 90 270 arc closepath fill
	vpt 0 360 arc closepath} bind def
/C7 {BL [] 0 setdash 2 copy moveto
	2 copy vpt 0 270 arc closepath fill
	vpt 0 360 arc closepath} bind def
/C8 {BL [] 0 setdash 2 copy moveto
	2 copy vpt 270 360 arc closepath fill
	vpt 0 360 arc closepath} bind def
/C9 {BL [] 0 setdash 2 copy moveto
	2 copy vpt 270 450 arc closepath fill
	vpt 0 360 arc closepath} bind def
/C10 {BL [] 0 setdash 2 copy 2 copy moveto vpt 270 360 arc closepath fill
	2 copy moveto
	2 copy vpt 90 180 arc closepath fill
	vpt 0 360 arc closepath} bind def
/C11 {BL [] 0 setdash 2 copy moveto
	2 copy vpt 0 180 arc closepath fill
	2 copy moveto
	2 copy vpt 270 360 arc closepath fill
	vpt 0 360 arc closepath} bind def
/C12 {BL [] 0 setdash 2 copy moveto
	2 copy vpt 180 360 arc closepath fill
	vpt 0 360 arc closepath} bind def
/C13 {BL [] 0 setdash 2 copy moveto
	2 copy vpt 0 90 arc closepath fill
	2 copy moveto
	2 copy vpt 180 360 arc closepath fill
	vpt 0 360 arc closepath} bind def
/C14 {BL [] 0 setdash 2 copy moveto
	2 copy vpt 90 360 arc closepath fill
	vpt 0 360 arc} bind def
/C15 {BL [] 0 setdash 2 copy vpt 0 360 arc closepath fill
	vpt 0 360 arc closepath} bind def
/Rec {newpath 4 2 roll moveto 1 index 0 rlineto 0 exch rlineto
	neg 0 rlineto closepath} bind def
/Square {dup Rec} bind def
/Bsquare {vpt sub exch vpt sub exch vpt2 Square} bind def
/S0 {BL [] 0 setdash 2 copy moveto 0 vpt rlineto BL Bsquare} bind def
/S1 {BL [] 0 setdash 2 copy vpt Square fill Bsquare} bind def
/S2 {BL [] 0 setdash 2 copy exch vpt sub exch vpt Square fill Bsquare} bind def
/S3 {BL [] 0 setdash 2 copy exch vpt sub exch vpt2 vpt Rec fill Bsquare} bind def
/S4 {BL [] 0 setdash 2 copy exch vpt sub exch vpt sub vpt Square fill Bsquare} bind def
/S5 {BL [] 0 setdash 2 copy 2 copy vpt Square fill
	exch vpt sub exch vpt sub vpt Square fill Bsquare} bind def
/S6 {BL [] 0 setdash 2 copy exch vpt sub exch vpt sub vpt vpt2 Rec fill Bsquare} bind def
/S7 {BL [] 0 setdash 2 copy exch vpt sub exch vpt sub vpt vpt2 Rec fill
	2 copy vpt Square fill Bsquare} bind def
/S8 {BL [] 0 setdash 2 copy vpt sub vpt Square fill Bsquare} bind def
/S9 {BL [] 0 setdash 2 copy vpt sub vpt vpt2 Rec fill Bsquare} bind def
/S10 {BL [] 0 setdash 2 copy vpt sub vpt Square fill 2 copy exch vpt sub exch vpt Square fill
	Bsquare} bind def
/S11 {BL [] 0 setdash 2 copy vpt sub vpt Square fill 2 copy exch vpt sub exch vpt2 vpt Rec fill
	Bsquare} bind def
/S12 {BL [] 0 setdash 2 copy exch vpt sub exch vpt sub vpt2 vpt Rec fill Bsquare} bind def
/S13 {BL [] 0 setdash 2 copy exch vpt sub exch vpt sub vpt2 vpt Rec fill
	2 copy vpt Square fill Bsquare} bind def
/S14 {BL [] 0 setdash 2 copy exch vpt sub exch vpt sub vpt2 vpt Rec fill
	2 copy exch vpt sub exch vpt Square fill Bsquare} bind def
/S15 {BL [] 0 setdash 2 copy Bsquare fill Bsquare} bind def
/D0 {gsave translate 45 rotate 0 0 S0 stroke grestore} bind def
/D1 {gsave translate 45 rotate 0 0 S1 stroke grestore} bind def
/D2 {gsave translate 45 rotate 0 0 S2 stroke grestore} bind def
/D3 {gsave translate 45 rotate 0 0 S3 stroke grestore} bind def
/D4 {gsave translate 45 rotate 0 0 S4 stroke grestore} bind def
/D5 {gsave translate 45 rotate 0 0 S5 stroke grestore} bind def
/D6 {gsave translate 45 rotate 0 0 S6 stroke grestore} bind def
/D7 {gsave translate 45 rotate 0 0 S7 stroke grestore} bind def
/D8 {gsave translate 45 rotate 0 0 S8 stroke grestore} bind def
/D9 {gsave translate 45 rotate 0 0 S9 stroke grestore} bind def
/D10 {gsave translate 45 rotate 0 0 S10 stroke grestore} bind def
/D11 {gsave translate 45 rotate 0 0 S11 stroke grestore} bind def
/D12 {gsave translate 45 rotate 0 0 S12 stroke grestore} bind def
/D13 {gsave translate 45 rotate 0 0 S13 stroke grestore} bind def
/D14 {gsave translate 45 rotate 0 0 S14 stroke grestore} bind def
/D15 {gsave translate 45 rotate 0 0 S15 stroke grestore} bind def
/DiaE {stroke [] 0 setdash vpt add M
  hpt neg vpt neg V hpt vpt neg V
  hpt vpt V hpt neg vpt V closepath stroke} def
/BoxE {stroke [] 0 setdash exch hpt sub exch vpt add M
  0 vpt2 neg V hpt2 0 V 0 vpt2 V
  hpt2 neg 0 V closepath stroke} def
/TriUE {stroke [] 0 setdash vpt 1.12 mul add M
  hpt neg vpt -1.62 mul V
  hpt 2 mul 0 V
  hpt neg vpt 1.62 mul V closepath stroke} def
/TriDE {stroke [] 0 setdash vpt 1.12 mul sub M
  hpt neg vpt 1.62 mul V
  hpt 2 mul 0 V
  hpt neg vpt -1.62 mul V closepath stroke} def
/PentE {stroke [] 0 setdash gsave
  translate 0 hpt M 4 {72 rotate 0 hpt L} repeat
  closepath stroke grestore} def
/CircE {stroke [] 0 setdash 
  hpt 0 360 arc stroke} def
/Opaque {gsave closepath 1 setgray fill grestore 0 setgray closepath} def
/DiaW {stroke [] 0 setdash vpt add M
  hpt neg vpt neg V hpt vpt neg V
  hpt vpt V hpt neg vpt V Opaque stroke} def
/BoxW {stroke [] 0 setdash exch hpt sub exch vpt add M
  0 vpt2 neg V hpt2 0 V 0 vpt2 V
  hpt2 neg 0 V Opaque stroke} def
/TriUW {stroke [] 0 setdash vpt 1.12 mul add M
  hpt neg vpt -1.62 mul V
  hpt 2 mul 0 V
  hpt neg vpt 1.62 mul V Opaque stroke} def
/TriDW {stroke [] 0 setdash vpt 1.12 mul sub M
  hpt neg vpt 1.62 mul V
  hpt 2 mul 0 V
  hpt neg vpt -1.62 mul V Opaque stroke} def
/PentW {stroke [] 0 setdash gsave
  translate 0 hpt M 4 {72 rotate 0 hpt L} repeat
  Opaque stroke grestore} def
/CircW {stroke [] 0 setdash 
  hpt 0 360 arc Opaque stroke} def
/BoxFill {gsave Rec 1 setgray fill grestore} def
/Density {
  /Fillden exch def
  currentrgbcolor
  /ColB exch def /ColG exch def /ColR exch def
  /ColR ColR Fillden mul Fillden sub 1 add def
  /ColG ColG Fillden mul Fillden sub 1 add def
  /ColB ColB Fillden mul Fillden sub 1 add def
  ColR ColG ColB setrgbcolor} def
/BoxColFill {gsave Rec PolyFill} def
/PolyFill {gsave Density fill grestore grestore} def
/h {rlineto rlineto rlineto gsave closepath fill grestore} bind def
%
% PostScript Level 1 Pattern Fill routine for rectangles
% Usage: x y w h s a XX PatternFill
%	x,y = lower left corner of box to be filled
%	w,h = width and height of box
%	  a = angle in degrees between lines and x-axis
%	 XX = 0/1 for no/yes cross-hatch
%
/PatternFill {gsave /PFa [ 9 2 roll ] def
  PFa 0 get PFa 2 get 2 div add PFa 1 get PFa 3 get 2 div add translate
  PFa 2 get -2 div PFa 3 get -2 div PFa 2 get PFa 3 get Rec
  TransparentPatterns {} {gsave 1 setgray fill grestore} ifelse
  clip
  currentlinewidth 0.5 mul setlinewidth
  /PFs PFa 2 get dup mul PFa 3 get dup mul add sqrt def
  0 0 M PFa 5 get rotate PFs -2 div dup translate
  0 1 PFs PFa 4 get div 1 add floor cvi
	{PFa 4 get mul 0 M 0 PFs V} for
  0 PFa 6 get ne {
	0 1 PFs PFa 4 get div 1 add floor cvi
	{PFa 4 get mul 0 2 1 roll M PFs 0 V} for
 } if
  stroke grestore} def
%
/languagelevel where
 {pop languagelevel} {1} ifelse
 2 lt
	{/InterpretLevel1 true def}
	{/InterpretLevel1 Level1 def}
 ifelse
%
% PostScript level 2 pattern fill definitions
%
/Level2PatternFill {
/Tile8x8 {/PaintType 2 /PatternType 1 /TilingType 1 /BBox [0 0 8 8] /XStep 8 /YStep 8}
	bind def
/KeepColor {currentrgbcolor [/Pattern /DeviceRGB] setcolorspace} bind def
<< Tile8x8
 /PaintProc {0.5 setlinewidth pop 0 0 M 8 8 L 0 8 M 8 0 L stroke} 
>> matrix makepattern
/Pat1 exch def
<< Tile8x8
 /PaintProc {0.5 setlinewidth pop 0 0 M 8 8 L 0 8 M 8 0 L stroke
	0 4 M 4 8 L 8 4 L 4 0 L 0 4 L stroke}
>> matrix makepattern
/Pat2 exch def
<< Tile8x8
 /PaintProc {0.5 setlinewidth pop 0 0 M 0 8 L
	8 8 L 8 0 L 0 0 L fill}
>> matrix makepattern
/Pat3 exch def
<< Tile8x8
 /PaintProc {0.5 setlinewidth pop -4 8 M 8 -4 L
	0 12 M 12 0 L stroke}
>> matrix makepattern
/Pat4 exch def
<< Tile8x8
 /PaintProc {0.5 setlinewidth pop -4 0 M 8 12 L
	0 -4 M 12 8 L stroke}
>> matrix makepattern
/Pat5 exch def
<< Tile8x8
 /PaintProc {0.5 setlinewidth pop -2 8 M 4 -4 L
	0 12 M 8 -4 L 4 12 M 10 0 L stroke}
>> matrix makepattern
/Pat6 exch def
<< Tile8x8
 /PaintProc {0.5 setlinewidth pop -2 0 M 4 12 L
	0 -4 M 8 12 L 4 -4 M 10 8 L stroke}
>> matrix makepattern
/Pat7 exch def
<< Tile8x8
 /PaintProc {0.5 setlinewidth pop 8 -2 M -4 4 L
	12 0 M -4 8 L 12 4 M 0 10 L stroke}
>> matrix makepattern
/Pat8 exch def
<< Tile8x8
 /PaintProc {0.5 setlinewidth pop 0 -2 M 12 4 L
	-4 0 M 12 8 L -4 4 M 8 10 L stroke}
>> matrix makepattern
/Pat9 exch def
/Pattern1 {PatternBgnd KeepColor Pat1 setpattern} bind def
/Pattern2 {PatternBgnd KeepColor Pat2 setpattern} bind def
/Pattern3 {PatternBgnd KeepColor Pat3 setpattern} bind def
/Pattern4 {PatternBgnd KeepColor Landscape {Pat5} {Pat4} ifelse setpattern} bind def
/Pattern5 {PatternBgnd KeepColor Landscape {Pat4} {Pat5} ifelse setpattern} bind def
/Pattern6 {PatternBgnd KeepColor Landscape {Pat9} {Pat6} ifelse setpattern} bind def
/Pattern7 {PatternBgnd KeepColor Landscape {Pat8} {Pat7} ifelse setpattern} bind def
} def
%
%
%End of PostScript Level 2 code
%
/PatternBgnd {
  TransparentPatterns {} {gsave 1 setgray fill grestore} ifelse
} def
%
% Substitute for Level 2 pattern fill codes with
% grayscale if Level 2 support is not selected.
%
/Level1PatternFill {
/Pattern1 {0.250 Density} bind def
/Pattern2 {0.500 Density} bind def
/Pattern3 {0.750 Density} bind def
/Pattern4 {0.125 Density} bind def
/Pattern5 {0.375 Density} bind def
/Pattern6 {0.625 Density} bind def
/Pattern7 {0.875 Density} bind def
} def
%
% Now test for support of Level 2 code
%
Level1 {Level1PatternFill} {Level2PatternFill} ifelse
%
/Symbol-Oblique /Symbol findfont [1 0 .167 1 0 0] makefont
dup length dict begin {1 index /FID eq {pop pop} {def} ifelse} forall
currentdict end definefont pop
/MFshow {
   { dup 5 get 3 ge
     { 5 get 3 eq {gsave} {grestore} ifelse }
     {dup dup 0 get findfont exch 1 get scalefont setfont
     [ currentpoint ] exch dup 2 get 0 exch R dup 5 get 2 ne {dup dup 6
     get exch 4 get {Gshow} {stringwidth pop 0 R} ifelse }if dup 5 get 0 eq
     {dup 3 get {2 get neg 0 exch R pop} {pop aload pop M} ifelse} {dup 5
     get 1 eq {dup 2 get exch dup 3 get exch 6 get stringwidth pop -2 div
     dup 0 R} {dup 6 get stringwidth pop -2 div 0 R 6 get
     show 2 index {aload pop M neg 3 -1 roll neg R pop pop} {pop pop pop
     pop aload pop M} ifelse }ifelse }ifelse }
     ifelse }
   forall} def
/Gswidth {dup type /stringtype eq {stringwidth} {pop (n) stringwidth} ifelse} def
/MFwidth {0 exch { dup 5 get 3 ge { 5 get 3 eq { 0 } { pop } ifelse }
 {dup 3 get{dup dup 0 get findfont exch 1 get scalefont setfont
     6 get Gswidth pop add} {pop} ifelse} ifelse} forall} def
/MLshow { currentpoint stroke M
  0 exch R
  Blacktext {gsave 0 setgray MFshow grestore} {MFshow} ifelse } bind def
/MRshow { currentpoint stroke M
  exch dup MFwidth neg 3 -1 roll R
  Blacktext {gsave 0 setgray MFshow grestore} {MFshow} ifelse } bind def
/MCshow { currentpoint stroke M
  exch dup MFwidth -2 div 3 -1 roll R
  Blacktext {gsave 0 setgray MFshow grestore} {MFshow} ifelse } bind def
/XYsave    { [( ) 1 2 true false 3 ()] } bind def
/XYrestore { [( ) 1 2 true false 4 ()] } bind def
Level1 SuppressPDFMark or 
{} {
/SDict 10 dict def
systemdict /pdfmark known not {
  userdict /pdfmark systemdict /cleartomark get put
} if
SDict begin [
  /Title (ieee80211ax-indoor-propagation-loss.eps)
  /Subject (gnuplot plot)
  /Creator (gnuplot 4.6 patchlevel 4)
  /Author (nicola)
%  /Producer (gnuplot)
%  /Keywords ()
  /CreationDate (Tue May 26 11:12:55 2015)
  /DOCINFO pdfmark
end
} ifelse
end
%%EndProlog
%%Page: 1 1
gnudict begin
gsave
doclip
50 50 translate
0.050 0.050 scale
0 setgray
newpath
(Helvetica) findfont 140 scalefont setfont
BackgroundColor 0 lt 3 1 roll 0 lt exch 0 lt or or not {BackgroundColor C 1.000 0 0 7200.00 5040.00 BoxColFill} if
1.000 UL
LTb
LCb setrgbcolor
1.000 UL
LTb
LCb setrgbcolor
971 1280 M
2896 2658 L
stroke
LTb
LCb setrgbcolor
6229 1863 M
2896 2658 L
stroke
LTb
LCb setrgbcolor
971 1280 M
0 1897 V
stroke
LTa
LCa setrgbcolor
6081 1757 M
2748 2552 L
stroke
LTb
LCb setrgbcolor
6081 1757 M
-85 20 V
stroke
LTb
LCb setrgbcolor
6153 1712 M
[ [(Helvetica) 140.0 0.0 true true 0 ( 20)]
] -46.7 MLshow
1.000 UL
LTb
LCb setrgbcolor
1.000 UL
LTb
LCb setrgbcolor
2748 2552 M
85 -20 V
stroke
LTa
LCa setrgbcolor
5785 1545 M
2452 2341 L
stroke
LTb
LCb setrgbcolor
5785 1545 M
-85 20 V
stroke
LTb
LCb setrgbcolor
5857 1500 M
[ [(Helvetica) 140.0 0.0 true true 0 ( 40)]
] -46.7 MLshow
1.000 UL
LTb
LCb setrgbcolor
1.000 UL
LTb
LCb setrgbcolor
2452 2341 M
84 -20 V
stroke
LTa
LCa setrgbcolor
5489 1332 M
2156 2129 L
stroke
LTb
LCb setrgbcolor
5489 1332 M
-85 21 V
stroke
LTb
LCb setrgbcolor
5561 1287 M
[ [(Helvetica) 140.0 0.0 true true 0 ( 60)]
] -46.7 MLshow
1.000 UL
LTb
LCb setrgbcolor
1.000 UL
LTb
LCb setrgbcolor
2156 2129 M
84 -21 V
stroke
LTa
LCa setrgbcolor
5193 1120 M
1859 1917 L
stroke
LTb
LCb setrgbcolor
5193 1120 M
-85 20 V
stroke
LTb
LCb setrgbcolor
5265 1075 M
[ [(Helvetica) 140.0 0.0 true true 0 ( 80)]
] -46.7 MLshow
1.000 UL
LTb
LCb setrgbcolor
1.000 UL
LTb
LCb setrgbcolor
1859 1917 M
85 -21 V
stroke
LTa
LCa setrgbcolor
4896 908 M
1563 1704 L
stroke
LTb
LCb setrgbcolor
4896 908 M
-84 20 V
stroke
LTb
LCb setrgbcolor
4968 863 M
[ [(Helvetica) 140.0 0.0 true true 0 ( 100)]
] -46.7 MLshow
1.000 UL
LTb
LCb setrgbcolor
1.000 UL
LTb
LCb setrgbcolor
1563 1704 M
85 -20 V
stroke
LTa
LCa setrgbcolor
4600 696 M
1267 1492 L
stroke
LTb
LCb setrgbcolor
4600 696 M
-85 20 V
stroke
LTb
LCb setrgbcolor
4672 651 M
[ [(Helvetica) 140.0 0.0 true true 0 ( 120)]
] -46.7 MLshow
1.000 UL
LTb
LCb setrgbcolor
1.000 UL
LTb
LCb setrgbcolor
1267 1492 M
85 -20 V
stroke
LTa
LCa setrgbcolor
4304 483 M
971 1280 L
stroke
LTb
LCb setrgbcolor
4304 483 M
-85 21 V
stroke
LTb
LCb setrgbcolor
4376 438 M
[ [(Helvetica) 140.0 0.0 true true 0 ( 140)]
] -46.7 MLshow
1.000 UL
LTb
LCb setrgbcolor
1.000 UL
LTb
LCb setrgbcolor
971 1280 M
85 -20 V
stroke
LTa
LCa setrgbcolor
971 1280 M
2896 2658 L
stroke
LTb
LCb setrgbcolor
971 1280 M
31 22 V
stroke
929 1161 M
[ [(Helvetica) 140.0 0.0 true true 0 (-110)]
] -46.7 MCshow
1.000 UL
LTb
LCb setrgbcolor
1.000 UL
LTb
LCb setrgbcolor
2896 2658 M
-32 -22 V
stroke
LTa
LCa setrgbcolor
1341 1191 M
3266 2570 L
stroke
LTb
LCb setrgbcolor
1341 1191 M
32 23 V
stroke
1299 1072 M
[ [(Helvetica) 140.0 0.0 true true 0 (-100)]
] -46.7 MCshow
1.000 UL
LTb
LCb setrgbcolor
1.000 UL
LTb
LCb setrgbcolor
3266 2570 M
-31 -23 V
stroke
LTa
LCa setrgbcolor
1712 1103 M
3636 2482 L
stroke
LTb
LCb setrgbcolor
1712 1103 M
31 22 V
stroke
1670 984 M
[ [(Helvetica) 140.0 0.0 true true 0 (-90)]
] -46.7 MCshow
1.000 UL
LTb
LCb setrgbcolor
1.000 UL
LTb
LCb setrgbcolor
3636 2482 M
-32 -22 V
stroke
LTa
LCa setrgbcolor
2082 1014 M
4006 2394 L
stroke
LTb
LCb setrgbcolor
2082 1014 M
32 23 V
stroke
2040 895 M
[ [(Helvetica) 140.0 0.0 true true 0 (-80)]
] -46.7 MCshow
1.000 UL
LTb
LCb setrgbcolor
1.000 UL
LTb
LCb setrgbcolor
4006 2394 M
-31 -23 V
stroke
LTa
LCa setrgbcolor
2453 926 M
4377 2305 L
stroke
LTb
LCb setrgbcolor
2453 926 M
31 22 V
stroke
2411 807 M
[ [(Helvetica) 140.0 0.0 true true 0 (-70)]
] -46.7 MCshow
1.000 UL
LTb
LCb setrgbcolor
1.000 UL
LTb
LCb setrgbcolor
4377 2305 M
-32 -22 V
stroke
LTa
LCa setrgbcolor
2823 837 M
4747 2217 L
stroke
LTb
LCb setrgbcolor
2823 837 M
32 23 V
stroke
2781 718 M
[ [(Helvetica) 140.0 0.0 true true 0 (-60)]
] -46.7 MCshow
1.000 UL
LTb
LCb setrgbcolor
1.000 UL
LTb
LCb setrgbcolor
4747 2217 M
-31 -23 V
stroke
LTa
LCa setrgbcolor
3194 749 M
5118 2128 L
stroke
LTb
LCb setrgbcolor
3194 749 M
31 22 V
stroke
3152 630 M
[ [(Helvetica) 140.0 0.0 true true 0 (-50)]
] -46.7 MCshow
1.000 UL
LTb
LCb setrgbcolor
1.000 UL
LTb
LCb setrgbcolor
5118 2128 M
-32 -22 V
stroke
LTa
LCa setrgbcolor
3564 660 M
5488 2040 L
stroke
LTb
LCb setrgbcolor
3564 660 M
32 23 V
stroke
3522 541 M
[ [(Helvetica) 140.0 0.0 true true 0 (-40)]
] -46.7 MCshow
1.000 UL
LTb
LCb setrgbcolor
1.000 UL
LTb
LCb setrgbcolor
5488 2040 M
-31 -23 V
stroke
LTa
LCa setrgbcolor
3934 572 M
5859 1951 L
stroke
LTb
LCb setrgbcolor
3934 572 M
31 23 V
stroke
3892 453 M
[ [(Helvetica) 140.0 0.0 true true 0 (-30)]
] -46.7 MCshow
1.000 UL
LTb
LCb setrgbcolor
1.000 UL
LTb
LCb setrgbcolor
5859 1951 M
-32 -22 V
stroke
LTa
LCa setrgbcolor
4304 483 M
6229 1863 L
stroke
LTb
LCb setrgbcolor
4304 483 M
32 23 V
stroke
4262 364 M
[ [(Helvetica) 140.0 0.0 true true 0 (-20)]
] -46.7 MCshow
1.000 UL
LTb
LCb setrgbcolor
1.000 UL
LTb
LCb setrgbcolor
6229 1863 M
-31 -23 V
stroke
LTb
LCb setrgbcolor
971 1280 M
63 0 V
stroke
845 1280 M
[ [(Helvetica) 140.0 0.0 true true 0 ( 0)]
] -46.7 MRshow
1.000 UL
LTb
LCb setrgbcolor
1.000 UL
LTb
LCb setrgbcolor
971 1491 M
63 0 V
stroke
845 1491 M
[ [(Helvetica) 140.0 0.0 true true 0 ( 0.01)]
] -46.7 MRshow
1.000 UL
LTb
LCb setrgbcolor
1.000 UL
LTb
LCb setrgbcolor
971 1702 M
63 0 V
stroke
845 1702 M
[ [(Helvetica) 140.0 0.0 true true 0 ( 0.02)]
] -46.7 MRshow
1.000 UL
LTb
LCb setrgbcolor
1.000 UL
LTb
LCb setrgbcolor
971 1913 M
63 0 V
stroke
845 1913 M
[ [(Helvetica) 140.0 0.0 true true 0 ( 0.03)]
] -46.7 MRshow
1.000 UL
LTb
LCb setrgbcolor
1.000 UL
LTb
LCb setrgbcolor
971 2124 M
63 0 V
stroke
845 2124 M
[ [(Helvetica) 140.0 0.0 true true 0 ( 0.04)]
] -46.7 MRshow
1.000 UL
LTb
LCb setrgbcolor
1.000 UL
LTb
LCb setrgbcolor
971 2334 M
63 0 V
stroke
845 2334 M
[ [(Helvetica) 140.0 0.0 true true 0 ( 0.05)]
] -46.7 MRshow
1.000 UL
LTb
LCb setrgbcolor
1.000 UL
LTb
LCb setrgbcolor
971 2544 M
63 0 V
stroke
845 2544 M
[ [(Helvetica) 140.0 0.0 true true 0 ( 0.06)]
] -46.7 MRshow
1.000 UL
LTb
LCb setrgbcolor
1.000 UL
LTb
LCb setrgbcolor
971 2755 M
63 0 V
stroke
845 2755 M
[ [(Helvetica) 140.0 0.0 true true 0 ( 0.07)]
] -46.7 MRshow
1.000 UL
LTb
LCb setrgbcolor
1.000 UL
LTb
LCb setrgbcolor
971 2966 M
63 0 V
stroke
845 2966 M
[ [(Helvetica) 140.0 0.0 true true 0 ( 0.08)]
] -46.7 MRshow
1.000 UL
LTb
LCb setrgbcolor
1.000 UL
LTb
LCb setrgbcolor
971 3177 M
63 0 V
stroke
845 3177 M
[ [(Helvetica) 140.0 0.0 true true 0 ( 0.09)]
] -46.7 MRshow
1.000 UL
LTb
LCb setrgbcolor
LCb setrgbcolor
383 3629 M
[ [(Helvetica) 140.0 0.0 true true 0 (Probability)]
] -46.7 MCshow
LTb
3600 4773 M
[ [(Helvetica) 140.0 0.0 true true 0 (ns3::Ieee80211axIndoorPropagationLossModel \(Default Parameters\))]
] -46.7 MCshow
1.000 UP
% Begin plot #1
LCb setrgbcolor
5662 4416 M
[ [(Helvetica) 140.0 0.0 true true 0 (txPower 18dBm)]
] -46.7 MRshow
0.500 UP
1.000 UL
LT0
LC0 setrgbcolor
5746 4416 M
399 0 V
971 1280 M
37 -9 V
37 -8 V
37 -7 V
37 -8 V
37 -4 V
37 -2 V
37 1 V
37 12 V
37 19 V
37 36 V
37 55 V
37 97 V
38 106 V
37 116 V
37 188 V
37 209 V
37 201 V
37 141 V
37 193 V
37 116 V
37 21 V
37 5 V
37 -78 V
37 -154 V
37 -158 V
37 -171 V
37 -256 V
37 -188 V
37 -196 V
37 -154 V
37 -112 V
37 -115 V
37 -76 V
37 -50 V
38 -38 V
37 -25 V
37 -23 V
37 -16 V
37 -10 V
37 -10 V
37 -11 V
74 -17 V
1193 1369 M
37 -8 V
37 -10 V
37 -5 V
37 -6 V
37 0 V
37 -2 V
37 13 V
37 27 V
37 24 V
38 53 V
37 85 V
37 110 V
37 136 V
37 168 V
37 182 V
37 174 V
37 220 V
37 168 V
37 93 V
37 25 V
37 44 V
37 -55 V
37 -115 V
37 -211 V
37 -186 V
37 -205 V
37 -234 V
37 -175 V
37 -164 V
37 -129 V
38 -91 V
37 -89 V
37 -55 V
37 -38 V
37 -26 V
37 -24 V
37 -16 V
37 -11 V
37 -11 V
37 -10 V
37 -9 V
74 -18 V
1378 1466 M
37 -8 V
37 -8 V
37 -8 V
37 -5 V
37 -5 V
37 -1 V
38 13 V
37 13 V
37 37 V
37 46 V
37 88 V
37 109 V
37 111 V
37 168 V
37 160 V
37 198 V
stroke 1971 2374 M
37 223 V
37 123 V
37 138 V
37 72 V
37 48 V
37 -97 V
37 -79 V
37 -192 V
37 -170 V
37 -226 V
37 -182 V
38 -221 V
37 -179 V
37 -109 V
37 -112 V
37 -105 V
37 -52 V
37 -35 V
37 -32 V
37 -23 V
37 -17 V
37 -14 V
37 -11 V
37 -9 V
37 -10 V
37 -9 V
1526 1572 M
37 -9 V
37 -8 V
37 -9 V
37 -8 V
38 -4 V
37 -7 V
37 -1 V
37 10 V
37 13 V
37 30 V
37 38 V
37 68 V
37 98 V
37 126 V
37 131 V
37 157 V
37 207 V
37 176 V
37 220 V
37 133 V
37 35 V
37 130 V
37 -101 V
37 -49 V
37 -161 V
37 -204 V
38 -186 V
37 -236 V
37 -181 V
37 -174 V
37 -156 V
37 -120 V
37 -100 V
37 -54 V
37 -52 V
37 -34 V
37 -25 V
37 -20 V
37 -13 V
37 -10 V
37 -12 V
37 -9 V
37 -9 V
1711 1669 M
74 -17 V
38 -8 V
37 -8 V
37 -7 V
37 -5 V
37 -1 V
37 2 V
37 2 V
37 20 V
37 37 V
37 63 V
37 73 V
37 108 V
37 135 V
37 179 V
37 207 V
37 167 V
37 187 V
37 155 V
37 146 V
37 77 V
37 -58 V
38 -70 V
37 -136 V
37 -138 V
37 -227 V
37 -191 V
37 -212 V
37 -178 V
37 -177 V
37 -129 V
37 -100 V
37 -75 V
stroke 2971 1490 M
37 -55 V
37 -41 V
37 -27 V
37 -19 V
37 -13 V
37 -15 V
37 -13 V
37 -9 V
37 -9 V
37 -9 V
75 -18 V
1897 1766 M
74 -17 V
37 -8 V
37 -10 V
37 -6 V
37 -6 V
37 -5 V
37 -2 V
37 2 V
37 21 V
37 21 V
37 38 V
37 64 V
37 106 V
37 109 V
37 159 V
37 173 V
37 180 V
37 182 V
37 196 V
37 114 V
38 133 V
37 22 V
37 -10 V
37 -110 V
37 -129 V
37 -186 V
37 -231 V
37 -201 V
37 -185 V
37 -187 V
37 -154 V
37 -120 V
37 -90 V
37 -68 V
37 -50 V
37 -37 V
37 -24 V
37 -18 V
37 -14 V
37 -10 V
37 -12 V
38 -10 V
37 -9 V
37 -9 V
2119 1855 M
111 -27 V
37 -7 V
37 -8 V
37 -6 V
37 -3 V
37 2 V
37 3 V
37 19 V
37 17 V
37 64 V
37 62 V
37 96 V
37 133 V
37 153 V
37 175 V
38 207 V
37 159 V
37 211 V
37 130 V
37 71 V
37 27 V
37 -48 V
37 -112 V
37 -148 V
37 -222 V
37 -185 V
37 -222 V
37 -163 V
37 -203 V
37 -130 V
37 -100 V
37 -99 V
37 -61 V
37 -45 V
37 -34 V
37 -23 V
38 -23 V
36 -8 V
37 -12 V
37 -11 V
37 -9 V
37 -10 V
2378 1935 M
74 -17 V
37 -9 V
37 -8 V
37 -5 V
stroke 2563 1896 M
37 -5 V
37 -1 V
37 6 V
37 17 V
37 35 V
37 29 V
37 76 V
38 97 V
37 136 V
37 136 V
37 206 V
37 169 V
37 226 V
37 138 V
37 155 V
37 69 V
37 21 V
37 -21 V
37 -136 V
37 -122 V
37 -191 V
37 -199 V
37 -261 V
37 -155 V
37 -191 V
37 -136 V
37 -114 V
37 -91 V
36 -53 V
38 -57 V
37 -31 V
37 -25 V
37 -16 V
37 -11 V
37 -14 V
37 -10 V
37 -9 V
37 -9 V
2674 2005 M
37 -8 V
37 -8 V
37 -5 V
37 -5 V
37 -4 V
37 9 V
37 10 V
38 22 V
37 40 V
37 53 V
37 85 V
37 141 V
37 125 V
37 172 V
37 229 V
37 160 V
37 180 V
37 160 V
37 79 V
37 71 V
37 -25 V
37 -95 V
37 -162 V
37 -170 V
37 -198 V
36 -201 V
37 -195 V
37 -195 V
38 -144 V
37 -121 V
37 -93 V
37 -75 V
37 -55 V
37 -35 V
37 -28 V
37 -19 V
37 -18 V
37 -10 V
37 -11 V
37 -9 V
37 -10 V
2896 2094 M
37 -9 V
37 -8 V
37 -8 V
38 -6 V
37 -6 V
37 1 V
37 8 V
37 13 V
37 31 V
37 41 V
37 75 V
37 78 V
37 134 V
37 129 V
37 201 V
37 163 V
37 209 V
37 168 V
37 140 V
36 144 V
37 -15 V
37 -31 V
37 -73 V
stroke 3747 3473 M
37 -172 V
38 -202 V
37 -195 V
37 -218 V
37 -180 V
37 -190 V
37 -134 V
37 -117 V
37 -107 V
37 -58 V
37 -46 V
37 -33 V
37 -27 V
37 -17 V
37 -15 V
37 -12 V
37 -9 V
37 -10 V
37 -9 V
74 -18 V
3119 2182 M
37 -9 V
37 -9 V
37 -8 V
37 -8 V
37 -6 V
37 -5 V
37 -5 V
37 1 V
37 9 V
37 25 V
37 38 V
37 51 V
37 79 V
36 130 V
37 128 V
37 177 V
37 173 V
37 189 V
37 178 V
37 221 V
37 85 V
38 22 V
37 33 V
37 -107 V
37 -145 V
37 -166 V
37 -176 V
37 -212 V
37 -218 V
37 -187 V
37 -140 V
37 -137 V
37 -104 V
37 -79 V
37 -55 V
37 -41 V
37 -28 V
37 -16 V
37 -14 V
37 -16 V
37 -10 V
37 -9 V
38 -10 V
37 -8 V
3452 2244 M
37 -9 V
37 -9 V
37 -8 V
37 -6 V
36 -6 V
37 -4 V
37 -1 V
37 14 V
37 13 V
37 23 V
37 61 V
37 89 V
37 85 V
37 134 V
38 140 V
37 167 V
37 219 V
37 162 V
37 172 V
37 137 V
37 102 V
37 -7 V
37 -41 V
37 -119 V
37 -166 V
37 -181 V
37 -174 V
37 -212 V
37 -214 V
37 -171 V
37 -149 V
37 -115 V
37 -72 V
37 -64 V
37 -50 V
37 -29 V
38 -18 V
37 -22 V
stroke 4859 1915 M
37 -12 V
37 -12 V
37 -9 V
37 -10 V
37 -9 V
3895 2279 M
37 -8 V
37 -8 V
37 -4 V
37 -8 V
38 0 V
37 13 V
37 8 V
37 25 V
37 51 V
37 59 V
37 97 V
37 125 V
37 136 V
37 191 V
37 210 V
37 177 V
37 211 V
37 102 V
37 114 V
37 16 V
37 -53 V
37 -113 V
37 -111 V
37 -223 V
37 -170 V
37 -250 V
38 -189 V
37 -176 V
37 -128 V
37 -122 V
37 -91 V
37 -71 V
37 -40 V
37 -37 V
37 -26 V
37 -16 V
37 -11 V
37 -14 V
37 -10 V
37 -10 V
148 -35 V
4340 2314 M
37 -8 V
37 -9 V
37 -9 V
37 -7 V
37 -8 V
37 -1 V
37 -6 V
37 3 V
37 8 V
37 23 V
37 28 V
37 61 V
37 69 V
37 116 V
37 148 V
37 165 V
38 195 V
37 161 V
37 206 V
37 160 V
37 132 V
37 33 V
37 11 V
37 -54 V
37 -158 V
37 -151 V
37 -210 V
37 -218 V
37 -207 V
37 -181 V
37 -145 V
37 -143 V
37 -106 V
37 -77 V
37 -59 V
37 -33 V
37 -35 V
37 -13 V
38 -18 V
37 -15 V
37 -9 V
37 -9 V
74 -19 V
111 -27 V
5945 4416 Star
971 1280 Star
1008 1271 Star
1045 1263 Star
1082 1256 Star
1119 1248 Star
1156 1244 Star
1193 1242 Star
1230 1243 Star
1267 1255 Star
1304 1274 Star
1341 1310 Star
1378 1365 Star
1415 1462 Star
1453 1568 Star
1490 1684 Star
1527 1872 Star
1564 2081 Star
1601 2282 Star
1638 2423 Star
1675 2616 Star
1712 2732 Star
1749 2753 Star
1786 2758 Star
1823 2680 Star
1860 2526 Star
1897 2368 Star
1934 2197 Star
1971 1941 Star
2008 1753 Star
2045 1557 Star
2082 1403 Star
2119 1291 Star
2156 1176 Star
2193 1100 Star
2230 1050 Star
2268 1012 Star
2305 987 Star
2342 964 Star
2379 948 Star
2416 938 Star
2453 928 Star
2490 917 Star
2564 900 Star
1193 1369 Star
1230 1361 Star
1267 1351 Star
1304 1346 Star
1341 1340 Star
1378 1340 Star
1415 1338 Star
1452 1351 Star
1489 1378 Star
1526 1402 Star
1564 1455 Star
1601 1540 Star
1638 1650 Star
1675 1786 Star
1712 1954 Star
1749 2136 Star
1786 2310 Star
1823 2530 Star
1860 2698 Star
1897 2791 Star
1934 2816 Star
1971 2860 Star
2008 2805 Star
2045 2690 Star
2082 2479 Star
2119 2293 Star
2156 2088 Star
2193 1854 Star
2230 1679 Star
2267 1515 Star
2304 1386 Star
2342 1295 Star
2379 1206 Star
2416 1151 Star
2453 1113 Star
2490 1087 Star
2527 1063 Star
2564 1047 Star
2601 1036 Star
2638 1025 Star
2675 1015 Star
2712 1006 Star
2786 988 Star
1378 1466 Star
1415 1458 Star
1452 1450 Star
1489 1442 Star
1526 1437 Star
1563 1432 Star
1600 1431 Star
1638 1444 Star
1675 1457 Star
1712 1494 Star
1749 1540 Star
1786 1628 Star
1823 1737 Star
1860 1848 Star
1897 2016 Star
1934 2176 Star
1971 2374 Star
2008 2597 Star
2045 2720 Star
2082 2858 Star
2119 2930 Star
2156 2978 Star
2193 2881 Star
2230 2802 Star
2267 2610 Star
2304 2440 Star
2341 2214 Star
2378 2032 Star
2416 1811 Star
2453 1632 Star
2490 1523 Star
2527 1411 Star
2564 1306 Star
2601 1254 Star
2638 1219 Star
2675 1187 Star
2712 1164 Star
2749 1147 Star
2786 1133 Star
2823 1122 Star
2860 1113 Star
2897 1103 Star
2934 1094 Star
1526 1572 Star
1563 1563 Star
1600 1555 Star
1637 1546 Star
1674 1538 Star
1712 1534 Star
1749 1527 Star
1786 1526 Star
1823 1536 Star
1860 1549 Star
1897 1579 Star
1934 1617 Star
1971 1685 Star
2008 1783 Star
2045 1909 Star
2082 2040 Star
2119 2197 Star
2156 2404 Star
2193 2580 Star
2230 2800 Star
2267 2933 Star
2304 2968 Star
2341 3098 Star
2378 2997 Star
2415 2948 Star
2452 2787 Star
2489 2583 Star
2527 2397 Star
2564 2161 Star
2601 1980 Star
2638 1806 Star
2675 1650 Star
2712 1530 Star
2749 1430 Star
2786 1376 Star
2823 1324 Star
2860 1290 Star
2897 1265 Star
2934 1245 Star
2971 1232 Star
3008 1222 Star
3045 1210 Star
3082 1201 Star
3119 1192 Star
1711 1669 Star
1785 1652 Star
1823 1644 Star
1860 1636 Star
1897 1629 Star
1934 1624 Star
1971 1623 Star
2008 1625 Star
2045 1627 Star
2082 1647 Star
2119 1684 Star
2156 1747 Star
2193 1820 Star
2230 1928 Star
2267 2063 Star
2304 2242 Star
2341 2449 Star
2378 2616 Star
2415 2803 Star
2452 2958 Star
2489 3104 Star
2526 3181 Star
2563 3123 Star
2601 3053 Star
2638 2917 Star
2675 2779 Star
2712 2552 Star
2749 2361 Star
2786 2149 Star
2823 1971 Star
2860 1794 Star
2897 1665 Star
2934 1565 Star
2971 1490 Star
3008 1435 Star
3045 1394 Star
3082 1367 Star
3119 1348 Star
3156 1335 Star
3193 1320 Star
3230 1307 Star
3267 1298 Star
3304 1289 Star
3341 1280 Star
3416 1262 Star
1897 1766 Star
1971 1749 Star
2008 1741 Star
2045 1731 Star
2082 1725 Star
2119 1719 Star
2156 1714 Star
2193 1712 Star
2230 1714 Star
2267 1735 Star
2304 1756 Star
2341 1794 Star
2378 1858 Star
2415 1964 Star
2452 2073 Star
2489 2232 Star
2526 2405 Star
2563 2585 Star
2600 2767 Star
2637 2963 Star
2674 3077 Star
2712 3210 Star
2749 3232 Star
2786 3222 Star
2823 3112 Star
2860 2983 Star
2897 2797 Star
2934 2566 Star
2971 2365 Star
3008 2180 Star
3045 1993 Star
3082 1839 Star
3119 1719 Star
3156 1629 Star
3193 1561 Star
3230 1511 Star
3267 1474 Star
3304 1450 Star
3341 1432 Star
3378 1418 Star
3415 1408 Star
3452 1396 Star
3490 1386 Star
3527 1377 Star
3564 1368 Star
2119 1855 Star
2230 1828 Star
2267 1821 Star
2304 1813 Star
2341 1807 Star
2378 1804 Star
2415 1806 Star
2452 1809 Star
2489 1828 Star
2526 1845 Star
2563 1909 Star
2600 1971 Star
2637 2067 Star
2674 2200 Star
2711 2353 Star
2748 2528 Star
2786 2735 Star
2823 2894 Star
2860 3105 Star
2897 3235 Star
2934 3306 Star
2971 3333 Star
3008 3285 Star
3045 3173 Star
3082 3025 Star
3119 2803 Star
3156 2618 Star
3193 2396 Star
3230 2233 Star
3267 2030 Star
3304 1900 Star
3341 1800 Star
3378 1701 Star
3415 1640 Star
3452 1595 Star
3489 1561 Star
3526 1538 Star
3564 1515 Star
3600 1507 Star
3637 1495 Star
3674 1484 Star
3711 1475 Star
3748 1465 Star
2378 1935 Star
2452 1918 Star
2489 1909 Star
2526 1901 Star
2563 1896 Star
2600 1891 Star
2637 1890 Star
2674 1896 Star
2711 1913 Star
2748 1948 Star
2785 1977 Star
2822 2053 Star
2860 2150 Star
2897 2286 Star
2934 2422 Star
2971 2628 Star
3008 2797 Star
3045 3023 Star
3082 3161 Star
3119 3316 Star
3156 3385 Star
3193 3406 Star
3230 3385 Star
3267 3249 Star
3304 3127 Star
3341 2936 Star
3378 2737 Star
3415 2476 Star
3452 2321 Star
3489 2130 Star
3526 1994 Star
3563 1880 Star
3600 1789 Star
3636 1736 Star
3674 1679 Star
3711 1648 Star
3748 1623 Star
3785 1607 Star
3822 1596 Star
3859 1582 Star
3896 1572 Star
3933 1563 Star
3970 1554 Star
2674 2005 Star
2711 1997 Star
2748 1989 Star
2785 1984 Star
2822 1979 Star
2859 1975 Star
2896 1984 Star
2933 1994 Star
2971 2016 Star
3008 2056 Star
3045 2109 Star
3082 2194 Star
3119 2335 Star
3156 2460 Star
3193 2632 Star
3230 2861 Star
3267 3021 Star
3304 3201 Star
3341 3361 Star
3378 3440 Star
3415 3511 Star
3452 3486 Star
3489 3391 Star
3526 3229 Star
3563 3059 Star
3600 2861 Star
3636 2660 Star
3673 2465 Star
3710 2270 Star
3748 2126 Star
3785 2005 Star
3822 1912 Star
3859 1837 Star
3896 1782 Star
3933 1747 Star
3970 1719 Star
4007 1700 Star
4044 1682 Star
4081 1672 Star
4118 1661 Star
4155 1652 Star
4192 1642 Star
2896 2094 Star
2933 2085 Star
2970 2077 Star
3007 2069 Star
3045 2063 Star
3082 2057 Star
3119 2058 Star
3156 2066 Star
3193 2079 Star
3230 2110 Star
3267 2151 Star
3304 2226 Star
3341 2304 Star
3378 2438 Star
3415 2567 Star
3452 2768 Star
3489 2931 Star
3526 3140 Star
3563 3308 Star
3600 3448 Star
3636 3592 Star
3673 3577 Star
3710 3546 Star
3747 3473 Star
3784 3301 Star
3822 3099 Star
3859 2904 Star
3896 2686 Star
3933 2506 Star
3970 2316 Star
4007 2182 Star
4044 2065 Star
4081 1958 Star
4118 1900 Star
4155 1854 Star
4192 1821 Star
4229 1794 Star
4266 1777 Star
4303 1762 Star
4340 1750 Star
4377 1741 Star
4414 1731 Star
4451 1722 Star
4525 1704 Star
3119 2182 Star
3156 2173 Star
3193 2164 Star
3230 2156 Star
3267 2148 Star
3304 2142 Star
3341 2137 Star
3378 2132 Star
3415 2133 Star
3452 2142 Star
3489 2167 Star
3526 2205 Star
3563 2256 Star
3600 2335 Star
3636 2465 Star
3673 2593 Star
3710 2770 Star
3747 2943 Star
3784 3132 Star
3821 3310 Star
3858 3531 Star
3895 3616 Star
3933 3638 Star
3970 3671 Star
4007 3564 Star
4044 3419 Star
4081 3253 Star
4118 3077 Star
4155 2865 Star
4192 2647 Star
4229 2460 Star
4266 2320 Star
4303 2183 Star
4340 2079 Star
4377 2000 Star
4414 1945 Star
4451 1904 Star
4488 1876 Star
4525 1860 Star
4562 1846 Star
4599 1830 Star
4636 1820 Star
4673 1811 Star
4711 1801 Star
4748 1793 Star
3452 2244 Star
3489 2235 Star
3526 2226 Star
3563 2218 Star
3600 2212 Star
3636 2206 Star
3673 2202 Star
3710 2201 Star
3747 2215 Star
3784 2228 Star
3821 2251 Star
3858 2312 Star
3895 2401 Star
3932 2486 Star
3969 2620 Star
4007 2760 Star
4044 2927 Star
4081 3146 Star
4118 3308 Star
4155 3480 Star
4192 3617 Star
4229 3719 Star
4266 3712 Star
4303 3671 Star
4340 3552 Star
4377 3386 Star
4414 3205 Star
4451 3031 Star
4488 2819 Star
4525 2605 Star
4562 2434 Star
4599 2285 Star
4636 2170 Star
4673 2098 Star
4710 2034 Star
4747 1984 Star
4784 1955 Star
4822 1937 Star
4859 1915 Star
4896 1903 Star
4933 1891 Star
4970 1882 Star
5007 1872 Star
5044 1863 Star
3895 2279 Star
3932 2271 Star
3969 2263 Star
4006 2259 Star
4043 2251 Star
4081 2251 Star
4118 2264 Star
4155 2272 Star
4192 2297 Star
4229 2348 Star
4266 2407 Star
4303 2504 Star
4340 2629 Star
4377 2765 Star
4414 2956 Star
4451 3166 Star
4488 3343 Star
4525 3554 Star
4562 3656 Star
4599 3770 Star
4636 3786 Star
4673 3733 Star
4710 3620 Star
4747 3509 Star
4784 3286 Star
4821 3116 Star
4858 2866 Star
4896 2677 Star
4933 2501 Star
4970 2373 Star
5007 2251 Star
5044 2160 Star
5081 2089 Star
5118 2049 Star
5155 2012 Star
5192 1986 Star
5229 1970 Star
5266 1959 Star
5303 1945 Star
5340 1935 Star
5377 1925 Star
5525 1890 Star
4340 2314 Star
4377 2306 Star
4414 2297 Star
4451 2288 Star
4488 2281 Star
4525 2273 Star
4562 2272 Star
4599 2266 Star
4636 2269 Star
4673 2277 Star
4710 2300 Star
4747 2328 Star
4784 2389 Star
4821 2458 Star
4858 2574 Star
4895 2722 Star
4932 2887 Star
4970 3082 Star
5007 3243 Star
5044 3449 Star
5081 3609 Star
5118 3741 Star
5155 3774 Star
5192 3785 Star
5229 3731 Star
5266 3573 Star
5303 3422 Star
5340 3212 Star
5377 2994 Star
5414 2787 Star
5451 2606 Star
5488 2461 Star
5525 2318 Star
5562 2212 Star
5599 2135 Star
5636 2076 Star
5673 2043 Star
5710 2008 Star
5747 1995 Star
5785 1977 Star
5822 1962 Star
5859 1953 Star
5896 1944 Star
5970 1925 Star
6081 1898 Star
% End plot #1
1.000 UL
LTb
LCb setrgbcolor
6229 1863 M
4304 483 L
stroke
LTb
LCb setrgbcolor
971 1280 M
4304 483 L
stroke
LCb setrgbcolor
6100 974 M
[ [(Helvetica) 140.0 0.0 true true 0 (Distance)]
] -46.7 MCshow
LTb
LCb setrgbcolor
2157 537 M
[ [(Helvetica) 140.0 0.0 true true 0 (rxPower \(dBm\))]
] -46.7 MCshow
LTb
LCb setrgbcolor
383 3629 M
[ [(Helvetica) 140.0 0.0 true true 0 (Probability)]
] -46.7 MCshow
LTb
1.000 UP
stroke
grestore
end
showpage
%%Trailer
%%DocumentFonts: Helvetica
