%!PS-Adobe-2.0 EPSF-2.0
%%Title: images/ps/indoor_comparison_Tcp_ftpLambda_1_5_lteDutyCycle_0_5_throughput.eps
%%Creator: gnuplot 4.4 patchlevel 3
%%CreationDate: Wed Aug  5 05:47:53 2015
%%DocumentFonts: (atend)
%%BoundingBox: 50 50 410 302
%%EndComments
%%BeginProlog
/gnudict 256 dict def
gnudict begin
%
% The following true/false flags may be edited by hand if desired.
% The unit line width and grayscale image gamma correction may also be changed.
%
/Color true def
/Blacktext false def
/Solid false def
/Dashlength 1 def
/Landscape false def
/Level1 false def
/Rounded false def
/ClipToBoundingBox false def
/TransparentPatterns false def
/gnulinewidth 5.000 def
/userlinewidth gnulinewidth def
/Gamma 1.0 def
%
/vshift -46 def
/dl1 {
  10.0 Dashlength mul mul
  Rounded { currentlinewidth 0.75 mul sub dup 0 le { pop 0.01 } if } if
} def
/dl2 {
  10.0 Dashlength mul mul
  Rounded { currentlinewidth 0.75 mul add } if
} def
/hpt_ 31.5 def
/vpt_ 31.5 def
/hpt hpt_ def
/vpt vpt_ def
Level1 {} {
/SDict 10 dict def
systemdict /pdfmark known not {
  userdict /pdfmark systemdict /cleartomark get put
} if
SDict begin [
  /Title (images/ps/indoor_comparison_Tcp_ftpLambda_1_5_lteDutyCycle_0_5_throughput.eps)
  /Subject (gnuplot plot)
  /Creator (gnuplot 4.4 patchlevel 3)
  /Author (tomh)
%  /Producer (gnuplot)
%  /Keywords ()
  /CreationDate (Wed Aug  5 05:47:53 2015)
  /DOCINFO pdfmark
end
} ifelse
/doclip {
  ClipToBoundingBox {
    newpath 50 50 moveto 410 50 lineto 410 302 lineto 50 302 lineto closepath
    clip
  } if
} def
%
% Gnuplot Prolog Version 4.4 (August 2010)
%
%/SuppressPDFMark true def
%
/M {moveto} bind def
/L {lineto} bind def
/R {rmoveto} bind def
/V {rlineto} bind def
/N {newpath moveto} bind def
/Z {closepath} bind def
/C {setrgbcolor} bind def
/f {rlineto fill} bind def
/g {setgray} bind def
/Gshow {show} def   % May be redefined later in the file to support UTF-8
/vpt2 vpt 2 mul def
/hpt2 hpt 2 mul def
/Lshow {currentpoint stroke M 0 vshift R 
	Blacktext {gsave 0 setgray show grestore} {show} ifelse} def
/Rshow {currentpoint stroke M dup stringwidth pop neg vshift R
	Blacktext {gsave 0 setgray show grestore} {show} ifelse} def
/Cshow {currentpoint stroke M dup stringwidth pop -2 div vshift R 
	Blacktext {gsave 0 setgray show grestore} {show} ifelse} def
/UP {dup vpt_ mul /vpt exch def hpt_ mul /hpt exch def
  /hpt2 hpt 2 mul def /vpt2 vpt 2 mul def} def
/DL {Color {setrgbcolor Solid {pop []} if 0 setdash}
 {pop pop pop 0 setgray Solid {pop []} if 0 setdash} ifelse} def
/BL {stroke userlinewidth 2 mul setlinewidth
	Rounded {1 setlinejoin 1 setlinecap} if} def
/AL {stroke userlinewidth 2 div setlinewidth
	Rounded {1 setlinejoin 1 setlinecap} if} def
/UL {dup gnulinewidth mul /userlinewidth exch def
	dup 1 lt {pop 1} if 10 mul /udl exch def} def
/PL {stroke userlinewidth setlinewidth
	Rounded {1 setlinejoin 1 setlinecap} if} def
3.8 setmiterlimit
% Default Line colors
/LCw {1 1 1} def
/LCb {0 0 0} def
/LCa {0 0 0} def
/LC0 {1 0 0} def
/LC1 {0 1 0} def
/LC2 {0 0 1} def
/LC3 {1 0 1} def
/LC4 {0 1 1} def
/LC5 {1 1 0} def
/LC6 {0 0 0} def
/LC7 {1 0.3 0} def
/LC8 {0.5 0.5 0.5} def
% Default Line Types
/LTw {PL [] 1 setgray} def
/LTb {BL [] LCb DL} def
/LTa {AL [1 udl mul 2 udl mul] 0 setdash LCa setrgbcolor} def
/LT0 {PL [] LC0 DL} def
/LT1 {PL [4 dl1 2 dl2] LC1 DL} def
/LT2 {PL [2 dl1 3 dl2] LC2 DL} def
/LT3 {PL [1 dl1 1.5 dl2] LC3 DL} def
/LT4 {PL [6 dl1 2 dl2 1 dl1 2 dl2] LC4 DL} def
/LT5 {PL [3 dl1 3 dl2 1 dl1 3 dl2] LC5 DL} def
/LT6 {PL [2 dl1 2 dl2 2 dl1 6 dl2] LC6 DL} def
/LT7 {PL [1 dl1 2 dl2 6 dl1 2 dl2 1 dl1 2 dl2] LC7 DL} def
/LT8 {PL [2 dl1 2 dl2 2 dl1 2 dl2 2 dl1 2 dl2 2 dl1 4 dl2] LC8 DL} def
/Pnt {stroke [] 0 setdash gsave 1 setlinecap M 0 0 V stroke grestore} def
/Dia {stroke [] 0 setdash 2 copy vpt add M
  hpt neg vpt neg V hpt vpt neg V
  hpt vpt V hpt neg vpt V closepath stroke
  Pnt} def
/Pls {stroke [] 0 setdash vpt sub M 0 vpt2 V
  currentpoint stroke M
  hpt neg vpt neg R hpt2 0 V stroke
 } def
/Box {stroke [] 0 setdash 2 copy exch hpt sub exch vpt add M
  0 vpt2 neg V hpt2 0 V 0 vpt2 V
  hpt2 neg 0 V closepath stroke
  Pnt} def
/Crs {stroke [] 0 setdash exch hpt sub exch vpt add M
  hpt2 vpt2 neg V currentpoint stroke M
  hpt2 neg 0 R hpt2 vpt2 V stroke} def
/TriU {stroke [] 0 setdash 2 copy vpt 1.12 mul add M
  hpt neg vpt -1.62 mul V
  hpt 2 mul 0 V
  hpt neg vpt 1.62 mul V closepath stroke
  Pnt} def
/Star {2 copy Pls Crs} def
/BoxF {stroke [] 0 setdash exch hpt sub exch vpt add M
  0 vpt2 neg V hpt2 0 V 0 vpt2 V
  hpt2 neg 0 V closepath fill} def
/TriUF {stroke [] 0 setdash vpt 1.12 mul add M
  hpt neg vpt -1.62 mul V
  hpt 2 mul 0 V
  hpt neg vpt 1.62 mul V closepath fill} def
/TriD {stroke [] 0 setdash 2 copy vpt 1.12 mul sub M
  hpt neg vpt 1.62 mul V
  hpt 2 mul 0 V
  hpt neg vpt -1.62 mul V closepath stroke
  Pnt} def
/TriDF {stroke [] 0 setdash vpt 1.12 mul sub M
  hpt neg vpt 1.62 mul V
  hpt 2 mul 0 V
  hpt neg vpt -1.62 mul V closepath fill} def
/DiaF {stroke [] 0 setdash vpt add M
  hpt neg vpt neg V hpt vpt neg V
  hpt vpt V hpt neg vpt V closepath fill} def
/Pent {stroke [] 0 setdash 2 copy gsave
  translate 0 hpt M 4 {72 rotate 0 hpt L} repeat
  closepath stroke grestore Pnt} def
/PentF {stroke [] 0 setdash gsave
  translate 0 hpt M 4 {72 rotate 0 hpt L} repeat
  closepath fill grestore} def
/Circle {stroke [] 0 setdash 2 copy
  hpt 0 360 arc stroke Pnt} def
/CircleF {stroke [] 0 setdash hpt 0 360 arc fill} def
/C0 {BL [] 0 setdash 2 copy moveto vpt 90 450 arc} bind def
/C1 {BL [] 0 setdash 2 copy moveto
	2 copy vpt 0 90 arc closepath fill
	vpt 0 360 arc closepath} bind def
/C2 {BL [] 0 setdash 2 copy moveto
	2 copy vpt 90 180 arc closepath fill
	vpt 0 360 arc closepath} bind def
/C3 {BL [] 0 setdash 2 copy moveto
	2 copy vpt 0 180 arc closepath fill
	vpt 0 360 arc closepath} bind def
/C4 {BL [] 0 setdash 2 copy moveto
	2 copy vpt 180 270 arc closepath fill
	vpt 0 360 arc closepath} bind def
/C5 {BL [] 0 setdash 2 copy moveto
	2 copy vpt 0 90 arc
	2 copy moveto
	2 copy vpt 180 270 arc closepath fill
	vpt 0 360 arc} bind def
/C6 {BL [] 0 setdash 2 copy moveto
	2 copy vpt 90 270 arc closepath fill
	vpt 0 360 arc closepath} bind def
/C7 {BL [] 0 setdash 2 copy moveto
	2 copy vpt 0 270 arc closepath fill
	vpt 0 360 arc closepath} bind def
/C8 {BL [] 0 setdash 2 copy moveto
	2 copy vpt 270 360 arc closepath fill
	vpt 0 360 arc closepath} bind def
/C9 {BL [] 0 setdash 2 copy moveto
	2 copy vpt 270 450 arc closepath fill
	vpt 0 360 arc closepath} bind def
/C10 {BL [] 0 setdash 2 copy 2 copy moveto vpt 270 360 arc closepath fill
	2 copy moveto
	2 copy vpt 90 180 arc closepath fill
	vpt 0 360 arc closepath} bind def
/C11 {BL [] 0 setdash 2 copy moveto
	2 copy vpt 0 180 arc closepath fill
	2 copy moveto
	2 copy vpt 270 360 arc closepath fill
	vpt 0 360 arc closepath} bind def
/C12 {BL [] 0 setdash 2 copy moveto
	2 copy vpt 180 360 arc closepath fill
	vpt 0 360 arc closepath} bind def
/C13 {BL [] 0 setdash 2 copy moveto
	2 copy vpt 0 90 arc closepath fill
	2 copy moveto
	2 copy vpt 180 360 arc closepath fill
	vpt 0 360 arc closepath} bind def
/C14 {BL [] 0 setdash 2 copy moveto
	2 copy vpt 90 360 arc closepath fill
	vpt 0 360 arc} bind def
/C15 {BL [] 0 setdash 2 copy vpt 0 360 arc closepath fill
	vpt 0 360 arc closepath} bind def
/Rec {newpath 4 2 roll moveto 1 index 0 rlineto 0 exch rlineto
	neg 0 rlineto closepath} bind def
/Square {dup Rec} bind def
/Bsquare {vpt sub exch vpt sub exch vpt2 Square} bind def
/S0 {BL [] 0 setdash 2 copy moveto 0 vpt rlineto BL Bsquare} bind def
/S1 {BL [] 0 setdash 2 copy vpt Square fill Bsquare} bind def
/S2 {BL [] 0 setdash 2 copy exch vpt sub exch vpt Square fill Bsquare} bind def
/S3 {BL [] 0 setdash 2 copy exch vpt sub exch vpt2 vpt Rec fill Bsquare} bind def
/S4 {BL [] 0 setdash 2 copy exch vpt sub exch vpt sub vpt Square fill Bsquare} bind def
/S5 {BL [] 0 setdash 2 copy 2 copy vpt Square fill
	exch vpt sub exch vpt sub vpt Square fill Bsquare} bind def
/S6 {BL [] 0 setdash 2 copy exch vpt sub exch vpt sub vpt vpt2 Rec fill Bsquare} bind def
/S7 {BL [] 0 setdash 2 copy exch vpt sub exch vpt sub vpt vpt2 Rec fill
	2 copy vpt Square fill Bsquare} bind def
/S8 {BL [] 0 setdash 2 copy vpt sub vpt Square fill Bsquare} bind def
/S9 {BL [] 0 setdash 2 copy vpt sub vpt vpt2 Rec fill Bsquare} bind def
/S10 {BL [] 0 setdash 2 copy vpt sub vpt Square fill 2 copy exch vpt sub exch vpt Square fill
	Bsquare} bind def
/S11 {BL [] 0 setdash 2 copy vpt sub vpt Square fill 2 copy exch vpt sub exch vpt2 vpt Rec fill
	Bsquare} bind def
/S12 {BL [] 0 setdash 2 copy exch vpt sub exch vpt sub vpt2 vpt Rec fill Bsquare} bind def
/S13 {BL [] 0 setdash 2 copy exch vpt sub exch vpt sub vpt2 vpt Rec fill
	2 copy vpt Square fill Bsquare} bind def
/S14 {BL [] 0 setdash 2 copy exch vpt sub exch vpt sub vpt2 vpt Rec fill
	2 copy exch vpt sub exch vpt Square fill Bsquare} bind def
/S15 {BL [] 0 setdash 2 copy Bsquare fill Bsquare} bind def
/D0 {gsave translate 45 rotate 0 0 S0 stroke grestore} bind def
/D1 {gsave translate 45 rotate 0 0 S1 stroke grestore} bind def
/D2 {gsave translate 45 rotate 0 0 S2 stroke grestore} bind def
/D3 {gsave translate 45 rotate 0 0 S3 stroke grestore} bind def
/D4 {gsave translate 45 rotate 0 0 S4 stroke grestore} bind def
/D5 {gsave translate 45 rotate 0 0 S5 stroke grestore} bind def
/D6 {gsave translate 45 rotate 0 0 S6 stroke grestore} bind def
/D7 {gsave translate 45 rotate 0 0 S7 stroke grestore} bind def
/D8 {gsave translate 45 rotate 0 0 S8 stroke grestore} bind def
/D9 {gsave translate 45 rotate 0 0 S9 stroke grestore} bind def
/D10 {gsave translate 45 rotate 0 0 S10 stroke grestore} bind def
/D11 {gsave translate 45 rotate 0 0 S11 stroke grestore} bind def
/D12 {gsave translate 45 rotate 0 0 S12 stroke grestore} bind def
/D13 {gsave translate 45 rotate 0 0 S13 stroke grestore} bind def
/D14 {gsave translate 45 rotate 0 0 S14 stroke grestore} bind def
/D15 {gsave translate 45 rotate 0 0 S15 stroke grestore} bind def
/DiaE {stroke [] 0 setdash vpt add M
  hpt neg vpt neg V hpt vpt neg V
  hpt vpt V hpt neg vpt V closepath stroke} def
/BoxE {stroke [] 0 setdash exch hpt sub exch vpt add M
  0 vpt2 neg V hpt2 0 V 0 vpt2 V
  hpt2 neg 0 V closepath stroke} def
/TriUE {stroke [] 0 setdash vpt 1.12 mul add M
  hpt neg vpt -1.62 mul V
  hpt 2 mul 0 V
  hpt neg vpt 1.62 mul V closepath stroke} def
/TriDE {stroke [] 0 setdash vpt 1.12 mul sub M
  hpt neg vpt 1.62 mul V
  hpt 2 mul 0 V
  hpt neg vpt -1.62 mul V closepath stroke} def
/PentE {stroke [] 0 setdash gsave
  translate 0 hpt M 4 {72 rotate 0 hpt L} repeat
  closepath stroke grestore} def
/CircE {stroke [] 0 setdash 
  hpt 0 360 arc stroke} def
/Opaque {gsave closepath 1 setgray fill grestore 0 setgray closepath} def
/DiaW {stroke [] 0 setdash vpt add M
  hpt neg vpt neg V hpt vpt neg V
  hpt vpt V hpt neg vpt V Opaque stroke} def
/BoxW {stroke [] 0 setdash exch hpt sub exch vpt add M
  0 vpt2 neg V hpt2 0 V 0 vpt2 V
  hpt2 neg 0 V Opaque stroke} def
/TriUW {stroke [] 0 setdash vpt 1.12 mul add M
  hpt neg vpt -1.62 mul V
  hpt 2 mul 0 V
  hpt neg vpt 1.62 mul V Opaque stroke} def
/TriDW {stroke [] 0 setdash vpt 1.12 mul sub M
  hpt neg vpt 1.62 mul V
  hpt 2 mul 0 V
  hpt neg vpt -1.62 mul V Opaque stroke} def
/PentW {stroke [] 0 setdash gsave
  translate 0 hpt M 4 {72 rotate 0 hpt L} repeat
  Opaque stroke grestore} def
/CircW {stroke [] 0 setdash 
  hpt 0 360 arc Opaque stroke} def
/BoxFill {gsave Rec 1 setgray fill grestore} def
/Density {
  /Fillden exch def
  currentrgbcolor
  /ColB exch def /ColG exch def /ColR exch def
  /ColR ColR Fillden mul Fillden sub 1 add def
  /ColG ColG Fillden mul Fillden sub 1 add def
  /ColB ColB Fillden mul Fillden sub 1 add def
  ColR ColG ColB setrgbcolor} def
/BoxColFill {gsave Rec PolyFill} def
/PolyFill {gsave Density fill grestore grestore} def
/h {rlineto rlineto rlineto gsave closepath fill grestore} bind def
%
% PostScript Level 1 Pattern Fill routine for rectangles
% Usage: x y w h s a XX PatternFill
%	x,y = lower left corner of box to be filled
%	w,h = width and height of box
%	  a = angle in degrees between lines and x-axis
%	 XX = 0/1 for no/yes cross-hatch
%
/PatternFill {gsave /PFa [ 9 2 roll ] def
  PFa 0 get PFa 2 get 2 div add PFa 1 get PFa 3 get 2 div add translate
  PFa 2 get -2 div PFa 3 get -2 div PFa 2 get PFa 3 get Rec
  gsave 1 setgray fill grestore clip
  currentlinewidth 0.5 mul setlinewidth
  /PFs PFa 2 get dup mul PFa 3 get dup mul add sqrt def
  0 0 M PFa 5 get rotate PFs -2 div dup translate
  0 1 PFs PFa 4 get div 1 add floor cvi
	{PFa 4 get mul 0 M 0 PFs V} for
  0 PFa 6 get ne {
	0 1 PFs PFa 4 get div 1 add floor cvi
	{PFa 4 get mul 0 2 1 roll M PFs 0 V} for
 } if
  stroke grestore} def
%
/languagelevel where
 {pop languagelevel} {1} ifelse
 2 lt
	{/InterpretLevel1 true def}
	{/InterpretLevel1 Level1 def}
 ifelse
%
% PostScript level 2 pattern fill definitions
%
/Level2PatternFill {
/Tile8x8 {/PaintType 2 /PatternType 1 /TilingType 1 /BBox [0 0 8 8] /XStep 8 /YStep 8}
	bind def
/KeepColor {currentrgbcolor [/Pattern /DeviceRGB] setcolorspace} bind def
<< Tile8x8
 /PaintProc {0.5 setlinewidth pop 0 0 M 8 8 L 0 8 M 8 0 L stroke} 
>> matrix makepattern
/Pat1 exch def
<< Tile8x8
 /PaintProc {0.5 setlinewidth pop 0 0 M 8 8 L 0 8 M 8 0 L stroke
	0 4 M 4 8 L 8 4 L 4 0 L 0 4 L stroke}
>> matrix makepattern
/Pat2 exch def
<< Tile8x8
 /PaintProc {0.5 setlinewidth pop 0 0 M 0 8 L
	8 8 L 8 0 L 0 0 L fill}
>> matrix makepattern
/Pat3 exch def
<< Tile8x8
 /PaintProc {0.5 setlinewidth pop -4 8 M 8 -4 L
	0 12 M 12 0 L stroke}
>> matrix makepattern
/Pat4 exch def
<< Tile8x8
 /PaintProc {0.5 setlinewidth pop -4 0 M 8 12 L
	0 -4 M 12 8 L stroke}
>> matrix makepattern
/Pat5 exch def
<< Tile8x8
 /PaintProc {0.5 setlinewidth pop -2 8 M 4 -4 L
	0 12 M 8 -4 L 4 12 M 10 0 L stroke}
>> matrix makepattern
/Pat6 exch def
<< Tile8x8
 /PaintProc {0.5 setlinewidth pop -2 0 M 4 12 L
	0 -4 M 8 12 L 4 -4 M 10 8 L stroke}
>> matrix makepattern
/Pat7 exch def
<< Tile8x8
 /PaintProc {0.5 setlinewidth pop 8 -2 M -4 4 L
	12 0 M -4 8 L 12 4 M 0 10 L stroke}
>> matrix makepattern
/Pat8 exch def
<< Tile8x8
 /PaintProc {0.5 setlinewidth pop 0 -2 M 12 4 L
	-4 0 M 12 8 L -4 4 M 8 10 L stroke}
>> matrix makepattern
/Pat9 exch def
/Pattern1 {PatternBgnd KeepColor Pat1 setpattern} bind def
/Pattern2 {PatternBgnd KeepColor Pat2 setpattern} bind def
/Pattern3 {PatternBgnd KeepColor Pat3 setpattern} bind def
/Pattern4 {PatternBgnd KeepColor Landscape {Pat5} {Pat4} ifelse setpattern} bind def
/Pattern5 {PatternBgnd KeepColor Landscape {Pat4} {Pat5} ifelse setpattern} bind def
/Pattern6 {PatternBgnd KeepColor Landscape {Pat9} {Pat6} ifelse setpattern} bind def
/Pattern7 {PatternBgnd KeepColor Landscape {Pat8} {Pat7} ifelse setpattern} bind def
} def
%
%
%End of PostScript Level 2 code
%
/PatternBgnd {
  TransparentPatterns {} {gsave 1 setgray fill grestore} ifelse
} def
%
% Substitute for Level 2 pattern fill codes with
% grayscale if Level 2 support is not selected.
%
/Level1PatternFill {
/Pattern1 {0.250 Density} bind def
/Pattern2 {0.500 Density} bind def
/Pattern3 {0.750 Density} bind def
/Pattern4 {0.125 Density} bind def
/Pattern5 {0.375 Density} bind def
/Pattern6 {0.625 Density} bind def
/Pattern7 {0.875 Density} bind def
} def
%
% Now test for support of Level 2 code
%
Level1 {Level1PatternFill} {Level2PatternFill} ifelse
%
/Symbol-Oblique /Symbol findfont [1 0 .167 1 0 0] makefont
dup length dict begin {1 index /FID eq {pop pop} {def} ifelse} forall
currentdict end definefont pop
/MFshow {
   { dup 5 get 3 ge
     { 5 get 3 eq {gsave} {grestore} ifelse }
     {dup dup 0 get findfont exch 1 get scalefont setfont
     [ currentpoint ] exch dup 2 get 0 exch R dup 5 get 2 ne {dup dup 6
     get exch 4 get {Gshow} {stringwidth pop 0 R} ifelse }if dup 5 get 0 eq
     {dup 3 get {2 get neg 0 exch R pop} {pop aload pop M} ifelse} {dup 5
     get 1 eq {dup 2 get exch dup 3 get exch 6 get stringwidth pop -2 div
     dup 0 R} {dup 6 get stringwidth pop -2 div 0 R 6 get
     show 2 index {aload pop M neg 3 -1 roll neg R pop pop} {pop pop pop
     pop aload pop M} ifelse }ifelse }ifelse }
     ifelse }
   forall} def
/Gswidth {dup type /stringtype eq {stringwidth} {pop (n) stringwidth} ifelse} def
/MFwidth {0 exch { dup 5 get 3 ge { 5 get 3 eq { 0 } { pop } ifelse }
 {dup 3 get{dup dup 0 get findfont exch 1 get scalefont setfont
     6 get Gswidth pop add} {pop} ifelse} ifelse} forall} def
/MLshow { currentpoint stroke M
  0 exch R
  Blacktext {gsave 0 setgray MFshow grestore} {MFshow} ifelse } bind def
/MRshow { currentpoint stroke M
  exch dup MFwidth neg 3 -1 roll R
  Blacktext {gsave 0 setgray MFshow grestore} {MFshow} ifelse } bind def
/MCshow { currentpoint stroke M
  exch dup MFwidth -2 div 3 -1 roll R
  Blacktext {gsave 0 setgray MFshow grestore} {MFshow} ifelse } bind def
/XYsave    { [( ) 1 2 true false 3 ()] } bind def
/XYrestore { [( ) 1 2 true false 4 ()] } bind def
end
%%EndProlog
gnudict begin
gsave
doclip
50 50 translate
0.050 0.050 scale
0 setgray
newpath
(Helvetica) findfont 140 scalefont setfont
1.000 UL
LTb
1.000 UL
LTa
686 448 M
6261 0 V
stroke
LTb
686 448 M
63 0 V
6198 0 R
-63 0 V
stroke
602 448 M
[ [(Helvetica) 140.0 0.0 true true 0 ( 0)]
] -46.7 MRshow
1.000 UL
LTb
1.000 UL
LTa
686 1333 M
6261 0 V
stroke
LTb
686 1333 M
63 0 V
6198 0 R
-63 0 V
stroke
602 1333 M
[ [(Helvetica) 140.0 0.0 true true 0 ( 0.2)]
] -46.7 MRshow
1.000 UL
LTb
1.000 UL
LTa
686 2217 M
6261 0 V
stroke
LTb
686 2217 M
63 0 V
6198 0 R
-63 0 V
stroke
602 2217 M
[ [(Helvetica) 140.0 0.0 true true 0 ( 0.4)]
] -46.7 MRshow
1.000 UL
LTb
1.000 UL
LTa
686 3102 M
6261 0 V
stroke
LTb
686 3102 M
63 0 V
6198 0 R
-63 0 V
stroke
602 3102 M
[ [(Helvetica) 140.0 0.0 true true 0 ( 0.6)]
] -46.7 MRshow
1.000 UL
LTb
1.000 UL
LTa
686 3986 M
6261 0 V
stroke
LTb
686 3986 M
63 0 V
6198 0 R
-63 0 V
stroke
602 3986 M
[ [(Helvetica) 140.0 0.0 true true 0 ( 0.8)]
] -46.7 MRshow
1.000 UL
LTb
1.000 UL
LTa
686 4871 M
6261 0 V
stroke
LTb
686 4871 M
63 0 V
6198 0 R
-63 0 V
stroke
602 4871 M
[ [(Helvetica) 140.0 0.0 true true 0 ( 1)]
] -46.7 MRshow
1.000 UL
LTb
1.000 UL
LTa
686 448 M
0 4423 V
stroke
LTb
686 448 M
0 63 V
0 4360 R
0 -63 V
stroke
686 308 M
[ [(Helvetica) 140.0 0.0 true true 0 ( 0)]
] -46.7 MCshow
1.000 UL
LTb
1.000 UL
LTa
1729 448 M
0 4423 V
stroke
LTb
1729 448 M
0 63 V
0 4360 R
0 -63 V
stroke
1729 308 M
[ [(Helvetica) 140.0 0.0 true true 0 ( 5)]
] -46.7 MCshow
1.000 UL
LTb
1.000 UL
LTa
2773 448 M
0 4423 V
stroke
LTb
2773 448 M
0 63 V
0 4360 R
0 -63 V
stroke
2773 308 M
[ [(Helvetica) 140.0 0.0 true true 0 ( 10)]
] -46.7 MCshow
1.000 UL
LTb
1.000 UL
LTa
3816 448 M
0 63 V
0 628 R
0 3732 V
stroke
LTb
3816 448 M
0 63 V
0 4360 R
0 -63 V
stroke
3816 308 M
[ [(Helvetica) 140.0 0.0 true true 0 ( 15)]
] -46.7 MCshow
1.000 UL
LTb
1.000 UL
LTa
4860 448 M
0 63 V
0 628 R
0 3732 V
stroke
LTb
4860 448 M
0 63 V
0 4360 R
0 -63 V
stroke
4860 308 M
[ [(Helvetica) 140.0 0.0 true true 0 ( 20)]
] -46.7 MCshow
1.000 UL
LTb
1.000 UL
LTa
5903 448 M
0 63 V
0 628 R
0 3732 V
stroke
LTb
5903 448 M
0 63 V
0 4360 R
0 -63 V
stroke
5903 308 M
[ [(Helvetica) 140.0 0.0 true true 0 ( 25)]
] -46.7 MCshow
1.000 UL
LTb
1.000 UL
LTa
6947 448 M
0 4423 V
stroke
LTb
6947 448 M
0 63 V
0 4360 R
0 -63 V
stroke
6947 308 M
[ [(Helvetica) 140.0 0.0 true true 0 ( 30)]
] -46.7 MCshow
1.000 UL
LTb
1.000 UL
LTb
686 4871 N
686 448 L
6261 0 V
0 4423 V
-6261 0 V
Z stroke
LCb setrgbcolor
112 2659 M
currentpoint gsave translate -270 rotate 0 0 moveto
[ [(Helvetica) 140.0 0.0 true true 0 (CDF)]
] -46.7 MCshow
grestore
LTb
LCb setrgbcolor
3816 98 M
[ [(Helvetica) 140.0 0.0 true true 0 (Throughput [Mbps])]
] -46.7 MCshow
LTb
2.000 UP
1.000 UL
LTb
% Begin plot #1
2.000 UP
1.000 UL
LT0
LCb setrgbcolor
6233 1061 M
[ [(Helvetica) 140.0 0.0 true true 0 (Wi-Fi over Wi-Fi operator A \(WiFi\))]
] -46.7 MRshow
LT0
6317 1061 M
462 0 V
686 448 M
1488 66 V
134 66 V
15 66 V
25 66 V
26 66 V
36 66 V
14 66 V
71 66 V
71 66 V
46 66 V
6 66 V
48 66 V
74 66 V
25 66 V
60 66 V
27 66 V
205 66 V
2 66 V
17 66 V
91 66 V
41 66 V
91 67 V
162 65 V
210 66 V
22 66 V
4 67 V
36 65 V
22 66 V
50 66 V
28 67 V
549 66 V
123 65 V
5 66 V
33 67 V
73 66 V
187 65 V
152 66 V
1 67 V
18 66 V
12 66 V
5 65 V
6 67 V
1 66 V
3 66 V
0 65 V
5 67 V
1 66 V
7 66 V
6 66 V
0 66 V
2 66 V
8 66 V
2 66 V
1 66 V
2 66 V
1 66 V
3 66 V
3 66 V
4 66 V
0 66 V
14 66 V
1 66 V
6 66 V
33 66 V
24 66 V
38 66 V
13 66 V
686 448 TriU
2174 514 TriU
2308 580 TriU
2323 646 TriU
2348 712 TriU
2374 778 TriU
2410 844 TriU
2424 910 TriU
2495 976 TriU
2566 1042 TriU
2612 1108 TriU
2618 1174 TriU
2666 1240 TriU
2740 1306 TriU
2765 1372 TriU
2825 1438 TriU
2852 1504 TriU
3057 1570 TriU
3059 1636 TriU
3076 1702 TriU
3167 1768 TriU
3208 1834 TriU
3299 1901 TriU
3461 1966 TriU
3671 2032 TriU
3693 2098 TriU
3697 2165 TriU
3733 2230 TriU
3755 2296 TriU
3805 2362 TriU
3833 2429 TriU
4382 2495 TriU
4505 2560 TriU
4510 2626 TriU
4543 2693 TriU
4616 2759 TriU
4803 2824 TriU
4955 2890 TriU
4956 2957 TriU
4974 3023 TriU
4986 3089 TriU
4991 3154 TriU
4997 3221 TriU
4998 3287 TriU
5001 3353 TriU
5001 3418 TriU
5006 3485 TriU
5007 3551 TriU
5014 3617 TriU
5020 3683 TriU
5020 3749 TriU
5022 3815 TriU
5030 3881 TriU
5032 3947 TriU
5033 4013 TriU
5035 4079 TriU
5036 4145 TriU
5039 4211 TriU
5042 4277 TriU
5046 4343 TriU
5046 4409 TriU
5060 4475 TriU
5061 4541 TriU
5067 4607 TriU
5100 4673 TriU
5124 4739 TriU
5162 4805 TriU
5175 4871 TriU
6548 1061 TriU
% End plot #1
% Begin plot #2
2.000 UP
1.000 UL
LT1
LCb setrgbcolor
6233 904 M
[ [(Helvetica) 140.0 0.0 true true 0 (Wi-Fi over Wi-Fi operator B \(WiFi\))]
] -46.7 MRshow
LT1
6317 904 M
462 0 V
686 448 M
1477 68 V
61 68 V
71 68 V
19 68 V
21 68 V
30 68 V
71 68 V
43 68 V
138 69 V
21 67 V
20 68 V
67 68 V
51 69 V
49 68 V
137 68 V
1 68 V
54 68 V
11 68 V
7 68 V
77 68 V
53 68 V
33 68 V
3 68 V
34 68 V
26 68 V
303 68 V
92 68 V
13 68 V
15 69 V
27 67 V
172 68 V
18 68 V
31 69 V
65 68 V
137 68 V
79 67 V
83 69 V
76 68 V
17 68 V
80 68 V
5 68 V
2 68 V
47 68 V
3 68 V
5 68 V
25 68 V
10 68 V
64 68 V
207 68 V
21 68 V
21 68 V
49 68 V
79 69 V
9 68 V
4 68 V
1 67 V
1 69 V
2 68 V
18 68 V
3 68 V
15 68 V
26 68 V
3 68 V
8 68 V
64 68 V
686 448 TriUF
2163 516 TriUF
2224 584 TriUF
2295 652 TriUF
2314 720 TriUF
2335 788 TriUF
2365 856 TriUF
2436 924 TriUF
2479 992 TriUF
2617 1061 TriUF
2638 1128 TriUF
2658 1196 TriUF
2725 1264 TriUF
2776 1333 TriUF
2825 1401 TriUF
2962 1469 TriUF
2963 1537 TriUF
3017 1605 TriUF
3028 1673 TriUF
3035 1741 TriUF
3112 1809 TriUF
3165 1877 TriUF
3198 1945 TriUF
3201 2013 TriUF
3235 2081 TriUF
3261 2149 TriUF
3564 2217 TriUF
3656 2285 TriUF
3669 2353 TriUF
3684 2422 TriUF
3711 2489 TriUF
3883 2557 TriUF
3901 2625 TriUF
3932 2694 TriUF
3997 2762 TriUF
4134 2830 TriUF
4213 2897 TriUF
4296 2966 TriUF
4372 3034 TriUF
4389 3102 TriUF
4469 3170 TriUF
4474 3238 TriUF
4476 3306 TriUF
4523 3374 TriUF
4526 3442 TriUF
4531 3510 TriUF
4556 3578 TriUF
4566 3646 TriUF
4630 3714 TriUF
4837 3782 TriUF
4858 3850 TriUF
4879 3918 TriUF
4928 3986 TriUF
5007 4055 TriUF
5016 4123 TriUF
5020 4191 TriUF
5021 4258 TriUF
5022 4327 TriUF
5024 4395 TriUF
5042 4463 TriUF
5045 4531 TriUF
5060 4599 TriUF
5086 4667 TriUF
5089 4735 TriUF
5097 4803 TriUF
5161 4871 TriUF
6548 904 TriUF
% End plot #2
% Begin plot #3
2.000 UP
1.000 UL
LT2
LCb setrgbcolor
6233 747 M
[ [(Helvetica) 140.0 0.0 true true 0 (LTE-DC over Wi-Fi operator A \(LTE-DC\))]
] -46.7 MRshow
LT2
6317 747 M
462 0 V
686 448 M
83 65 V
32 65 V
22 65 V
32 65 V
57 65 V
128 65 V
12 65 V
438 65 V
185 66 V
76 65 V
75 65 V
43 65 V
15 65 V
3 65 V
10 65 V
35 65 V
6 65 V
145 65 V
5 65 V
24 65 V
93 65 V
6 65 V
24 65 V
3 65 V
10 65 V
34 65 V
4 65 V
35 65 V
0 65 V
10 65 V
17 65 V
6 65 V
7 65 V
44 66 V
8 65 V
13 65 V
57 65 V
4 65 V
2 65 V
5 65 V
3 65 V
5 65 V
0 65 V
8 65 V
1 65 V
5 65 V
9 65 V
2 65 V
16 65 V
5 65 V
7 65 V
6 65 V
2 65 V
14 65 V
2 65 V
0 65 V
0 65 V
1 65 V
6 65 V
4 66 V
2 65 V
0 65 V
9 65 V
1 65 V
20 65 V
45 65 V
3 65 V
64 65 V
686 448 Box
769 513 Box
801 578 Box
823 643 Box
855 708 Box
912 773 Box
1040 838 Box
1052 903 Box
1490 968 Box
1675 1034 Box
1751 1099 Box
1826 1164 Box
1869 1229 Box
1884 1294 Box
1887 1359 Box
1897 1424 Box
1932 1489 Box
1938 1554 Box
2083 1619 Box
2088 1684 Box
2112 1749 Box
2205 1814 Box
2211 1879 Box
2235 1944 Box
2238 2009 Box
2248 2074 Box
2282 2139 Box
2286 2204 Box
2321 2269 Box
2321 2334 Box
2331 2399 Box
2348 2464 Box
2354 2529 Box
2361 2594 Box
2405 2660 Box
2413 2725 Box
2426 2790 Box
2483 2855 Box
2487 2920 Box
2489 2985 Box
2494 3050 Box
2497 3115 Box
2502 3180 Box
2502 3245 Box
2510 3310 Box
2511 3375 Box
2516 3440 Box
2525 3505 Box
2527 3570 Box
2543 3635 Box
2548 3700 Box
2555 3765 Box
2561 3830 Box
2563 3895 Box
2577 3960 Box
2579 4025 Box
2579 4090 Box
2579 4155 Box
2580 4220 Box
2586 4285 Box
2590 4351 Box
2592 4416 Box
2592 4481 Box
2601 4546 Box
2602 4611 Box
2622 4676 Box
2667 4741 Box
2670 4806 Box
2734 4871 Box
6548 747 Box
% End plot #3
% Begin plot #4
2.000 UP
1.000 UL
LT3
LCb setrgbcolor
6233 590 M
[ [(Helvetica) 140.0 0.0 true true 0 (LTE-DC over Wi-Fi operator B \(WiFi\))]
] -46.7 MRshow
LT3
6317 590 M
462 0 V
686 448 M
1464 68 V
615 68 V
250 68 V
16 68 V
180 68 V
10 68 V
117 68 V
5 68 V
31 69 V
22 67 V
37 68 V
116 68 V
4 69 V
3 68 V
12 68 V
27 68 V
17 68 V
14 68 V
77 68 V
103 68 V
2 68 V
20 68 V
34 68 V
10 68 V
27 68 V
44 68 V
30 68 V
6 68 V
27 69 V
14 67 V
52 68 V
3 68 V
5 69 V
16 68 V
35 68 V
0 67 V
53 69 V
3 68 V
2 68 V
16 68 V
19 68 V
7 68 V
19 68 V
8 68 V
34 68 V
1 68 V
12 68 V
6 68 V
42 68 V
1 68 V
8 68 V
16 68 V
18 69 V
54 68 V
15 68 V
8 67 V
4 69 V
9 68 V
11 68 V
34 68 V
30 68 V
7 68 V
59 68 V
59 68 V
766 68 V
686 448 CircleF
2150 516 CircleF
2765 584 CircleF
3015 652 CircleF
3031 720 CircleF
3211 788 CircleF
3221 856 CircleF
3338 924 CircleF
3343 992 CircleF
3374 1061 CircleF
3396 1128 CircleF
3433 1196 CircleF
3549 1264 CircleF
3553 1333 CircleF
3556 1401 CircleF
3568 1469 CircleF
3595 1537 CircleF
3612 1605 CircleF
3626 1673 CircleF
3703 1741 CircleF
3806 1809 CircleF
3808 1877 CircleF
3828 1945 CircleF
3862 2013 CircleF
3872 2081 CircleF
3899 2149 CircleF
3943 2217 CircleF
3973 2285 CircleF
3979 2353 CircleF
4006 2422 CircleF
4020 2489 CircleF
4072 2557 CircleF
4075 2625 CircleF
4080 2694 CircleF
4096 2762 CircleF
4131 2830 CircleF
4131 2897 CircleF
4184 2966 CircleF
4187 3034 CircleF
4189 3102 CircleF
4205 3170 CircleF
4224 3238 CircleF
4231 3306 CircleF
4250 3374 CircleF
4258 3442 CircleF
4292 3510 CircleF
4293 3578 CircleF
4305 3646 CircleF
4311 3714 CircleF
4353 3782 CircleF
4354 3850 CircleF
4362 3918 CircleF
4378 3986 CircleF
4396 4055 CircleF
4450 4123 CircleF
4465 4191 CircleF
4473 4258 CircleF
4477 4327 CircleF
4486 4395 CircleF
4497 4463 CircleF
4531 4531 CircleF
4561 4599 CircleF
4568 4667 CircleF
4627 4735 CircleF
4686 4803 CircleF
5452 4871 CircleF
6548 590 CircleF
% End plot #4
1.000 UL
LTb
686 4871 N
686 448 L
6261 0 V
0 4423 V
-6261 0 V
Z stroke
2.000 UP
1.000 UL
LTb
stroke
grestore
end
showpage
%%Trailer
%%DocumentFonts: Helvetica
