%!PS-Adobe-2.0 EPSF-2.0
%%Title: itu-umi-propagation-loss-model.eps
%%Creator: gnuplot 4.6 patchlevel 4
%%CreationDate: Tue May 26 11:12:55 2015
%%DocumentFonts: (atend)
%%BoundingBox: 50 50 410 302
%%EndComments
%%BeginProlog
/gnudict 256 dict def
gnudict begin
%
% The following true/false flags may be edited by hand if desired.
% The unit line width and grayscale image gamma correction may also be changed.
%
/Color true def
/Blacktext false def
/Solid false def
/Dashlength 1 def
/Landscape false def
/Level1 false def
/Rounded false def
/ClipToBoundingBox false def
/SuppressPDFMark false def
/TransparentPatterns false def
/gnulinewidth 5.000 def
/userlinewidth gnulinewidth def
/Gamma 1.0 def
/BackgroundColor {-1.000 -1.000 -1.000} def
%
/vshift -46 def
/dl1 {
  10.0 Dashlength mul mul
  Rounded { currentlinewidth 0.75 mul sub dup 0 le { pop 0.01 } if } if
} def
/dl2 {
  10.0 Dashlength mul mul
  Rounded { currentlinewidth 0.75 mul add } if
} def
/hpt_ 31.5 def
/vpt_ 31.5 def
/hpt hpt_ def
/vpt vpt_ def
/doclip {
  ClipToBoundingBox {
    newpath 50 50 moveto 410 50 lineto 410 302 lineto 50 302 lineto closepath
    clip
  } if
} def
%
% Gnuplot Prolog Version 4.6 (September 2012)
%
%/SuppressPDFMark true def
%
/M {moveto} bind def
/L {lineto} bind def
/R {rmoveto} bind def
/V {rlineto} bind def
/N {newpath moveto} bind def
/Z {closepath} bind def
/C {setrgbcolor} bind def
/f {rlineto fill} bind def
/g {setgray} bind def
/Gshow {show} def   % May be redefined later in the file to support UTF-8
/vpt2 vpt 2 mul def
/hpt2 hpt 2 mul def
/Lshow {currentpoint stroke M 0 vshift R 
	Blacktext {gsave 0 setgray show grestore} {show} ifelse} def
/Rshow {currentpoint stroke M dup stringwidth pop neg vshift R
	Blacktext {gsave 0 setgray show grestore} {show} ifelse} def
/Cshow {currentpoint stroke M dup stringwidth pop -2 div vshift R 
	Blacktext {gsave 0 setgray show grestore} {show} ifelse} def
/UP {dup vpt_ mul /vpt exch def hpt_ mul /hpt exch def
  /hpt2 hpt 2 mul def /vpt2 vpt 2 mul def} def
/DL {Color {setrgbcolor Solid {pop []} if 0 setdash}
 {pop pop pop 0 setgray Solid {pop []} if 0 setdash} ifelse} def
/BL {stroke userlinewidth 2 mul setlinewidth
	Rounded {1 setlinejoin 1 setlinecap} if} def
/AL {stroke userlinewidth 2 div setlinewidth
	Rounded {1 setlinejoin 1 setlinecap} if} def
/UL {dup gnulinewidth mul /userlinewidth exch def
	dup 1 lt {pop 1} if 10 mul /udl exch def} def
/PL {stroke userlinewidth setlinewidth
	Rounded {1 setlinejoin 1 setlinecap} if} def
3.8 setmiterlimit
% Default Line colors
/LCw {1 1 1} def
/LCb {0 0 0} def
/LCa {0 0 0} def
/LC0 {1 0 0} def
/LC1 {0 1 0} def
/LC2 {0 0 1} def
/LC3 {1 0 1} def
/LC4 {0 1 1} def
/LC5 {1 1 0} def
/LC6 {0 0 0} def
/LC7 {1 0.3 0} def
/LC8 {0.5 0.5 0.5} def
% Default Line Types
/LTw {PL [] 1 setgray} def
/LTb {BL [] LCb DL} def
/LTa {AL [1 udl mul 2 udl mul] 0 setdash LCa setrgbcolor} def
/LT0 {PL [] LC0 DL} def
/LT1 {PL [4 dl1 2 dl2] LC1 DL} def
/LT2 {PL [2 dl1 3 dl2] LC2 DL} def
/LT3 {PL [1 dl1 1.5 dl2] LC3 DL} def
/LT4 {PL [6 dl1 2 dl2 1 dl1 2 dl2] LC4 DL} def
/LT5 {PL [3 dl1 3 dl2 1 dl1 3 dl2] LC5 DL} def
/LT6 {PL [2 dl1 2 dl2 2 dl1 6 dl2] LC6 DL} def
/LT7 {PL [1 dl1 2 dl2 6 dl1 2 dl2 1 dl1 2 dl2] LC7 DL} def
/LT8 {PL [2 dl1 2 dl2 2 dl1 2 dl2 2 dl1 2 dl2 2 dl1 4 dl2] LC8 DL} def
/Pnt {stroke [] 0 setdash gsave 1 setlinecap M 0 0 V stroke grestore} def
/Dia {stroke [] 0 setdash 2 copy vpt add M
  hpt neg vpt neg V hpt vpt neg V
  hpt vpt V hpt neg vpt V closepath stroke
  Pnt} def
/Pls {stroke [] 0 setdash vpt sub M 0 vpt2 V
  currentpoint stroke M
  hpt neg vpt neg R hpt2 0 V stroke
 } def
/Box {stroke [] 0 setdash 2 copy exch hpt sub exch vpt add M
  0 vpt2 neg V hpt2 0 V 0 vpt2 V
  hpt2 neg 0 V closepath stroke
  Pnt} def
/Crs {stroke [] 0 setdash exch hpt sub exch vpt add M
  hpt2 vpt2 neg V currentpoint stroke M
  hpt2 neg 0 R hpt2 vpt2 V stroke} def
/TriU {stroke [] 0 setdash 2 copy vpt 1.12 mul add M
  hpt neg vpt -1.62 mul V
  hpt 2 mul 0 V
  hpt neg vpt 1.62 mul V closepath stroke
  Pnt} def
/Star {2 copy Pls Crs} def
/BoxF {stroke [] 0 setdash exch hpt sub exch vpt add M
  0 vpt2 neg V hpt2 0 V 0 vpt2 V
  hpt2 neg 0 V closepath fill} def
/TriUF {stroke [] 0 setdash vpt 1.12 mul add M
  hpt neg vpt -1.62 mul V
  hpt 2 mul 0 V
  hpt neg vpt 1.62 mul V closepath fill} def
/TriD {stroke [] 0 setdash 2 copy vpt 1.12 mul sub M
  hpt neg vpt 1.62 mul V
  hpt 2 mul 0 V
  hpt neg vpt -1.62 mul V closepath stroke
  Pnt} def
/TriDF {stroke [] 0 setdash vpt 1.12 mul sub M
  hpt neg vpt 1.62 mul V
  hpt 2 mul 0 V
  hpt neg vpt -1.62 mul V closepath fill} def
/DiaF {stroke [] 0 setdash vpt add M
  hpt neg vpt neg V hpt vpt neg V
  hpt vpt V hpt neg vpt V closepath fill} def
/Pent {stroke [] 0 setdash 2 copy gsave
  translate 0 hpt M 4 {72 rotate 0 hpt L} repeat
  closepath stroke grestore Pnt} def
/PentF {stroke [] 0 setdash gsave
  translate 0 hpt M 4 {72 rotate 0 hpt L} repeat
  closepath fill grestore} def
/Circle {stroke [] 0 setdash 2 copy
  hpt 0 360 arc stroke Pnt} def
/CircleF {stroke [] 0 setdash hpt 0 360 arc fill} def
/C0 {BL [] 0 setdash 2 copy moveto vpt 90 450 arc} bind def
/C1 {BL [] 0 setdash 2 copy moveto
	2 copy vpt 0 90 arc closepath fill
	vpt 0 360 arc closepath} bind def
/C2 {BL [] 0 setdash 2 copy moveto
	2 copy vpt 90 180 arc closepath fill
	vpt 0 360 arc closepath} bind def
/C3 {BL [] 0 setdash 2 copy moveto
	2 copy vpt 0 180 arc closepath fill
	vpt 0 360 arc closepath} bind def
/C4 {BL [] 0 setdash 2 copy moveto
	2 copy vpt 180 270 arc closepath fill
	vpt 0 360 arc closepath} bind def
/C5 {BL [] 0 setdash 2 copy moveto
	2 copy vpt 0 90 arc
	2 copy moveto
	2 copy vpt 180 270 arc closepath fill
	vpt 0 360 arc} bind def
/C6 {BL [] 0 setdash 2 copy moveto
	2 copy vpt 90 270 arc closepath fill
	vpt 0 360 arc closepath} bind def
/C7 {BL [] 0 setdash 2 copy moveto
	2 copy vpt 0 270 arc closepath fill
	vpt 0 360 arc closepath} bind def
/C8 {BL [] 0 setdash 2 copy moveto
	2 copy vpt 270 360 arc closepath fill
	vpt 0 360 arc closepath} bind def
/C9 {BL [] 0 setdash 2 copy moveto
	2 copy vpt 270 450 arc closepath fill
	vpt 0 360 arc closepath} bind def
/C10 {BL [] 0 setdash 2 copy 2 copy moveto vpt 270 360 arc closepath fill
	2 copy moveto
	2 copy vpt 90 180 arc closepath fill
	vpt 0 360 arc closepath} bind def
/C11 {BL [] 0 setdash 2 copy moveto
	2 copy vpt 0 180 arc closepath fill
	2 copy moveto
	2 copy vpt 270 360 arc closepath fill
	vpt 0 360 arc closepath} bind def
/C12 {BL [] 0 setdash 2 copy moveto
	2 copy vpt 180 360 arc closepath fill
	vpt 0 360 arc closepath} bind def
/C13 {BL [] 0 setdash 2 copy moveto
	2 copy vpt 0 90 arc closepath fill
	2 copy moveto
	2 copy vpt 180 360 arc closepath fill
	vpt 0 360 arc closepath} bind def
/C14 {BL [] 0 setdash 2 copy moveto
	2 copy vpt 90 360 arc closepath fill
	vpt 0 360 arc} bind def
/C15 {BL [] 0 setdash 2 copy vpt 0 360 arc closepath fill
	vpt 0 360 arc closepath} bind def
/Rec {newpath 4 2 roll moveto 1 index 0 rlineto 0 exch rlineto
	neg 0 rlineto closepath} bind def
/Square {dup Rec} bind def
/Bsquare {vpt sub exch vpt sub exch vpt2 Square} bind def
/S0 {BL [] 0 setdash 2 copy moveto 0 vpt rlineto BL Bsquare} bind def
/S1 {BL [] 0 setdash 2 copy vpt Square fill Bsquare} bind def
/S2 {BL [] 0 setdash 2 copy exch vpt sub exch vpt Square fill Bsquare} bind def
/S3 {BL [] 0 setdash 2 copy exch vpt sub exch vpt2 vpt Rec fill Bsquare} bind def
/S4 {BL [] 0 setdash 2 copy exch vpt sub exch vpt sub vpt Square fill Bsquare} bind def
/S5 {BL [] 0 setdash 2 copy 2 copy vpt Square fill
	exch vpt sub exch vpt sub vpt Square fill Bsquare} bind def
/S6 {BL [] 0 setdash 2 copy exch vpt sub exch vpt sub vpt vpt2 Rec fill Bsquare} bind def
/S7 {BL [] 0 setdash 2 copy exch vpt sub exch vpt sub vpt vpt2 Rec fill
	2 copy vpt Square fill Bsquare} bind def
/S8 {BL [] 0 setdash 2 copy vpt sub vpt Square fill Bsquare} bind def
/S9 {BL [] 0 setdash 2 copy vpt sub vpt vpt2 Rec fill Bsquare} bind def
/S10 {BL [] 0 setdash 2 copy vpt sub vpt Square fill 2 copy exch vpt sub exch vpt Square fill
	Bsquare} bind def
/S11 {BL [] 0 setdash 2 copy vpt sub vpt Square fill 2 copy exch vpt sub exch vpt2 vpt Rec fill
	Bsquare} bind def
/S12 {BL [] 0 setdash 2 copy exch vpt sub exch vpt sub vpt2 vpt Rec fill Bsquare} bind def
/S13 {BL [] 0 setdash 2 copy exch vpt sub exch vpt sub vpt2 vpt Rec fill
	2 copy vpt Square fill Bsquare} bind def
/S14 {BL [] 0 setdash 2 copy exch vpt sub exch vpt sub vpt2 vpt Rec fill
	2 copy exch vpt sub exch vpt Square fill Bsquare} bind def
/S15 {BL [] 0 setdash 2 copy Bsquare fill Bsquare} bind def
/D0 {gsave translate 45 rotate 0 0 S0 stroke grestore} bind def
/D1 {gsave translate 45 rotate 0 0 S1 stroke grestore} bind def
/D2 {gsave translate 45 rotate 0 0 S2 stroke grestore} bind def
/D3 {gsave translate 45 rotate 0 0 S3 stroke grestore} bind def
/D4 {gsave translate 45 rotate 0 0 S4 stroke grestore} bind def
/D5 {gsave translate 45 rotate 0 0 S5 stroke grestore} bind def
/D6 {gsave translate 45 rotate 0 0 S6 stroke grestore} bind def
/D7 {gsave translate 45 rotate 0 0 S7 stroke grestore} bind def
/D8 {gsave translate 45 rotate 0 0 S8 stroke grestore} bind def
/D9 {gsave translate 45 rotate 0 0 S9 stroke grestore} bind def
/D10 {gsave translate 45 rotate 0 0 S10 stroke grestore} bind def
/D11 {gsave translate 45 rotate 0 0 S11 stroke grestore} bind def
/D12 {gsave translate 45 rotate 0 0 S12 stroke grestore} bind def
/D13 {gsave translate 45 rotate 0 0 S13 stroke grestore} bind def
/D14 {gsave translate 45 rotate 0 0 S14 stroke grestore} bind def
/D15 {gsave translate 45 rotate 0 0 S15 stroke grestore} bind def
/DiaE {stroke [] 0 setdash vpt add M
  hpt neg vpt neg V hpt vpt neg V
  hpt vpt V hpt neg vpt V closepath stroke} def
/BoxE {stroke [] 0 setdash exch hpt sub exch vpt add M
  0 vpt2 neg V hpt2 0 V 0 vpt2 V
  hpt2 neg 0 V closepath stroke} def
/TriUE {stroke [] 0 setdash vpt 1.12 mul add M
  hpt neg vpt -1.62 mul V
  hpt 2 mul 0 V
  hpt neg vpt 1.62 mul V closepath stroke} def
/TriDE {stroke [] 0 setdash vpt 1.12 mul sub M
  hpt neg vpt 1.62 mul V
  hpt 2 mul 0 V
  hpt neg vpt -1.62 mul V closepath stroke} def
/PentE {stroke [] 0 setdash gsave
  translate 0 hpt M 4 {72 rotate 0 hpt L} repeat
  closepath stroke grestore} def
/CircE {stroke [] 0 setdash 
  hpt 0 360 arc stroke} def
/Opaque {gsave closepath 1 setgray fill grestore 0 setgray closepath} def
/DiaW {stroke [] 0 setdash vpt add M
  hpt neg vpt neg V hpt vpt neg V
  hpt vpt V hpt neg vpt V Opaque stroke} def
/BoxW {stroke [] 0 setdash exch hpt sub exch vpt add M
  0 vpt2 neg V hpt2 0 V 0 vpt2 V
  hpt2 neg 0 V Opaque stroke} def
/TriUW {stroke [] 0 setdash vpt 1.12 mul add M
  hpt neg vpt -1.62 mul V
  hpt 2 mul 0 V
  hpt neg vpt 1.62 mul V Opaque stroke} def
/TriDW {stroke [] 0 setdash vpt 1.12 mul sub M
  hpt neg vpt 1.62 mul V
  hpt 2 mul 0 V
  hpt neg vpt -1.62 mul V Opaque stroke} def
/PentW {stroke [] 0 setdash gsave
  translate 0 hpt M 4 {72 rotate 0 hpt L} repeat
  Opaque stroke grestore} def
/CircW {stroke [] 0 setdash 
  hpt 0 360 arc Opaque stroke} def
/BoxFill {gsave Rec 1 setgray fill grestore} def
/Density {
  /Fillden exch def
  currentrgbcolor
  /ColB exch def /ColG exch def /ColR exch def
  /ColR ColR Fillden mul Fillden sub 1 add def
  /ColG ColG Fillden mul Fillden sub 1 add def
  /ColB ColB Fillden mul Fillden sub 1 add def
  ColR ColG ColB setrgbcolor} def
/BoxColFill {gsave Rec PolyFill} def
/PolyFill {gsave Density fill grestore grestore} def
/h {rlineto rlineto rlineto gsave closepath fill grestore} bind def
%
% PostScript Level 1 Pattern Fill routine for rectangles
% Usage: x y w h s a XX PatternFill
%	x,y = lower left corner of box to be filled
%	w,h = width and height of box
%	  a = angle in degrees between lines and x-axis
%	 XX = 0/1 for no/yes cross-hatch
%
/PatternFill {gsave /PFa [ 9 2 roll ] def
  PFa 0 get PFa 2 get 2 div add PFa 1 get PFa 3 get 2 div add translate
  PFa 2 get -2 div PFa 3 get -2 div PFa 2 get PFa 3 get Rec
  TransparentPatterns {} {gsave 1 setgray fill grestore} ifelse
  clip
  currentlinewidth 0.5 mul setlinewidth
  /PFs PFa 2 get dup mul PFa 3 get dup mul add sqrt def
  0 0 M PFa 5 get rotate PFs -2 div dup translate
  0 1 PFs PFa 4 get div 1 add floor cvi
	{PFa 4 get mul 0 M 0 PFs V} for
  0 PFa 6 get ne {
	0 1 PFs PFa 4 get div 1 add floor cvi
	{PFa 4 get mul 0 2 1 roll M PFs 0 V} for
 } if
  stroke grestore} def
%
/languagelevel where
 {pop languagelevel} {1} ifelse
 2 lt
	{/InterpretLevel1 true def}
	{/InterpretLevel1 Level1 def}
 ifelse
%
% PostScript level 2 pattern fill definitions
%
/Level2PatternFill {
/Tile8x8 {/PaintType 2 /PatternType 1 /TilingType 1 /BBox [0 0 8 8] /XStep 8 /YStep 8}
	bind def
/KeepColor {currentrgbcolor [/Pattern /DeviceRGB] setcolorspace} bind def
<< Tile8x8
 /PaintProc {0.5 setlinewidth pop 0 0 M 8 8 L 0 8 M 8 0 L stroke} 
>> matrix makepattern
/Pat1 exch def
<< Tile8x8
 /PaintProc {0.5 setlinewidth pop 0 0 M 8 8 L 0 8 M 8 0 L stroke
	0 4 M 4 8 L 8 4 L 4 0 L 0 4 L stroke}
>> matrix makepattern
/Pat2 exch def
<< Tile8x8
 /PaintProc {0.5 setlinewidth pop 0 0 M 0 8 L
	8 8 L 8 0 L 0 0 L fill}
>> matrix makepattern
/Pat3 exch def
<< Tile8x8
 /PaintProc {0.5 setlinewidth pop -4 8 M 8 -4 L
	0 12 M 12 0 L stroke}
>> matrix makepattern
/Pat4 exch def
<< Tile8x8
 /PaintProc {0.5 setlinewidth pop -4 0 M 8 12 L
	0 -4 M 12 8 L stroke}
>> matrix makepattern
/Pat5 exch def
<< Tile8x8
 /PaintProc {0.5 setlinewidth pop -2 8 M 4 -4 L
	0 12 M 8 -4 L 4 12 M 10 0 L stroke}
>> matrix makepattern
/Pat6 exch def
<< Tile8x8
 /PaintProc {0.5 setlinewidth pop -2 0 M 4 12 L
	0 -4 M 8 12 L 4 -4 M 10 8 L stroke}
>> matrix makepattern
/Pat7 exch def
<< Tile8x8
 /PaintProc {0.5 setlinewidth pop 8 -2 M -4 4 L
	12 0 M -4 8 L 12 4 M 0 10 L stroke}
>> matrix makepattern
/Pat8 exch def
<< Tile8x8
 /PaintProc {0.5 setlinewidth pop 0 -2 M 12 4 L
	-4 0 M 12 8 L -4 4 M 8 10 L stroke}
>> matrix makepattern
/Pat9 exch def
/Pattern1 {PatternBgnd KeepColor Pat1 setpattern} bind def
/Pattern2 {PatternBgnd KeepColor Pat2 setpattern} bind def
/Pattern3 {PatternBgnd KeepColor Pat3 setpattern} bind def
/Pattern4 {PatternBgnd KeepColor Landscape {Pat5} {Pat4} ifelse setpattern} bind def
/Pattern5 {PatternBgnd KeepColor Landscape {Pat4} {Pat5} ifelse setpattern} bind def
/Pattern6 {PatternBgnd KeepColor Landscape {Pat9} {Pat6} ifelse setpattern} bind def
/Pattern7 {PatternBgnd KeepColor Landscape {Pat8} {Pat7} ifelse setpattern} bind def
} def
%
%
%End of PostScript Level 2 code
%
/PatternBgnd {
  TransparentPatterns {} {gsave 1 setgray fill grestore} ifelse
} def
%
% Substitute for Level 2 pattern fill codes with
% grayscale if Level 2 support is not selected.
%
/Level1PatternFill {
/Pattern1 {0.250 Density} bind def
/Pattern2 {0.500 Density} bind def
/Pattern3 {0.750 Density} bind def
/Pattern4 {0.125 Density} bind def
/Pattern5 {0.375 Density} bind def
/Pattern6 {0.625 Density} bind def
/Pattern7 {0.875 Density} bind def
} def
%
% Now test for support of Level 2 code
%
Level1 {Level1PatternFill} {Level2PatternFill} ifelse
%
/Symbol-Oblique /Symbol findfont [1 0 .167 1 0 0] makefont
dup length dict begin {1 index /FID eq {pop pop} {def} ifelse} forall
currentdict end definefont pop
/MFshow {
   { dup 5 get 3 ge
     { 5 get 3 eq {gsave} {grestore} ifelse }
     {dup dup 0 get findfont exch 1 get scalefont setfont
     [ currentpoint ] exch dup 2 get 0 exch R dup 5 get 2 ne {dup dup 6
     get exch 4 get {Gshow} {stringwidth pop 0 R} ifelse }if dup 5 get 0 eq
     {dup 3 get {2 get neg 0 exch R pop} {pop aload pop M} ifelse} {dup 5
     get 1 eq {dup 2 get exch dup 3 get exch 6 get stringwidth pop -2 div
     dup 0 R} {dup 6 get stringwidth pop -2 div 0 R 6 get
     show 2 index {aload pop M neg 3 -1 roll neg R pop pop} {pop pop pop
     pop aload pop M} ifelse }ifelse }ifelse }
     ifelse }
   forall} def
/Gswidth {dup type /stringtype eq {stringwidth} {pop (n) stringwidth} ifelse} def
/MFwidth {0 exch { dup 5 get 3 ge { 5 get 3 eq { 0 } { pop } ifelse }
 {dup 3 get{dup dup 0 get findfont exch 1 get scalefont setfont
     6 get Gswidth pop add} {pop} ifelse} ifelse} forall} def
/MLshow { currentpoint stroke M
  0 exch R
  Blacktext {gsave 0 setgray MFshow grestore} {MFshow} ifelse } bind def
/MRshow { currentpoint stroke M
  exch dup MFwidth neg 3 -1 roll R
  Blacktext {gsave 0 setgray MFshow grestore} {MFshow} ifelse } bind def
/MCshow { currentpoint stroke M
  exch dup MFwidth -2 div 3 -1 roll R
  Blacktext {gsave 0 setgray MFshow grestore} {MFshow} ifelse } bind def
/XYsave    { [( ) 1 2 true false 3 ()] } bind def
/XYrestore { [( ) 1 2 true false 4 ()] } bind def
Level1 SuppressPDFMark or 
{} {
/SDict 10 dict def
systemdict /pdfmark known not {
  userdict /pdfmark systemdict /cleartomark get put
} if
SDict begin [
  /Title (itu-umi-propagation-loss-model.eps)
  /Subject (gnuplot plot)
  /Creator (gnuplot 4.6 patchlevel 4)
  /Author (nicola)
%  /Producer (gnuplot)
%  /Keywords ()
  /CreationDate (Tue May 26 11:12:55 2015)
  /DOCINFO pdfmark
end
} ifelse
end
%%EndProlog
%%Page: 1 1
gnudict begin
gsave
doclip
50 50 translate
0.050 0.050 scale
0 setgray
newpath
(Helvetica) findfont 140 scalefont setfont
BackgroundColor 0 lt 3 1 roll 0 lt exch 0 lt or or not {BackgroundColor C 1.000 0 0 7200.00 5040.00 BoxColFill} if
1.000 UL
LTb
LCb setrgbcolor
1.000 UL
LTb
LCb setrgbcolor
971 1280 M
2896 2658 L
stroke
LTb
LCb setrgbcolor
6229 1863 M
2896 2658 L
stroke
LTb
LCb setrgbcolor
971 1280 M
0 1897 V
stroke
LTa
LCa setrgbcolor
6081 1757 M
2748 2552 L
stroke
LTb
LCb setrgbcolor
6081 1757 M
-85 20 V
stroke
LTb
LCb setrgbcolor
6153 1712 M
[ [(Helvetica) 140.0 0.0 true true 0 ( 20)]
] -46.7 MLshow
1.000 UL
LTb
LCb setrgbcolor
1.000 UL
LTb
LCb setrgbcolor
2748 2552 M
85 -20 V
stroke
LTa
LCa setrgbcolor
5785 1545 M
2452 2341 L
stroke
LTb
LCb setrgbcolor
5785 1545 M
-85 20 V
stroke
LTb
LCb setrgbcolor
5857 1500 M
[ [(Helvetica) 140.0 0.0 true true 0 ( 40)]
] -46.7 MLshow
1.000 UL
LTb
LCb setrgbcolor
1.000 UL
LTb
LCb setrgbcolor
2452 2341 M
84 -20 V
stroke
LTa
LCa setrgbcolor
5489 1332 M
2156 2129 L
stroke
LTb
LCb setrgbcolor
5489 1332 M
-85 21 V
stroke
LTb
LCb setrgbcolor
5561 1287 M
[ [(Helvetica) 140.0 0.0 true true 0 ( 60)]
] -46.7 MLshow
1.000 UL
LTb
LCb setrgbcolor
1.000 UL
LTb
LCb setrgbcolor
2156 2129 M
84 -21 V
stroke
LTa
LCa setrgbcolor
5193 1120 M
1859 1917 L
stroke
LTb
LCb setrgbcolor
5193 1120 M
-85 20 V
stroke
LTb
LCb setrgbcolor
5265 1075 M
[ [(Helvetica) 140.0 0.0 true true 0 ( 80)]
] -46.7 MLshow
1.000 UL
LTb
LCb setrgbcolor
1.000 UL
LTb
LCb setrgbcolor
1859 1917 M
85 -21 V
stroke
LTa
LCa setrgbcolor
4896 908 M
1563 1704 L
stroke
LTb
LCb setrgbcolor
4896 908 M
-84 20 V
stroke
LTb
LCb setrgbcolor
4968 863 M
[ [(Helvetica) 140.0 0.0 true true 0 ( 100)]
] -46.7 MLshow
1.000 UL
LTb
LCb setrgbcolor
1.000 UL
LTb
LCb setrgbcolor
1563 1704 M
85 -20 V
stroke
LTa
LCa setrgbcolor
4600 696 M
1267 1492 L
stroke
LTb
LCb setrgbcolor
4600 696 M
-85 20 V
stroke
LTb
LCb setrgbcolor
4672 651 M
[ [(Helvetica) 140.0 0.0 true true 0 ( 120)]
] -46.7 MLshow
1.000 UL
LTb
LCb setrgbcolor
1.000 UL
LTb
LCb setrgbcolor
1267 1492 M
85 -20 V
stroke
LTa
LCa setrgbcolor
4304 483 M
971 1280 L
stroke
LTb
LCb setrgbcolor
4304 483 M
-85 21 V
stroke
LTb
LCb setrgbcolor
4376 438 M
[ [(Helvetica) 140.0 0.0 true true 0 ( 140)]
] -46.7 MLshow
1.000 UL
LTb
LCb setrgbcolor
1.000 UL
LTb
LCb setrgbcolor
971 1280 M
85 -20 V
stroke
LTa
LCa setrgbcolor
971 1280 M
2896 2658 L
stroke
LTb
LCb setrgbcolor
971 1280 M
31 22 V
stroke
929 1161 M
[ [(Helvetica) 140.0 0.0 true true 0 (-120)]
] -46.7 MCshow
1.000 UL
LTb
LCb setrgbcolor
1.000 UL
LTb
LCb setrgbcolor
2896 2658 M
-32 -22 V
stroke
LTa
LCa setrgbcolor
1341 1191 M
3266 2570 L
stroke
LTb
LCb setrgbcolor
1341 1191 M
32 23 V
stroke
1299 1072 M
[ [(Helvetica) 140.0 0.0 true true 0 (-110)]
] -46.7 MCshow
1.000 UL
LTb
LCb setrgbcolor
1.000 UL
LTb
LCb setrgbcolor
3266 2570 M
-31 -23 V
stroke
LTa
LCa setrgbcolor
1712 1103 M
3636 2482 L
stroke
LTb
LCb setrgbcolor
1712 1103 M
31 22 V
stroke
1670 984 M
[ [(Helvetica) 140.0 0.0 true true 0 (-100)]
] -46.7 MCshow
1.000 UL
LTb
LCb setrgbcolor
1.000 UL
LTb
LCb setrgbcolor
3636 2482 M
-32 -22 V
stroke
LTa
LCa setrgbcolor
2082 1014 M
4006 2394 L
stroke
LTb
LCb setrgbcolor
2082 1014 M
32 23 V
stroke
2040 895 M
[ [(Helvetica) 140.0 0.0 true true 0 (-90)]
] -46.7 MCshow
1.000 UL
LTb
LCb setrgbcolor
1.000 UL
LTb
LCb setrgbcolor
4006 2394 M
-31 -23 V
stroke
LTa
LCa setrgbcolor
2453 926 M
4377 2305 L
stroke
LTb
LCb setrgbcolor
2453 926 M
31 22 V
stroke
2411 807 M
[ [(Helvetica) 140.0 0.0 true true 0 (-80)]
] -46.7 MCshow
1.000 UL
LTb
LCb setrgbcolor
1.000 UL
LTb
LCb setrgbcolor
4377 2305 M
-32 -22 V
stroke
LTa
LCa setrgbcolor
2823 837 M
4747 2217 L
stroke
LTb
LCb setrgbcolor
2823 837 M
32 23 V
stroke
2781 718 M
[ [(Helvetica) 140.0 0.0 true true 0 (-70)]
] -46.7 MCshow
1.000 UL
LTb
LCb setrgbcolor
1.000 UL
LTb
LCb setrgbcolor
4747 2217 M
-31 -23 V
stroke
LTa
LCa setrgbcolor
3194 749 M
5118 2128 L
stroke
LTb
LCb setrgbcolor
3194 749 M
31 22 V
stroke
3152 630 M
[ [(Helvetica) 140.0 0.0 true true 0 (-60)]
] -46.7 MCshow
1.000 UL
LTb
LCb setrgbcolor
1.000 UL
LTb
LCb setrgbcolor
5118 2128 M
-32 -22 V
stroke
LTa
LCa setrgbcolor
3564 660 M
5488 2040 L
stroke
LTb
LCb setrgbcolor
3564 660 M
32 23 V
stroke
3522 541 M
[ [(Helvetica) 140.0 0.0 true true 0 (-50)]
] -46.7 MCshow
1.000 UL
LTb
LCb setrgbcolor
1.000 UL
LTb
LCb setrgbcolor
5488 2040 M
-31 -23 V
stroke
LTa
LCa setrgbcolor
3934 572 M
5859 1951 L
stroke
LTb
LCb setrgbcolor
3934 572 M
31 23 V
stroke
3892 453 M
[ [(Helvetica) 140.0 0.0 true true 0 (-40)]
] -46.7 MCshow
1.000 UL
LTb
LCb setrgbcolor
1.000 UL
LTb
LCb setrgbcolor
5859 1951 M
-32 -22 V
stroke
LTa
LCa setrgbcolor
4304 483 M
6229 1863 L
stroke
LTb
LCb setrgbcolor
4304 483 M
32 23 V
stroke
4262 364 M
[ [(Helvetica) 140.0 0.0 true true 0 (-30)]
] -46.7 MCshow
1.000 UL
LTb
LCb setrgbcolor
1.000 UL
LTb
LCb setrgbcolor
6229 1863 M
-31 -23 V
stroke
LTb
LCb setrgbcolor
971 1280 M
63 0 V
stroke
845 1280 M
[ [(Helvetica) 140.0 0.0 true true 0 ( 0)]
] -46.7 MRshow
1.000 UL
LTb
LCb setrgbcolor
1.000 UL
LTb
LCb setrgbcolor
971 1551 M
63 0 V
stroke
845 1551 M
[ [(Helvetica) 140.0 0.0 true true 0 ( 0.02)]
] -46.7 MRshow
1.000 UL
LTb
LCb setrgbcolor
1.000 UL
LTb
LCb setrgbcolor
971 1822 M
63 0 V
stroke
845 1822 M
[ [(Helvetica) 140.0 0.0 true true 0 ( 0.04)]
] -46.7 MRshow
1.000 UL
LTb
LCb setrgbcolor
1.000 UL
LTb
LCb setrgbcolor
971 2093 M
63 0 V
stroke
845 2093 M
[ [(Helvetica) 140.0 0.0 true true 0 ( 0.06)]
] -46.7 MRshow
1.000 UL
LTb
LCb setrgbcolor
1.000 UL
LTb
LCb setrgbcolor
971 2365 M
63 0 V
stroke
845 2365 M
[ [(Helvetica) 140.0 0.0 true true 0 ( 0.08)]
] -46.7 MRshow
1.000 UL
LTb
LCb setrgbcolor
1.000 UL
LTb
LCb setrgbcolor
971 2635 M
63 0 V
stroke
845 2635 M
[ [(Helvetica) 140.0 0.0 true true 0 ( 0.1)]
] -46.7 MRshow
1.000 UL
LTb
LCb setrgbcolor
1.000 UL
LTb
LCb setrgbcolor
971 2906 M
63 0 V
stroke
845 2906 M
[ [(Helvetica) 140.0 0.0 true true 0 ( 0.12)]
] -46.7 MRshow
1.000 UL
LTb
LCb setrgbcolor
1.000 UL
LTb
LCb setrgbcolor
971 3177 M
63 0 V
stroke
845 3177 M
[ [(Helvetica) 140.0 0.0 true true 0 ( 0.14)]
] -46.7 MRshow
1.000 UL
LTb
LCb setrgbcolor
LCb setrgbcolor
383 3629 M
[ [(Helvetica) 140.0 0.0 true true 0 (Probability)]
] -46.7 MCshow
LTb
3600 4773 M
[ [(Helvetica) 140.0 0.0 true true 0 (ns3::ItuUmiPropagationLossModel \(Default Parameters\))]
] -46.7 MCshow
1.000 UP
% Begin plot #1
LCb setrgbcolor
5662 4416 M
[ [(Helvetica) 140.0 0.0 true true 0 (txPower 18dBm)]
] -46.7 MRshow
0.500 UP
1.000 UL
LT0
LC0 setrgbcolor
5746 4416 M
399 0 V
1008 1271 M
37 -9 V
37 -8 V
37 -7 V
37 -6 V
37 -4 V
37 -1 V
37 9 V
37 25 V
37 41 V
37 82 V
37 89 V
38 136 V
37 161 V
37 171 V
37 162 V
37 114 V
37 63 V
37 -4 V
37 -117 V
37 -118 V
37 -193 V
37 -186 V
37 -190 V
37 -147 V
37 -100 V
37 -92 V
37 -42 V
37 -46 V
37 -25 V
37 -18 V
37 -11 V
37 -11 V
37 -9 V
38 -9 V
37 -9 V
37 -8 V
37 -7 V
37 -7 V
37 -4 V
37 -1 V
37 8 V
37 7 V
37 29 V
37 24 V
37 38 V
37 29 V
37 17 V
37 -10 V
37 -21 V
37 -37 V
37 -53 V
37 -50 V
37 -42 V
37 -40 V
38 -23 V
37 -21 V
37 -17 V
37 -11 V
37 -11 V
37 -10 V
74 -18 V
1193 1368 M
37 -8 V
37 -9 V
37 -8 V
37 -7 V
37 -3 V
37 -1 V
37 8 V
37 19 V
37 32 V
38 75 V
37 105 V
37 112 V
37 143 V
37 171 V
37 178 V
37 119 V
37 83 V
37 -25 V
37 -85 V
37 -125 V
37 -174 V
37 -191 V
37 -175 V
37 -152 V
37 -116 V
37 -83 V
37 -57 V
37 -36 V
37 -30 V
37 -17 V
38 -13 V
37 -11 V
37 -10 V
37 -9 V
37 -8 V
37 -9 V
37 -6 V
37 -7 V
37 -2 V
37 3 V
stroke 2675 1039 M
37 7 V
37 16 V
37 28 V
37 32 V
37 43 V
37 36 V
37 10 V
37 -10 V
37 -26 V
37 -45 V
37 -63 V
37 -51 V
38 -45 V
37 -38 V
37 -26 V
37 -20 V
37 -17 V
37 -12 V
37 -10 V
37 -10 V
37 -9 V
74 -18 V
37 -9 V
36 -9 V
1378 1466 M
37 -9 V
37 -8 V
37 -9 V
37 -6 V
37 -6 V
37 -5 V
38 4 V
37 20 V
37 27 V
37 61 V
37 79 V
37 125 V
37 140 V
37 160 V
37 161 V
37 138 V
37 105 V
37 8 V
37 -95 V
37 -77 V
37 -207 V
37 -169 V
37 -171 V
37 -162 V
37 -112 V
37 -96 V
37 -59 V
38 -45 V
37 -24 V
37 -23 V
37 -16 V
37 -11 V
37 -10 V
37 -9 V
37 -9 V
37 -7 V
37 -7 V
37 -4 V
37 2 V
37 3 V
37 12 V
37 22 V
37 28 V
37 51 V
37 36 V
37 42 V
37 1 V
37 -19 V
37 -20 V
38 -64 V
37 -65 V
37 -56 V
37 -47 V
37 -36 V
37 -27 V
37 -18 V
37 -15 V
37 -13 V
37 -10 V
36 -10 V
37 -9 V
37 -9 V
1637 1546 M
37 -9 V
38 -8 V
37 -7 V
37 -1 V
37 0 V
37 11 V
37 21 V
37 45 V
37 63 V
37 113 V
37 131 V
37 139 V
37 150 V
37 165 V
37 116 V
37 44 V
stroke 2230 2519 M
37 -21 V
37 -123 V
37 -158 V
37 -176 V
37 -168 V
37 -155 V
37 -139 V
38 -99 V
37 -64 V
37 -55 V
37 -29 V
37 -22 V
37 -16 V
37 -11 V
37 -11 V
37 -9 V
37 -9 V
37 -7 V
37 -6 V
37 -4 V
37 -1 V
37 10 V
37 17 V
37 31 V
37 35 V
37 58 V
37 51 V
37 30 V
38 11 V
37 -24 V
37 -43 V
37 -68 V
37 -72 V
37 -57 V
37 -54 V
37 -37 V
36 -23 V
37 -21 V
37 -15 V
37 -13 V
37 -10 V
37 -10 V
37 -9 V
74 -18 V
1823 1643 M
37 -9 V
37 -8 V
37 -8 V
37 -4 V
37 -4 V
37 5 V
37 13 V
37 28 V
37 53 V
37 88 V
37 103 V
37 153 V
37 143 V
37 158 V
37 122 V
37 66 V
37 37 V
37 -80 V
37 -131 V
37 -168 V
38 -163 V
37 -172 V
37 -132 V
37 -109 V
37 -88 V
37 -59 V
37 -39 V
37 -24 V
37 -20 V
37 -14 V
37 -10 V
37 -9 V
37 -10 V
37 -6 V
37 -6 V
37 -4 V
37 0 V
37 13 V
37 27 V
37 29 V
37 66 V
37 45 V
38 46 V
37 60 V
37 -4 V
37 -18 V
37 -64 V
36 -73 V
37 -74 V
37 -68 V
37 -48 V
37 -51 V
37 -25 V
37 -19 V
37 -15 V
37 -12 V
37 -10 V
37 -10 V
37 -9 V
stroke 4007 1121 M
37 -9 V
74 -18 V
2045 1731 M
37 -9 V
37 -8 V
37 -5 V
37 -6 V
37 1 V
37 3 V
37 21 V
37 29 V
37 64 V
37 77 V
37 132 V
37 122 V
37 170 V
37 124 V
37 108 V
37 62 V
37 0 V
38 -106 V
37 -150 V
37 -141 V
37 -174 V
37 -155 V
37 -121 V
37 -105 V
37 -67 V
37 -49 V
37 -26 V
37 -26 V
37 -15 V
37 -13 V
37 -10 V
37 -9 V
37 -8 V
37 -4 V
37 -3 V
37 2 V
37 17 V
37 24 V
38 46 V
37 55 V
37 61 V
36 70 V
37 58 V
37 -6 V
37 -7 V
37 -64 V
37 -73 V
37 -107 V
37 -76 V
37 -59 V
37 -48 V
37 -34 V
37 -16 V
37 -15 V
37 -14 V
37 -12 V
37 -9 V
37 -9 V
37 -9 V
38 -9 V
111 -27 V
2267 1819 M
37 -8 V
37 -8 V
37 -8 V
37 -3 V
37 -4 V
37 11 V
37 11 V
37 36 V
37 58 V
37 94 V
37 100 V
37 125 V
37 146 V
38 140 V
37 110 V
37 37 V
37 -41 V
37 -74 V
37 -122 V
37 -180 V
37 -154 V
37 -143 V
37 -129 V
37 -74 V
37 -63 V
37 -43 V
37 -31 V
37 -19 V
37 -15 V
37 -11 V
37 -10 V
37 -8 V
37 -5 V
37 -3 V
38 6 V
36 17 V
37 19 V
37 54 V
37 74 V
stroke 3711 1701 M
37 81 V
37 90 V
37 51 V
37 22 V
37 -37 V
37 -65 V
37 -80 V
37 -104 V
37 -99 V
37 -67 V
37 -51 V
37 -39 V
37 -26 V
37 -19 V
37 -13 V
37 -11 V
37 -10 V
75 -18 V
2452 1917 M
74 -18 V
37 -8 V
37 -7 V
37 -7 V
37 1 V
37 1 V
37 13 V
37 28 V
37 45 V
38 73 V
37 110 V
37 114 V
37 134 V
37 118 V
37 104 V
37 54 V
37 5 V
37 -102 V
37 -121 V
37 -147 V
37 -156 V
37 -130 V
37 -120 V
37 -79 V
37 -63 V
37 -42 V
37 -28 V
37 -19 V
37 -13 V
37 -11 V
36 -10 V
38 -5 V
37 0 V
37 3 V
37 16 V
37 27 V
37 43 V
37 88 V
37 81 V
37 110 V
37 97 V
37 32 V
37 -9 V
37 -77 V
37 -101 V
37 -115 V
37 -116 V
37 -92 V
37 -61 V
37 -46 V
37 -27 V
37 -24 V
38 -15 V
37 -13 V
37 -10 V
37 -9 V
37 -10 V
37 -9 V
2711 1996 M
37 -9 V
37 -8 V
37 -8 V
37 -8 V
37 -5 V
37 0 V
38 6 V
37 16 V
37 31 V
37 46 V
37 81 V
37 112 V
37 113 V
37 115 V
37 95 V
37 83 V
37 23 V
37 -61 V
37 -99 V
37 -123 V
37 -152 V
37 -126 V
37 -114 V
37 -87 V
36 -59 V
37 -47 V
stroke 3673 1811 M
37 -26 V
38 -23 V
37 -14 V
37 -13 V
37 -8 V
37 -3 V
37 2 V
37 10 V
37 29 V
37 57 V
37 83 V
37 107 V
37 109 V
37 121 V
37 87 V
37 9 V
37 -48 V
37 -113 V
37 -120 V
37 -162 V
37 -114 V
37 -85 V
38 -69 V
37 -43 V
37 -19 V
37 -19 V
37 -15 V
37 -11 V
37 -10 V
37 -9 V
37 -9 V
37 -9 V
3007 2067 M
38 -8 V
37 -8 V
37 -8 V
37 -5 V
37 -3 V
37 7 V
37 11 V
37 20 V
37 48 V
37 71 V
37 78 V
37 95 V
37 104 V
37 98 V
37 35 V
37 27 V
36 -56 V
37 -84 V
37 -119 V
37 -109 V
37 -131 V
38 -91 V
37 -68 V
37 -57 V
37 -32 V
37 -24 V
37 -18 V
37 -15 V
37 -7 V
37 -2 V
37 7 V
37 21 V
37 33 V
37 75 V
37 110 V
37 151 V
37 140 V
37 132 V
37 104 V
37 -19 V
37 -71 V
37 -124 V
37 -178 V
38 -166 V
37 -149 V
37 -100 V
37 -68 V
37 -37 V
37 -27 V
37 -18 V
37 -13 V
37 -11 V
37 -9 V
37 -10 V
3081 2191 M
223 -53 V
37 -9 V
37 -7 V
37 -8 V
37 -6 V
37 1 V
37 -2 V
37 11 V
37 23 V
36 38 V
37 48 V
37 76 V
37 79 V
37 80 V
37 69 V
37 21 V
stroke 3858 2552 M
37 -23 V
38 -36 V
37 -99 V
37 -90 V
37 -117 V
37 -74 V
37 -72 V
37 -42 V
37 -37 V
37 -22 V
37 -18 V
37 -11 V
37 -6 V
37 4 V
37 24 V
37 37 V
37 91 V
37 125 V
37 176 V
37 193 V
37 183 V
37 115 V
38 11 V
37 -70 V
37 -191 V
37 -192 V
37 -202 V
37 -175 V
37 -130 V
37 -80 V
37 -49 V
37 -34 V
37 -19 V
37 -13 V
37 -11 V
74 -21 V
3600 2208 M
36 -8 V
37 -9 V
37 -8 V
37 -8 V
37 -7 V
37 -4 V
37 0 V
37 3 V
37 17 V
37 21 V
38 37 V
37 46 V
37 56 V
37 28 V
37 42 V
37 3 V
37 -30 V
37 -40 V
37 -74 V
37 -71 V
37 -59 V
37 -49 V
37 -37 V
37 -30 V
37 -22 V
37 -12 V
37 -7 V
37 10 V
37 29 V
37 63 V
37 125 V
37 150 V
38 262 V
37 243 V
37 206 V
37 159 V
37 -19 V
37 -146 V
37 -233 V
37 -257 V
37 -264 V
37 -202 V
37 -126 V
37 -91 V
37 -47 V
37 -32 V
37 -15 V
37 -14 V
37 -11 V
37 -10 V
37 -9 V
186 -44 V
4006 2252 M
75 -17 V
37 -9 V
37 -9 V
37 -8 V
37 -7 V
37 -6 V
37 -9 V
37 -1 V
37 -3 V
37 4 V
37 -1 V
37 3 V
37 -2 V
37 1 V
stroke 4562 2188 M
37 -16 V
37 -10 V
37 -21 V
37 -20 V
37 -20 V
37 -19 V
37 -10 V
37 -10 V
38 -3 V
37 10 V
37 43 V
37 77 V
37 162 V
37 216 V
37 308 V
37 346 V
37 319 V
37 114 V
37 -30 V
37 -163 V
37 -336 V
37 -363 V
37 -310 V
37 -243 V
37 -150 V
37 -97 V
37 -49 V
37 -30 V
37 -16 V
38 -11 V
37 -10 V
37 -9 V
37 -9 V
-704 309 R
111 -25 V
37 -8 V
37 -5 V
37 7 V
37 27 V
37 57 V
37 118 V
37 185 V
37 282 V
37 332 V
37 359 V
37 223 V
37 122 V
37 -127 V
37 -249 V
37 -353 V
38 -368 V
37 -299 V
37 -215 V
37 -128 V
37 -83 V
37 -44 V
37 -23 V
37 -12 V
37 -11 V
37 -9 V
37 -9 V
5945 4416 Star
1008 1271 Star
1045 1262 Star
1082 1254 Star
1119 1247 Star
1156 1241 Star
1193 1237 Star
1230 1236 Star
1267 1245 Star
1304 1270 Star
1341 1311 Star
1378 1393 Star
1415 1482 Star
1453 1618 Star
1490 1779 Star
1527 1950 Star
1564 2112 Star
1601 2226 Star
1638 2289 Star
1675 2285 Star
1712 2168 Star
1749 2050 Star
1786 1857 Star
1823 1671 Star
1860 1481 Star
1897 1334 Star
1934 1234 Star
1971 1142 Star
2008 1100 Star
2045 1054 Star
2082 1029 Star
2119 1011 Star
2156 1000 Star
2193 989 Star
2230 980 Star
2268 971 Star
2305 962 Star
2342 954 Star
2379 947 Star
2416 940 Star
2453 936 Star
2490 935 Star
2527 943 Star
2564 950 Star
2601 979 Star
2638 1003 Star
2675 1041 Star
2712 1070 Star
2749 1087 Star
2786 1077 Star
2823 1056 Star
2860 1019 Star
2897 966 Star
2934 916 Star
2971 874 Star
3008 834 Star
3046 811 Star
3083 790 Star
3120 773 Star
3157 762 Star
3194 751 Star
3231 741 Star
3305 723 Star
1193 1368 Star
1230 1360 Star
1267 1351 Star
1304 1343 Star
1341 1336 Star
1378 1333 Star
1415 1332 Star
1452 1340 Star
1489 1359 Star
1526 1391 Star
1564 1466 Star
1601 1571 Star
1638 1683 Star
1675 1826 Star
1712 1997 Star
1749 2175 Star
1786 2294 Star
1823 2377 Star
1860 2352 Star
1897 2267 Star
1934 2142 Star
1971 1968 Star
2008 1777 Star
2045 1602 Star
2082 1450 Star
2119 1334 Star
2156 1251 Star
2193 1194 Star
2230 1158 Star
2267 1128 Star
2304 1111 Star
2342 1098 Star
2379 1087 Star
2416 1077 Star
2453 1068 Star
2490 1060 Star
2527 1051 Star
2564 1045 Star
2601 1038 Star
2638 1036 Star
2675 1039 Star
2712 1046 Star
2749 1062 Star
2786 1090 Star
2823 1122 Star
2860 1165 Star
2897 1201 Star
2934 1211 Star
2971 1201 Star
3008 1175 Star
3045 1130 Star
3082 1067 Star
3119 1016 Star
3157 971 Star
3194 933 Star
3231 907 Star
3268 887 Star
3305 870 Star
3342 858 Star
3379 848 Star
3416 838 Star
3453 829 Star
3527 811 Star
3564 802 Star
3600 793 Star
1378 1466 Star
1415 1457 Star
1452 1449 Star
1489 1440 Star
1526 1434 Star
1563 1428 Star
1600 1423 Star
1638 1427 Star
1675 1447 Star
1712 1474 Star
1749 1535 Star
1786 1614 Star
1823 1739 Star
1860 1879 Star
1897 2039 Star
1934 2200 Star
1971 2338 Star
2008 2443 Star
2045 2451 Star
2082 2356 Star
2119 2279 Star
2156 2072 Star
2193 1903 Star
2230 1732 Star
2267 1570 Star
2304 1458 Star
2341 1362 Star
2378 1303 Star
2416 1258 Star
2453 1234 Star
2490 1211 Star
2527 1195 Star
2564 1184 Star
2601 1174 Star
2638 1165 Star
2675 1156 Star
2712 1149 Star
2749 1142 Star
2786 1138 Star
2823 1140 Star
2860 1143 Star
2897 1155 Star
2934 1177 Star
2971 1205 Star
3008 1256 Star
3045 1292 Star
3082 1334 Star
3119 1335 Star
3156 1316 Star
3193 1296 Star
3231 1232 Star
3268 1167 Star
3305 1111 Star
3342 1064 Star
3379 1028 Star
3416 1001 Star
3453 983 Star
3490 968 Star
3527 955 Star
3564 945 Star
3600 935 Star
3637 926 Star
3674 917 Star
1637 1546 Star
1674 1537 Star
1712 1529 Star
1749 1522 Star
1786 1521 Star
1823 1521 Star
1860 1532 Star
1897 1553 Star
1934 1598 Star
1971 1661 Star
2008 1774 Star
2045 1905 Star
2082 2044 Star
2119 2194 Star
2156 2359 Star
2193 2475 Star
2230 2519 Star
2267 2498 Star
2304 2375 Star
2341 2217 Star
2378 2041 Star
2415 1873 Star
2452 1718 Star
2489 1579 Star
2527 1480 Star
2564 1416 Star
2601 1361 Star
2638 1332 Star
2675 1310 Star
2712 1294 Star
2749 1283 Star
2786 1272 Star
2823 1263 Star
2860 1254 Star
2897 1247 Star
2934 1241 Star
2971 1237 Star
3008 1236 Star
3045 1246 Star
3082 1263 Star
3119 1294 Star
3156 1329 Star
3193 1387 Star
3230 1438 Star
3267 1468 Star
3305 1479 Star
3342 1455 Star
3379 1412 Star
3416 1344 Star
3453 1272 Star
3490 1215 Star
3527 1161 Star
3564 1124 Star
3600 1101 Star
3637 1080 Star
3674 1065 Star
3711 1052 Star
3748 1042 Star
3785 1032 Star
3822 1023 Star
3896 1005 Star
1823 1643 Star
1860 1634 Star
1897 1626 Star
1934 1618 Star
1971 1614 Star
2008 1610 Star
2045 1615 Star
2082 1628 Star
2119 1656 Star
2156 1709 Star
2193 1797 Star
2230 1900 Star
2267 2053 Star
2304 2196 Star
2341 2354 Star
2378 2476 Star
2415 2542 Star
2452 2579 Star
2489 2499 Star
2526 2368 Star
2563 2200 Star
2601 2037 Star
2638 1865 Star
2675 1733 Star
2712 1624 Star
2749 1536 Star
2786 1477 Star
2823 1438 Star
2860 1414 Star
2897 1394 Star
2934 1380 Star
2971 1370 Star
3008 1361 Star
3045 1351 Star
3082 1345 Star
3119 1339 Star
3156 1335 Star
3193 1335 Star
3230 1348 Star
3267 1375 Star
3304 1404 Star
3341 1470 Star
3378 1515 Star
3416 1561 Star
3453 1621 Star
3490 1617 Star
3527 1599 Star
3564 1535 Star
3600 1462 Star
3637 1388 Star
3674 1320 Star
3711 1272 Star
3748 1221 Star
3785 1196 Star
3822 1177 Star
3859 1162 Star
3896 1150 Star
3933 1140 Star
3970 1130 Star
4007 1121 Star
4044 1112 Star
4118 1094 Star
2045 1731 Star
2082 1722 Star
2119 1714 Star
2156 1709 Star
2193 1703 Star
2230 1704 Star
2267 1707 Star
2304 1728 Star
2341 1757 Star
2378 1821 Star
2415 1898 Star
2452 2030 Star
2489 2152 Star
2526 2322 Star
2563 2446 Star
2600 2554 Star
2637 2616 Star
2674 2616 Star
2712 2510 Star
2749 2360 Star
2786 2219 Star
2823 2045 Star
2860 1890 Star
2897 1769 Star
2934 1664 Star
2971 1597 Star
3008 1548 Star
3045 1522 Star
3082 1496 Star
3119 1481 Star
3156 1468 Star
3193 1458 Star
3230 1449 Star
3267 1441 Star
3304 1437 Star
3341 1434 Star
3378 1436 Star
3415 1453 Star
3452 1477 Star
3490 1523 Star
3527 1578 Star
3564 1639 Star
3600 1709 Star
3637 1767 Star
3674 1761 Star
3711 1754 Star
3748 1690 Star
3785 1617 Star
3822 1510 Star
3859 1434 Star
3896 1375 Star
3933 1327 Star
3970 1293 Star
4007 1277 Star
4044 1262 Star
4081 1248 Star
4118 1236 Star
4155 1227 Star
4192 1218 Star
4229 1209 Star
4267 1200 Star
4378 1173 Star
2267 1819 Star
2304 1811 Star
2341 1803 Star
2378 1795 Star
2415 1792 Star
2452 1788 Star
2489 1799 Star
2526 1810 Star
2563 1846 Star
2600 1904 Star
2637 1998 Star
2674 2098 Star
2711 2223 Star
2748 2369 Star
2786 2509 Star
2823 2619 Star
2860 2656 Star
2897 2615 Star
2934 2541 Star
2971 2419 Star
3008 2239 Star
3045 2085 Star
3082 1942 Star
3119 1813 Star
3156 1739 Star
3193 1676 Star
3230 1633 Star
3267 1602 Star
3304 1583 Star
3341 1568 Star
3378 1557 Star
3415 1547 Star
3452 1539 Star
3489 1534 Star
3526 1531 Star
3564 1537 Star
3600 1554 Star
3637 1573 Star
3674 1627 Star
3711 1701 Star
3748 1782 Star
3785 1872 Star
3822 1923 Star
3859 1945 Star
3896 1908 Star
3933 1843 Star
3970 1763 Star
4007 1659 Star
4044 1560 Star
4081 1493 Star
4118 1442 Star
4155 1403 Star
4192 1377 Star
4229 1358 Star
4266 1345 Star
4303 1334 Star
4340 1324 Star
4415 1306 Star
2452 1917 Star
2526 1899 Star
2563 1891 Star
2600 1884 Star
2637 1877 Star
2674 1878 Star
2711 1879 Star
2748 1892 Star
2785 1920 Star
2822 1965 Star
2860 2038 Star
2897 2148 Star
2934 2262 Star
2971 2396 Star
3008 2514 Star
3045 2618 Star
3082 2672 Star
3119 2677 Star
3156 2575 Star
3193 2454 Star
3230 2307 Star
3267 2151 Star
3304 2021 Star
3341 1901 Star
3378 1822 Star
3415 1759 Star
3452 1717 Star
3489 1689 Star
3526 1670 Star
3563 1657 Star
3600 1646 Star
3636 1636 Star
3674 1631 Star
3711 1631 Star
3748 1634 Star
3785 1650 Star
3822 1677 Star
3859 1720 Star
3896 1808 Star
3933 1889 Star
3970 1999 Star
4007 2096 Star
4044 2128 Star
4081 2119 Star
4118 2042 Star
4155 1941 Star
4192 1826 Star
4229 1710 Star
4266 1618 Star
4303 1557 Star
4340 1511 Star
4377 1484 Star
4414 1460 Star
4452 1445 Star
4489 1432 Star
4526 1422 Star
4563 1413 Star
4600 1403 Star
4637 1394 Star
2711 1996 Star
2748 1987 Star
2785 1979 Star
2822 1971 Star
2859 1963 Star
2896 1958 Star
2933 1958 Star
2971 1964 Star
3008 1980 Star
3045 2011 Star
3082 2057 Star
3119 2138 Star
3156 2250 Star
3193 2363 Star
3230 2478 Star
3267 2573 Star
3304 2656 Star
3341 2679 Star
3378 2618 Star
3415 2519 Star
3452 2396 Star
3489 2244 Star
3526 2118 Star
3563 2004 Star
3600 1917 Star
3636 1858 Star
3673 1811 Star
3710 1785 Star
3748 1762 Star
3785 1748 Star
3822 1735 Star
3859 1727 Star
3896 1724 Star
3933 1726 Star
3970 1736 Star
4007 1765 Star
4044 1822 Star
4081 1905 Star
4118 2012 Star
4155 2121 Star
4192 2242 Star
4229 2329 Star
4266 2338 Star
4303 2290 Star
4340 2177 Star
4377 2057 Star
4414 1895 Star
4451 1781 Star
4488 1696 Star
4526 1627 Star
4563 1584 Star
4600 1565 Star
4637 1546 Star
4674 1531 Star
4711 1520 Star
4748 1510 Star
4785 1501 Star
4822 1492 Star
4859 1483 Star
3007 2067 Star
3045 2059 Star
3082 2051 Star
3119 2043 Star
3156 2038 Star
3193 2035 Star
3230 2042 Star
3267 2053 Star
3304 2073 Star
3341 2121 Star
3378 2192 Star
3415 2270 Star
3452 2365 Star
3489 2469 Star
3526 2567 Star
3563 2602 Star
3600 2629 Star
3636 2573 Star
3673 2489 Star
3710 2370 Star
3747 2261 Star
3784 2130 Star
3822 2039 Star
3859 1971 Star
3896 1914 Star
3933 1882 Star
3970 1858 Star
4007 1840 Star
4044 1825 Star
4081 1818 Star
4118 1816 Star
4155 1823 Star
4192 1844 Star
4229 1877 Star
4266 1952 Star
4303 2062 Star
4340 2213 Star
4377 2353 Star
4414 2485 Star
4451 2589 Star
4488 2570 Star
4525 2499 Star
4562 2375 Star
4599 2197 Star
4637 2031 Star
4674 1882 Star
4711 1782 Star
4748 1714 Star
4785 1677 Star
4822 1650 Star
4859 1632 Star
4896 1619 Star
4933 1608 Star
4970 1599 Star
5007 1589 Star
3081 2191 Star
3304 2138 Star
3341 2129 Star
3378 2122 Star
3415 2114 Star
3452 2108 Star
3489 2109 Star
3526 2107 Star
3563 2118 Star
3600 2141 Star
3636 2179 Star
3673 2227 Star
3710 2303 Star
3747 2382 Star
3784 2462 Star
3821 2531 Star
3858 2552 Star
3895 2529 Star
3933 2493 Star
3970 2394 Star
4007 2304 Star
4044 2187 Star
4081 2113 Star
4118 2041 Star
4155 1999 Star
4192 1962 Star
4229 1940 Star
4266 1922 Star
4303 1911 Star
4340 1905 Star
4377 1909 Star
4414 1933 Star
4451 1970 Star
4488 2061 Star
4525 2186 Star
4562 2362 Star
4599 2555 Star
4636 2738 Star
4673 2853 Star
4711 2864 Star
4748 2794 Star
4785 2603 Star
4822 2411 Star
4859 2209 Star
4896 2034 Star
4933 1904 Star
4970 1824 Star
5007 1775 Star
5044 1741 Star
5081 1722 Star
5118 1709 Star
5155 1698 Star
5229 1677 Star
3600 2208 Star
3636 2200 Star
3673 2191 Star
3710 2183 Star
3747 2175 Star
3784 2168 Star
3821 2164 Star
3858 2164 Star
3895 2167 Star
3932 2184 Star
3969 2205 Star
4007 2242 Star
4044 2288 Star
4081 2344 Star
4118 2372 Star
4155 2414 Star
4192 2417 Star
4229 2387 Star
4266 2347 Star
4303 2273 Star
4340 2202 Star
4377 2143 Star
4414 2094 Star
4451 2057 Star
4488 2027 Star
4525 2005 Star
4562 1993 Star
4599 1986 Star
4636 1996 Star
4673 2025 Star
4710 2088 Star
4747 2213 Star
4784 2363 Star
4822 2625 Star
4859 2868 Star
4896 3074 Star
4933 3233 Star
4970 3214 Star
5007 3068 Star
5044 2835 Star
5081 2578 Star
5118 2314 Star
5155 2112 Star
5192 1986 Star
5229 1895 Star
5266 1848 Star
5303 1816 Star
5340 1801 Star
5377 1787 Star
5414 1776 Star
5451 1766 Star
5488 1757 Star
5674 1713 Star
4006 2252 Star
4081 2235 Star
4118 2226 Star
4155 2217 Star
4192 2209 Star
4229 2202 Star
4266 2196 Star
4303 2187 Star
4340 2186 Star
4377 2183 Star
4414 2187 Star
4451 2186 Star
4488 2189 Star
4525 2187 Star
4562 2188 Star
4599 2172 Star
4636 2162 Star
4673 2141 Star
4710 2121 Star
4747 2101 Star
4784 2082 Star
4821 2072 Star
4858 2062 Star
4896 2059 Star
4933 2069 Star
4970 2112 Star
5007 2189 Star
5044 2351 Star
5081 2567 Star
5118 2875 Star
5155 3221 Star
5192 3540 Star
5229 3654 Star
5266 3624 Star
5303 3461 Star
5340 3125 Star
5377 2762 Star
5414 2452 Star
5451 2209 Star
5488 2059 Star
5525 1962 Star
5562 1913 Star
5599 1883 Star
5636 1867 Star
5674 1856 Star
5711 1846 Star
5748 1837 Star
5785 1828 Star
5081 2137 Star
5192 2112 Star
5229 2104 Star
5266 2099 Star
5303 2106 Star
5340 2133 Star
5377 2190 Star
5414 2308 Star
5451 2493 Star
5488 2775 Star
5525 3107 Star
5562 3466 Star
5599 3689 Star
5636 3811 Star
5673 3684 Star
5710 3435 Star
5747 3082 Star
5785 2714 Star
5822 2415 Star
5859 2200 Star
5896 2072 Star
5933 1989 Star
5970 1945 Star
6007 1922 Star
6044 1910 Star
6081 1899 Star
6118 1890 Star
6155 1881 Star
% End plot #1
1.000 UL
LTb
LCb setrgbcolor
6229 1863 M
4304 483 L
stroke
LTb
LCb setrgbcolor
971 1280 M
4304 483 L
stroke
LCb setrgbcolor
6100 974 M
[ [(Helvetica) 140.0 0.0 true true 0 (Distance)]
] -46.7 MCshow
LTb
LCb setrgbcolor
2157 537 M
[ [(Helvetica) 140.0 0.0 true true 0 (rxPower \(dBm\))]
] -46.7 MCshow
LTb
LCb setrgbcolor
383 3629 M
[ [(Helvetica) 140.0 0.0 true true 0 (Probability)]
] -46.7 MCshow
LTb
1.000 UP
stroke
grestore
end
showpage
%%Trailer
%%DocumentFonts: Helvetica
