%!PS-Adobe-3.0 EPSF-3.0
%%Creator: cairo 1.14.6 (http://cairographics.org)
%%CreationDate: Thu Dec  1 18:20:46 2016
%%Pages: 1
%%DocumentData: Clean7Bit
%%LanguageLevel: 2
%%BoundingBox: 0 0 681 214
%%EndComments
%%BeginProlog
save
50 dict begin
/q { gsave } bind def
/Q { grestore } bind def
/cm { 6 array astore concat } bind def
/w { setlinewidth } bind def
/J { setlinecap } bind def
/j { setlinejoin } bind def
/M { setmiterlimit } bind def
/d { setdash } bind def
/m { moveto } bind def
/l { lineto } bind def
/c { curveto } bind def
/h { closepath } bind def
/re { exch dup neg 3 1 roll 5 3 roll moveto 0 rlineto
      0 exch rlineto 0 rlineto closepath } bind def
/S { stroke } bind def
/f { fill } bind def
/f* { eofill } bind def
/n { newpath } bind def
/W { clip } bind def
/W* { eoclip } bind def
/BT { } bind def
/ET { } bind def
/pdfmark where { pop globaldict /?pdfmark /exec load put }
    { globaldict begin /?pdfmark /pop load def /pdfmark
    /cleartomark load def end } ifelse
/BDC { mark 3 1 roll /BDC pdfmark } bind def
/EMC { mark /EMC pdfmark } bind def
/cairo_store_point { /cairo_point_y exch def /cairo_point_x exch def } def
/Tj { show currentpoint cairo_store_point } bind def
/TJ {
  {
    dup
    type /stringtype eq
    { show } { -0.001 mul 0 cairo_font_matrix dtransform rmoveto } ifelse
  } forall
  currentpoint cairo_store_point
} bind def
/cairo_selectfont { cairo_font_matrix aload pop pop pop 0 0 6 array astore
    cairo_font exch selectfont cairo_point_x cairo_point_y moveto } bind def
/Tf { pop /cairo_font exch def /cairo_font_matrix where
      { pop cairo_selectfont } if } bind def
/Td { matrix translate cairo_font_matrix matrix concatmatrix dup
      /cairo_font_matrix exch def dup 4 get exch 5 get cairo_store_point
      /cairo_font where { pop cairo_selectfont } if } bind def
/Tm { 2 copy 8 2 roll 6 array astore /cairo_font_matrix exch def
      cairo_store_point /cairo_font where { pop cairo_selectfont } if } bind def
/g { setgray } bind def
/rg { setrgbcolor } bind def
/d1 { setcachedevice } bind def
%%EndProlog
%%BeginSetup
%%EndSetup
%%Page: 1 1
%%BeginPageSetup
%%PageBoundingBox: 0 0 681 214
%%EndPageSetup
q 0 0 681 214 rectclip q
0.00392157 0.8 0.6 rg
0.027 213.91 113.332 -38.84 re f*
113.359 213.91 113.504 -38.84 re f*
1 g
134.219 182.602 m 131.129 182.602 l 129.457 189.762 l 129.398 189.988 129.344
 190.242 129.285 190.527 c 129.23 190.84 129.176 191.121 129.117 191.402
 c 129.062 191.742 129.004 192.055 128.945 192.422 c 128.891 192.055 128.805
 191.715 128.746 191.402 c 128.719 191.262 128.691 191.121 128.664 190.949
 c 128.637 190.809 128.605 190.668 128.578 190.527 c 128.551 190.387 128.492
 190.242 128.492 190.102 c 128.465 189.988 128.438 189.875 128.41 189.762
 c 126.734 182.602 l 123.648 182.602 l 120.473 195 l 123.078 195 l 124.641
 188.094 l 124.723 187.723 124.809 187.355 124.895 186.988 c 124.949 186.621
 125.035 186.309 125.094 185.996 c 125.18 185.684 125.234 185.348 125.289
 185.062 c 125.375 185.488 125.461 185.91 125.547 186.309 c 125.574 186.508
 125.602 186.676 125.66 186.875 c 125.688 187.043 125.746 187.242 125.773
 187.41 c 125.801 187.609 125.859 187.781 125.887 187.949 c 125.914 188.121
 125.973 188.262 126 188.402 c 127.531 195 l 130.422 195 l 131.98 188.402
 l 132.008 188.262 132.062 188.094 132.094 187.922 c 132.121 187.754 132.148
 187.582 132.207 187.383 c 132.234 187.215 132.262 187.016 132.289 186.848
 c 132.348 186.648 132.375 186.477 132.402 186.281 c 132.461 185.883 132.547
 185.461 132.602 185.062 c 132.688 185.375 132.746 185.715 132.828 186.082
 c 132.887 186.363 132.973 186.703 133.055 187.043 c 133.141 187.41 133.199
 187.754 133.281 188.094 c 134.785 195 l 137.422 195 l 134.219 182.602 l
 f*
138.496 193.84 m 138.496 195.648 l 140.965 195.648 l 140.965 193.84 l h
138.496 182.602 m 138.496 192.113 l 140.965 192.113 l 140.965 182.602 l
 138.496 182.602 l f*
146.062 192.961 m 146.062 189.141 l 152.414 189.141 l 152.414 187.129 l
 146.062 187.129 l 146.062 182.57 l 143.457 182.57 l 143.457 194.973 l 152.609
 194.973 l 152.609 192.961 l 146.062 192.961 l f*
154.566 193.84 m 154.566 195.648 l 157.031 195.648 l 157.031 193.84 l h
154.566 182.602 m 154.566 192.113 l 157.031 192.113 l 157.031 182.602 l
 154.566 182.602 l f*
159.07 188.348 4.566 -2.152 re f*
178.117 182.602 m 175.027 182.602 l 173.355 189.762 l 173.301 189.988 173.242
 190.242 173.188 190.527 c 173.129 190.84 173.07 191.121 173.016 191.402
 c 172.961 191.742 172.902 192.055 172.848 192.422 c 172.789 192.055 172.703
 191.715 172.648 191.402 c 172.617 191.262 172.59 191.121 172.562 190.949
 c 172.535 190.809 172.504 190.668 172.477 190.527 c 172.449 190.387 172.391
 190.242 172.391 190.102 c 172.363 189.988 172.336 189.875 172.309 189.762
 c 170.637 182.602 l 167.547 182.602 l 164.371 195 l 166.98 195 l 168.539
 188.094 l 168.621 187.723 168.707 187.355 168.793 186.988 c 168.852 186.621
 168.934 186.309 168.992 185.996 c 169.078 185.684 169.133 185.348 169.191
 185.062 c 169.273 185.488 169.359 185.91 169.445 186.309 c 169.473 186.508
 169.504 186.676 169.559 186.875 c 169.586 187.043 169.645 187.242 169.672
 187.41 c 169.699 187.609 169.758 187.781 169.785 187.949 c 169.812 188.121
 169.871 188.262 169.898 188.402 c 171.43 195 l 174.32 195 l 175.879 188.402
 l 175.906 188.262 175.965 188.094 175.992 187.922 c 176.02 187.754 176.047
 187.582 176.105 187.383 c 176.133 187.215 176.16 187.016 176.191 186.848
 c 176.246 186.648 176.273 186.477 176.305 186.281 c 176.359 185.883 176.445
 185.461 176.504 185.062 c 176.586 185.375 176.645 185.715 176.727 186.082
 c 176.785 186.363 176.871 186.703 176.953 187.043 c 177.039 187.41 177.098
 187.754 177.184 188.094 c 178.684 195 l 181.32 195 l 178.117 182.602 l f*
182.395 193.84 m 182.395 195.648 l 184.863 195.648 l 184.863 193.84 l h
182.395 182.602 m 182.395 192.113 l 184.863 192.113 l 184.863 182.602 l
 182.395 182.602 l f*
189.992 192.961 m 189.992 189.141 l 196.34 189.141 l 196.34 187.129 l 189.992
 187.129 l 189.992 182.57 l 187.383 182.57 l 187.383 194.973 l 196.539 194.973
 l 196.539 192.961 l 189.992 192.961 l f*
198.465 193.84 m 198.465 195.648 l 200.93 195.648 l 200.93 193.84 l h
198.465 182.602 m 198.465 192.113 l 200.93 192.113 l 200.93 182.602 l 198.465
 182.602 l f*
0.00392157 0.8 0.6 rg
226.863 213.91 226.945 -38.84 re f*
1 g
312.191 182.602 m 309.105 182.602 l 307.434 189.762 l 307.375 189.988 307.32
 190.242 307.262 190.527 c 307.203 190.84 307.148 191.121 307.094 191.402
 c 307.035 191.742 306.98 192.055 306.922 192.422 c 306.867 192.055 306.781
 191.715 306.723 191.402 c 306.695 191.262 306.668 191.121 306.641 190.949
 c 306.609 190.809 306.582 190.668 306.555 190.527 c 306.523 190.387 306.469
 190.242 306.469 190.102 c 306.441 189.988 306.41 189.875 306.383 189.762
 c 304.711 182.602 l 301.621 182.602 l 298.449 195 l 301.055 195 l 302.613
 188.094 l 302.699 187.723 302.785 187.355 302.871 186.988 c 302.926 186.621
 303.012 186.309 303.066 185.996 c 303.152 185.684 303.211 185.348 303.266
 185.062 c 303.352 185.488 303.438 185.91 303.52 186.309 c 303.551 186.508
 303.578 186.676 303.637 186.875 c 303.664 187.043 303.719 187.242 303.746
 187.41 c 303.777 187.609 303.832 187.781 303.859 187.949 c 303.891 188.121
 303.945 188.262 303.977 188.402 c 305.504 195 l 308.395 195 l 309.953 188.402
 l 309.984 188.262 310.039 188.094 310.066 187.922 c 310.098 187.754 310.125
 187.582 310.18 187.383 c 310.211 187.215 310.238 187.016 310.266 186.848
 c 310.324 186.648 310.352 186.477 310.379 186.281 c 310.438 185.883 310.52
 185.461 310.578 185.062 c 310.664 185.375 310.719 185.715 310.805 186.082
 c 310.859 186.363 310.945 186.703 311.031 187.043 c 311.117 187.41 311.172
 187.754 311.258 188.094 c 312.762 195 l 315.395 195 l 312.191 182.602 l
 f*
316.473 193.84 m 316.473 195.648 l 318.938 195.648 l 318.938 193.84 l h
316.473 182.602 m 316.473 192.113 l 318.938 192.113 l 318.938 182.602 l
 316.473 182.602 l f*
324.039 192.961 m 324.039 189.141 l 330.387 189.141 l 330.387 187.129 l
 324.039 187.129 l 324.039 182.57 l 321.434 182.57 l 321.434 194.973 l 330.586
 194.973 l 330.586 192.961 l 324.039 192.961 l f*
332.539 193.84 m 332.539 195.648 l 335.008 195.648 l 335.008 193.84 l h
332.539 182.602 m 332.539 192.113 l 335.008 192.113 l 335.008 182.602 l
 332.539 182.602 l f*
337.047 188.348 4.562 -2.152 re f*
343.508 182.602 m 343.508 195 l 346.117 195 l 346.117 184.609 l 352.746
 184.609 l 352.746 182.602 l 343.508 182.602 l f*
357.055 182.43 m 356.348 182.457 355.781 182.629 355.383 183.023 c 354.988
 183.422 354.789 184.043 354.789 184.836 c 354.789 190.441 l 353.598 190.441
 l 353.598 192.113 l 354.93 192.113 l 355.695 194.348 l 357.227 194.348 
l 357.227 192.113 l 359.039 192.113 l 359.039 190.441 l 357.227 190.441 
l 357.227 185.516 l 357.227 185.035 357.34 184.695 357.508 184.469 c 357.68
 184.27 357.965 184.156 358.332 184.156 c 358.473 184.156 358.613 184.156
 358.727 184.184 c 358.84 184.215 358.984 184.242 359.152 184.27 c 359.152
 182.742 l 358.84 182.656 358.527 182.57 358.188 182.516 c 357.848 182.457
 357.453 182.457 357.055 182.43 c f*
364.539 182.43 m 363.855 182.43 363.234 182.543 362.668 182.742 c 362.129
 182.938 361.676 183.25 361.277 183.648 c 360.883 184.07 360.598 184.582
 360.398 185.203 c 360.172 185.828 360.09 186.562 360.09 187.41 c 360.09
 188.316 360.203 189.082 360.457 189.703 c 360.684 190.301 361.023 190.809
 361.422 191.207 c 361.844 191.574 362.328 191.855 362.863 192.027 c 363.402
 192.195 363.973 192.281 364.566 192.281 c 365.305 192.281 365.953 192.141
 366.492 191.887 c 367.004 191.629 367.457 191.262 367.797 190.781 c 368.137
 190.328 368.391 189.762 368.531 189.109 c 368.703 188.43 368.762 187.723
 368.762 186.93 c 362.668 186.93 l 362.668 186.508 362.723 186.137 362.781
 185.797 c 362.836 185.461 362.98 185.148 363.121 184.895 c 363.289 184.637
 363.488 184.438 363.742 184.297 c 364 184.156 364.281 184.07 364.652 184.07
 c 365.074 184.07 365.445 184.184 365.727 184.355 c 365.984 184.555 366.18
 184.836 366.297 185.203 c 368.617 185.008 l 368.531 184.75 368.391 184.469
 368.191 184.156 c 367.996 183.844 367.738 183.562 367.43 183.309 c 367.117
 183.051 366.719 182.855 366.238 182.684 c 365.785 182.516 365.188 182.43
 364.539 182.43 c h
364.539 190.727 m 364.281 190.727 364.027 190.695 363.828 190.609 c 363.602
 190.527 363.402 190.387 363.262 190.188 c 363.094 190.016 362.949 189.762
 362.863 189.48 c 362.754 189.195 362.695 188.828 362.695 188.43 c 366.379
 188.43 l 366.324 189.195 366.152 189.762 365.84 190.156 c 365.5 190.527
 365.074 190.727 364.539 190.727 c f*
375.676 182.43 m 374.91 182.43 374.199 182.516 373.551 182.715 c 372.898
 182.883 372.359 183.164 371.879 183.562 c 371.426 183.957 371.055 184.469
 370.801 185.062 c 370.547 185.684 370.402 186.395 370.402 187.242 c 370.402
 195 l 373.012 195 l 373.012 187.441 l 373.012 186.93 373.066 186.477 373.18
 186.109 c 373.324 185.715 373.492 185.402 373.746 185.176 c 373.977 184.922
 374.285 184.75 374.629 184.637 c 374.965 184.523 375.336 184.469 375.762
 184.469 c 376.184 184.469 376.555 184.523 376.922 184.637 c 377.262 184.75
 377.574 184.949 377.828 185.203 c 378.086 185.461 378.281 185.77 378.426
 186.164 c 378.566 186.535 378.621 186.988 378.621 187.523 c 378.621 195
 l 381.23 195 l 381.23 187.383 l 381.23 186.535 381.09 185.797 380.805 185.176
 c 380.551 184.555 380.152 184.043 379.672 183.617 c 379.16 183.223 378.594
 182.91 377.914 182.715 c 377.234 182.516 376.496 182.43 375.676 182.43 
c f*
0.00392157 0.8 0.6 rg
453.809 213.91 226.918 -38.84 re f*
1 g
565.102 188.348 4.562 -2.152 re f*
571.59 182.602 m 571.59 195 l 574.195 195 l 574.195 184.609 l 580.828 184.609
 l 580.828 182.602 l 571.59 182.602 l f*
586.781 192.988 m 586.781 182.629 l 584.172 182.629 l 584.172 192.988 l
 580.176 192.988 l 580.176 195 l 590.777 195 l 590.777 192.988 l 586.781
 192.988 l f*
592.223 182.602 m 592.223 194.973 l 601.969 194.973 l 601.969 192.961 l
 594.828 192.961 l 594.828 189.875 l 601.434 189.875 l 601.434 187.863 l
 594.828 187.863 l 594.828 184.609 l 602.34 184.609 l 602.34 182.602 l 592.223
 182.602 l f*
0.00392157 0.8 0.6 rg
0.027 175.07 113.332 -54.129 re f*
1 g
14.539 143.758 m 14.512 143.816 14.512 143.898 14.48 144.012 c 14.48 144.156
 14.453 144.27 14.453 144.438 c 14.426 144.578 14.426 144.75 14.426 144.891
 c 14.398 145.062 14.398 145.203 14.398 145.316 c 14.367 145.316 l 14.086
 144.723 13.688 144.27 13.148 144.012 c 12.641 143.73 12.043 143.59 11.336
 143.59 c 10.711 143.59 10.203 143.73 9.777 143.957 c 9.324 144.211 8.984
 144.551 8.699 145.004 c 8.418 145.43 8.191 145.965 8.047 146.562 c 7.906
 147.156 7.852 147.809 7.852 148.516 c 7.852 149.25 7.934 149.902 8.078 
150.496 c 8.219 151.117 8.445 151.629 8.73 152.055 c 9.039 152.508 9.41 
152.848 9.863 153.07 c 10.316 153.328 10.883 153.469 11.508 153.469 c 11.816
 153.469 12.129 153.41 12.414 153.355 c 12.695 153.297 12.953 153.188 13.207
 153.07 c 13.461 152.93 13.66 152.762 13.859 152.535 c 14.055 152.336 14.227
 152.082 14.367 151.77 c 14.398 151.77 l 14.398 152.875 l 14.367 153.043
 14.367 153.188 14.367 153.328 c 14.367 156.809 l 16.863 156.809 l 16.863
 144.605 l 16.891 144.238 16.918 143.957 16.918 143.758 c h
14.426 148.57 m 14.426 149.195 14.367 149.73 14.227 150.129 c 14.113 150.555
 13.973 150.891 13.773 151.117 c 13.574 151.371 13.375 151.543 13.121 151.629
 c 12.895 151.742 12.641 151.77 12.387 151.77 c 12.074 151.77 11.789 151.715
 11.535 151.602 c 11.309 151.461 11.109 151.289 10.938 151.004 c 10.77 150.75
 10.629 150.41 10.543 150.016 c 10.457 149.59 10.43 149.109 10.43 148.516
 c 10.43 146.363 11.082 145.285 12.355 145.285 c 12.609 145.285 12.867 145.344
 13.094 145.457 c 13.348 145.543 13.574 145.738 13.773 145.996 c 13.973 
146.223 14.113 146.562 14.227 146.984 c 14.367 147.41 14.426 147.949 14.426
 148.57 c f*
19.383 154.996 m 19.383 156.809 l 21.852 156.809 l 21.852 154.996 l h
19.383 143.758 m 19.383 153.27 l 21.852 153.27 l 21.852 143.758 l 19.383
 143.758 l f*
32.449 146.531 m 32.449 146.078 32.363 145.684 32.164 145.316 c 31.969 
144.945 31.711 144.637 31.344 144.383 c 30.977 144.125 30.523 143.93 30.012
 143.785 c 29.473 143.645 28.879 143.59 28.199 143.59 c 27.602 143.59 27.066
 143.645 26.555 143.73 c 26.074 143.816 25.648 143.957 25.281 144.156 c 
24.91 144.352 24.629 144.605 24.371 144.945 c 24.117 145.258 23.949 145.656
 23.805 146.137 c 25.988 146.449 l 26.043 146.191 26.156 145.996 26.27 145.824
 c 26.383 145.656 26.555 145.543 26.723 145.43 c 26.922 145.344 27.121 145.285
 27.375 145.258 c 27.602 145.23 27.887 145.23 28.199 145.23 c 28.48 145.23
 28.738 145.23 28.992 145.258 c 29.219 145.316 29.445 145.371 29.613 145.43
 c 29.785 145.512 29.926 145.629 30.039 145.77 c 30.125 145.91 30.184 146.109
 30.184 146.305 c 30.184 146.562 30.125 146.758 29.984 146.898 c 29.812 
147.043 29.645 147.156 29.391 147.238 c 29.133 147.324 28.852 147.41 28.512
 147.496 c 28.168 147.551 27.801 147.637 27.434 147.723 c 27.035 147.809
 26.641 147.922 26.242 148.031 c 25.875 148.145 25.508 148.316 25.223 148.543
 c 24.91 148.742 24.656 148.996 24.484 149.336 c 24.289 149.645 24.203 150.07
 24.203 150.555 c 24.203 151.004 24.289 151.43 24.457 151.77 c 24.629 152.137
 24.883 152.422 25.223 152.676 c 25.562 152.93 25.988 153.102 26.496 153.242
 c 26.98 153.383 27.574 153.441 28.227 153.441 c 28.738 153.441 29.219 153.383
 29.672 153.297 c 30.098 153.215 30.492 153.043 30.863 152.848 c 31.203 
152.617 31.484 152.363 31.742 152.055 c 31.969 151.715 32.137 151.344 32.223
 150.863 c 30.039 150.637 l 30.012 150.863 29.926 151.062 29.812 151.203
 c 29.727 151.371 29.586 151.488 29.445 151.57 c 29.277 151.656 29.105 151.715
 28.906 151.742 c 28.68 151.77 28.453 151.797 28.227 151.797 c 27.633 151.797
 27.18 151.715 26.895 151.57 c 26.609 151.43 26.469 151.176 26.469 150.836
 c 26.469 150.609 26.527 150.438 26.641 150.297 c 26.754 150.184 26.922 
150.07 27.148 149.984 c 27.375 149.902 27.633 149.816 27.945 149.762 c 28.227
 149.703 28.566 149.617 28.906 149.535 c 29.359 149.449 29.785 149.336 30.211
 149.223 c 30.637 149.078 31.031 148.91 31.344 148.684 c 31.684 148.484 
31.938 148.203 32.137 147.863 c 32.363 147.496 32.449 147.07 32.449 146.531
 c f*
36.844 143.59 m 36.133 143.617 35.566 143.785 35.168 144.184 c 34.773 144.578
 34.574 145.203 34.574 145.996 c 34.574 151.602 l 33.383 151.602 l 33.383
 153.27 l 34.715 153.27 l 35.48 155.508 l 37.012 155.508 l 37.012 153.27
 l 38.824 153.27 l 38.824 151.602 l 37.012 151.602 l 37.012 146.676 l 37.012
 146.191 37.125 145.852 37.297 145.629 c 37.465 145.43 37.75 145.316 38.117
 145.316 c 38.258 145.316 38.402 145.316 38.516 145.344 c 38.629 145.371
 38.77 145.398 38.938 145.43 c 38.938 143.898 l 38.629 143.816 38.316 143.73
 37.977 143.672 c 37.637 143.617 37.238 143.617 36.844 143.59 c f*
42.594 143.59 m 42.141 143.59 41.715 143.645 41.375 143.785 c 41.008 143.898
 40.695 144.098 40.441 144.324 c 40.188 144.578 39.988 144.891 39.875 145.23
 c 39.734 145.598 39.676 145.996 39.676 146.449 c 39.676 147.016 39.762 
147.496 39.961 147.891 c 40.156 148.258 40.414 148.57 40.754 148.824 c 41.094
 149.051 41.488 149.223 41.973 149.336 c 42.426 149.449 42.906 149.504 43.418
 149.504 c 45.457 149.504 l 45.457 149.984 l 45.457 150.324 45.43 150.637
 45.371 150.863 c 45.316 151.09 45.23 151.289 45.117 151.43 c 44.977 151.57
 44.836 151.684 44.664 151.742 c 44.492 151.797 44.297 151.855 44.07 151.855
 c 43.871 151.855 43.699 151.828 43.531 151.77 c 43.359 151.742 43.219 151.684
 43.105 151.57 c 42.992 151.488 42.906 151.344 42.82 151.176 c 42.738 151.035
 42.707 150.809 42.68 150.555 c 40.102 150.555 l 40.156 150.977 40.301 151.371
 40.469 151.715 c 40.668 152.082 40.922 152.363 41.262 152.617 c 41.602 
152.902 42 153.102 42.48 153.242 c 42.965 153.383 43.531 153.441 44.184 
153.441 c 44.777 153.441 45.289 153.355 45.77 153.215 c 46.223 153.07 46.617
 152.848 46.93 152.562 c 47.27 152.277 47.496 151.91 47.668 151.488 c 47.84
 151.09 47.922 150.582 47.922 150.043 c 47.922 146.562 l 47.922 146.363 
47.953 146.164 47.953 145.965 c 47.98 145.797 48.035 145.656 48.066 145.543
 c 48.121 145.398 48.207 145.316 48.32 145.258 c 48.406 145.203 48.547 145.176
 48.715 145.176 c 48.914 145.176 49.086 145.176 49.254 145.23 c 49.254 143.898
 l 49.113 143.844 48.973 143.816 48.859 143.785 c 48.746 143.758 48.633 
143.73 48.52 143.73 c 48.406 143.703 48.262 143.703 48.148 143.672 c 48.008
 143.672 47.867 143.645 47.668 143.645 c 47.043 143.645 46.59 143.816 46.309
 144.125 c 45.996 144.41 45.824 144.863 45.77 145.457 c 45.711 145.457 l
 45.402 144.863 44.977 144.41 44.465 144.07 c 43.957 143.758 43.332 143.59
 42.594 143.59 c h
45.457 148.145 m 44.211 148.145 l 43.926 148.145 43.672 148.117 43.445 
148.09 c 43.219 148.062 42.992 148.004 42.82 147.891 c 42.652 147.777 42.512
 147.637 42.398 147.438 c 42.281 147.238 42.227 146.984 42.227 146.645 c
 42.227 146.191 42.34 145.852 42.539 145.656 c 42.766 145.43 43.047 145.316
 43.391 145.316 c 43.699 145.316 43.984 145.371 44.238 145.512 c 44.492 
145.656 44.719 145.824 44.891 146.051 c 45.09 146.25 45.203 146.504 45.316
 146.789 c 45.402 147.07 45.457 147.383 45.457 147.664 c 45.457 148.145 
l f*
56.539 143.758 m 56.539 149.109 l 56.539 149.477 56.512 149.789 56.453 
150.102 c 56.398 150.41 56.281 150.695 56.141 150.891 c 56.027 151.117 55.828
 151.289 55.633 151.402 c 55.406 151.543 55.148 151.602 54.84 151.602 c 
54.527 151.602 54.27 151.543 54.016 151.402 c 53.789 151.262 53.562 151.09
 53.395 150.836 c 53.223 150.609 53.082 150.297 52.996 149.957 c 52.883 
149.617 52.824 149.25 52.824 148.855 c 52.824 143.758 l 50.359 143.758 l
 50.359 152.449 l 50.332 152.648 50.332 152.816 50.332 152.961 c 50.332 
153.129 50.305 153.215 50.305 153.215 c 52.656 153.215 l 52.656 153.129 
52.684 153.016 52.684 152.875 c 52.711 152.73 52.711 152.562 52.711 152.395
 c 52.742 152.195 52.742 152.023 52.77 151.828 c 52.77 151.371 l 52.797 
151.371 l 53.137 152.109 53.562 152.648 54.074 152.961 c 54.555 153.297 
55.18 153.441 55.859 153.441 c 56.426 153.441 56.906 153.355 57.305 153.188
 c 57.699 152.988 58.039 152.73 58.297 152.395 c 58.523 152.082 58.719 151.684
 58.836 151.23 c 58.949 150.809 59.004 150.324 59.004 149.789 c 59.004 143.758
 l 56.539 143.758 l f*
65.352 143.59 m 64.613 143.59 63.934 143.703 63.367 143.93 c 62.801 144.184
 62.348 144.492 61.98 144.918 c 61.582 145.371 61.301 145.883 61.129 146.477
 c 60.93 147.07 60.848 147.75 60.848 148.457 c 60.848 149.25 60.93 149.957
 61.156 150.582 c 61.355 151.203 61.641 151.715 62.035 152.137 c 62.434 
152.562 62.887 152.875 63.453 153.102 c 64.02 153.328 64.672 153.441 65.379
 153.441 c 66.004 153.441 66.543 153.355 67.023 153.188 c 67.508 153.016
 67.93 152.789 68.27 152.508 c 68.609 152.223 68.895 151.883 69.094 151.488
 c 69.32 151.09 69.461 150.664 69.547 150.215 c 67.051 150.215 l 66.996 
150.664 66.824 151.062 66.543 151.316 c 66.258 151.602 65.863 151.742 65.352
 151.742 c 64.672 151.742 64.191 151.461 63.879 150.922 c 63.594 150.383
 63.426 149.59 63.426 148.57 c 63.426 146.363 64.078 145.285 65.379 145.285
 c 65.836 145.285 66.23 145.43 66.543 145.711 c 66.883 145.996 67.051 146.418
 67.137 146.984 c 69.633 146.984 l 69.547 146.531 69.434 146.109 69.207 
145.711 c 69.008 145.285 68.723 144.918 68.383 144.605 c 68.016 144.297 
67.59 144.07 67.082 143.871 c 66.57 143.672 66.004 143.59 65.352 143.59 
c f*
75.27 143.59 m 74.59 143.59 73.969 143.703 73.402 143.898 c 72.863 144.098
 72.41 144.41 72.012 144.805 c 71.613 145.23 71.332 145.738 71.133 146.363
 c 70.906 146.984 70.82 147.723 70.82 148.57 c 70.82 149.477 70.934 150.242
 71.191 150.863 c 71.418 151.461 71.758 151.969 72.152 152.363 c 72.578 
152.73 73.059 153.016 73.598 153.188 c 74.137 153.355 74.703 153.441 75.301
 153.441 c 76.035 153.441 76.688 153.297 77.227 153.043 c 77.738 152.789
 78.191 152.422 78.531 151.941 c 78.871 151.488 79.125 150.922 79.266 150.27
 c 79.438 149.59 79.492 148.883 79.492 148.09 c 73.402 148.09 l 73.402 147.664
 73.457 147.297 73.516 146.957 c 73.57 146.617 73.711 146.305 73.855 146.051
 c 74.023 145.797 74.223 145.598 74.477 145.457 c 74.73 145.316 75.016 145.23
 75.383 145.23 c 75.809 145.23 76.176 145.344 76.461 145.512 c 76.715 145.711
 76.914 145.996 77.027 146.363 c 79.352 146.164 l 79.266 145.91 79.125 145.629
 78.926 145.316 c 78.727 145.004 78.473 144.723 78.16 144.465 c 77.852 144.211
 77.453 144.012 76.973 143.844 c 76.52 143.672 75.922 143.59 75.27 143.59
 c h
75.27 151.883 m 75.016 151.883 74.762 151.855 74.562 151.77 c 74.336 151.684
 74.137 151.543 73.996 151.344 c 73.824 151.176 73.684 150.922 73.598 150.637
 c 73.484 150.355 73.43 149.984 73.43 149.59 c 77.113 149.59 l 77.055 150.355
 76.887 150.922 76.574 151.316 c 76.234 151.684 75.809 151.883 75.27 151.883
 c f*
0.00392157 0.8 0.6 rg
113.359 175.07 113.504 -54.129 re f*
226.863 175.07 113.613 -54.129 re f*
1 g
247.719 143.758 m 244.633 143.758 l 242.961 150.922 l 242.902 151.148 242.844
 151.402 242.789 151.684 c 242.73 151.996 242.676 152.277 242.617 152.562
 c 242.562 152.902 242.504 153.215 242.449 153.582 c 242.391 153.215 242.309
 152.875 242.25 152.562 c 242.223 152.422 242.195 152.277 242.164 152.109
 c 242.137 151.969 242.109 151.828 242.078 151.684 c 242.051 151.543 241.996
 151.402 241.996 151.262 c 241.969 151.148 241.938 151.035 241.91 150.922
 c 240.238 143.758 l 237.148 143.758 l 233.977 156.156 l 236.582 156.156
 l 238.141 149.25 l 238.395 148.145 l 238.453 147.777 238.539 147.469 238.594
 147.156 c 238.68 146.844 238.734 146.504 238.793 146.223 c 238.879 146.645
 238.965 147.07 239.047 147.469 c 239.074 147.664 239.105 147.836 239.16
 148.031 c 239.188 148.203 239.246 148.402 239.273 148.57 c 239.305 148.77
 239.359 148.938 239.387 149.109 c 239.414 149.277 239.473 149.422 239.5
 149.562 c 241.031 156.156 l 243.922 156.156 l 245.48 149.562 l 245.508 
149.422 245.566 149.25 245.594 149.078 c 245.621 148.91 245.652 148.742 
245.707 148.543 c 245.734 148.371 245.766 148.176 245.793 148.004 c 245.852
 147.809 245.879 147.637 245.906 147.438 c 245.965 147.043 246.047 146.617
 246.105 146.223 c 246.188 146.531 246.246 146.871 246.332 147.238 c 246.387
 147.523 246.473 147.863 246.559 148.203 c 246.645 148.57 246.699 148.91
 246.785 149.25 c 248.285 156.156 l 250.922 156.156 l 247.719 143.758 l f*
252 154.996 m 252 156.809 l 254.465 156.809 l 254.465 154.996 l h
252 143.758 m 252 153.27 l 254.465 153.27 l 254.465 143.758 l 252 143.758
 l f*
259.566 154.121 m 259.566 150.297 l 265.914 150.297 l 265.914 148.289 l
 259.566 148.289 l 259.566 143.73 l 256.961 143.73 l 256.961 156.129 l 266.113
 156.129 l 266.113 154.121 l 259.566 154.121 l f*
268.066 154.996 m 268.066 156.809 l 270.535 156.809 l 270.535 154.996 l
 h
268.066 143.758 m 268.066 153.27 l 270.535 153.27 l 270.535 143.758 l 268.066
 143.758 l f*
0.00392157 0.8 0.6 rg
340.477 175.07 113.332 -54.129 re f*
1 g
353.797 143.758 m 353.797 156.156 l 356.402 156.156 l 356.402 145.77 l 
363.035 145.77 l 363.035 143.758 l 353.797 143.758 l f*
367.316 143.59 m 366.605 143.617 366.039 143.785 365.645 144.184 c 365.246
 144.578 365.047 145.203 365.047 145.996 c 365.047 151.602 l 363.855 151.602
 l 363.855 153.27 l 365.188 153.27 l 365.953 155.508 l 367.484 155.508 l
 367.484 153.27 l 369.297 153.27 l 369.297 151.602 l 367.484 151.602 l 367.484
 146.676 l 367.484 146.191 367.598 145.852 367.77 145.629 c 367.938 145.43
 368.223 145.316 368.59 145.316 c 368.73 145.316 368.871 145.316 368.988
 145.344 c 369.102 145.371 369.242 145.398 369.41 145.43 c 369.41 143.898
 l 369.102 143.816 368.789 143.73 368.449 143.672 c 368.109 143.617 367.711
 143.617 367.316 143.59 c f*
374.797 143.59 m 374.117 143.59 373.492 143.703 372.926 143.898 c 372.387
 144.098 371.934 144.41 371.539 144.805 c 371.141 145.23 370.855 145.738
 370.66 146.363 c 370.434 146.984 370.348 147.723 370.348 148.57 c 370.348
 149.477 370.461 150.242 370.715 150.863 c 370.941 151.461 371.281 151.969
 371.68 152.363 c 372.105 152.73 372.586 153.016 373.125 153.188 c 373.664
 153.355 374.23 153.441 374.824 153.441 c 375.562 153.441 376.215 153.297
 376.754 153.043 c 377.262 152.789 377.715 152.422 378.055 151.941 c 378.395
 151.488 378.652 150.922 378.793 150.27 c 378.965 149.59 379.02 148.883 
379.02 148.09 c 372.926 148.09 l 372.926 147.664 372.984 147.297 373.039
 146.957 c 373.098 146.617 373.238 146.305 373.379 146.051 c 373.551 145.797
 373.746 145.598 374.004 145.457 c 374.258 145.316 374.539 145.23 374.91
 145.23 c 375.336 145.23 375.703 145.344 375.988 145.512 c 376.242 145.711
 376.441 145.996 376.555 146.363 c 378.879 146.164 l 378.793 145.91 378.652
 145.629 378.453 145.316 c 378.254 145.004 378 144.723 377.688 144.465 c
 377.375 144.211 376.98 144.012 376.496 143.844 c 376.043 143.672 375.449
 143.59 374.797 143.59 c h
374.797 151.883 m 374.539 151.883 374.285 151.855 374.09 151.77 c 373.859
 151.684 373.664 151.543 373.52 151.344 c 373.352 151.176 373.211 150.922
 373.125 150.637 c 373.012 150.355 372.953 149.984 372.953 149.59 c 376.641
 149.59 l 376.582 150.355 376.41 150.922 376.102 151.316 c 375.762 151.684
 375.336 151.883 374.797 151.883 c f*
385.965 143.59 m 385.195 143.59 384.488 143.672 383.836 143.871 c 383.184
 144.039 382.648 144.324 382.164 144.723 c 381.711 145.117 381.344 145.629
 381.09 146.223 c 380.832 146.844 380.691 147.551 380.691 148.402 c 380.691
 156.156 l 383.297 156.156 l 383.297 148.598 l 383.297 148.09 383.355 147.637
 383.469 147.27 c 383.609 146.871 383.781 146.562 384.035 146.336 c 384.262
 146.078 384.574 145.91 384.914 145.797 c 385.254 145.684 385.621 145.629
 386.047 145.629 c 386.473 145.629 386.84 145.684 387.211 145.797 c 387.551
 145.91 387.859 146.109 388.117 146.363 c 388.371 146.617 388.57 146.93 
388.711 147.324 c 388.852 147.691 388.91 148.145 388.91 148.684 c 388.91
 156.156 l 391.516 156.156 l 391.516 148.543 l 391.516 147.691 391.375 146.957
 391.094 146.336 c 390.836 145.711 390.441 145.203 389.961 144.777 c 389.449
 144.383 388.883 144.07 388.199 143.871 c 387.52 143.672 386.785 143.59 
385.965 143.59 c f*
0.00392157 0.8 0.6 rg
453.809 175.07 113.504 -54.129 re f*
1 g
474.668 143.758 m 471.578 143.758 l 469.906 150.922 l 469.848 151.148 469.793
 151.402 469.734 151.684 c 469.68 151.996 469.621 152.277 469.566 152.562
 c 469.508 152.902 469.453 153.215 469.395 153.582 c 469.34 153.215 469.254
 152.875 469.195 152.562 c 469.168 152.422 469.141 152.277 469.113 152.109
 c 469.086 151.969 469.055 151.828 469.027 151.684 c 469 151.543 468.941
 151.402 468.941 151.262 c 468.914 151.148 468.887 151.035 468.855 150.922
 c 467.184 143.758 l 464.098 143.758 l 460.922 156.156 l 463.527 156.156
 l 465.09 149.25 l 465.344 148.145 l 465.398 147.777 465.484 147.469 465.539
 147.156 c 465.625 146.844 465.684 146.504 465.738 146.223 c 465.824 146.645
 465.91 147.07 465.996 147.469 c 466.023 147.664 466.051 147.836 466.109
 148.031 c 466.137 148.203 466.191 148.402 466.223 148.57 c 466.25 148.77
 466.305 148.938 466.336 149.109 c 466.363 149.277 466.422 149.422 466.449
 149.562 c 467.98 156.156 l 470.867 156.156 l 472.43 149.562 l 472.457 149.422
 472.512 149.25 472.539 149.078 c 472.57 148.91 472.598 148.742 472.656 
148.543 c 472.684 148.371 472.711 148.176 472.738 148.004 c 472.797 147.809
 472.824 147.637 472.852 147.438 c 472.91 147.043 472.996 146.617 473.051
 146.223 c 473.137 146.531 473.191 146.871 473.277 147.238 c 473.336 147.523
 473.422 147.863 473.504 148.203 c 473.59 148.57 473.645 148.91 473.73 149.25
 c 475.234 156.156 l 477.867 156.156 l 474.668 143.758 l f*
478.945 154.996 m 478.945 156.809 l 481.41 156.809 l 481.41 154.996 l h
478.945 143.758 m 478.945 153.27 l 481.41 153.27 l 481.41 143.758 l 478.945
 143.758 l f*
486.512 154.121 m 486.512 150.297 l 492.859 150.297 l 492.859 148.289 l
 486.512 148.289 l 486.512 143.73 l 483.906 143.73 l 483.906 156.129 l 493.059
 156.129 l 493.059 154.121 l 486.512 154.121 l f*
495.016 154.996 m 495.016 156.809 l 497.48 156.809 l 497.48 154.996 l h
495.016 143.758 m 495.016 153.27 l 497.48 153.27 l 497.48 143.758 l 495.016
 143.758 l f*
0.00392157 0.8 0.6 rg
567.309 175.07 113.418 -54.129 re f*
1 g
575.586 143.758 m 575.586 156.156 l 578.191 156.156 l 578.191 145.77 l 
584.824 145.77 l 584.824 143.758 l 575.586 143.758 l f*
590.805 154.148 m 590.805 143.785 l 588.195 143.785 l 588.195 154.148 l
 584.199 154.148 l 584.199 156.156 l 594.801 156.156 l 594.801 154.148 l
 590.805 154.148 l f*
596.219 143.758 m 596.219 156.129 l 605.965 156.129 l 605.965 154.121 l
 598.824 154.121 l 598.824 151.035 l 605.426 151.035 l 605.426 149.023 l
 598.824 149.023 l 598.824 145.77 l 606.336 145.77 l 606.336 143.758 l 596.219
 143.758 l f*
0.796078 0.92549 0.870588 rg
0.027 120.941 113.332 -40.285 re f*
0.00392157 g
8.473 89.629 m 8.473 90.961 l 11.648 90.961 l 11.648 100.5 l 8.844 98.52
 l 8.844 99.992 l 11.762 102.027 l 13.234 102.027 l 13.234 90.961 l 16.238
 90.961 l 16.238 89.629 l 8.473 89.629 l f*
26.355 95.828 m 26.355 94.641 26.242 93.648 26.016 92.828 c 25.789 92.008
 25.508 91.355 25.109 90.875 c 24.711 90.367 24.258 89.996 23.719 89.77 
c 23.211 89.574 22.645 89.461 22.047 89.461 c 21.453 89.461 20.887 89.574
 20.348 89.77 c 19.84 89.996 19.383 90.367 18.988 90.848 c 18.621 91.355
 18.309 92.008 18.082 92.828 c 17.883 93.621 17.77 94.641 17.77 95.828 c
 17.77 97.074 17.883 98.121 18.082 98.914 c 18.309 99.734 18.621 100.387
 19.016 100.867 c 19.383 101.379 19.84 101.719 20.375 101.914 c 20.914 102.113
 21.48 102.199 22.105 102.199 c 22.699 102.199 23.238 102.113 23.75 101.914
 c 24.289 101.719 24.742 101.379 25.109 100.867 c 25.508 100.387 25.816 
99.734 26.043 98.914 c 26.242 98.121 26.355 97.074 26.355 95.828 c h
24.77 95.828 m 24.77 96.82 24.711 97.641 24.57 98.293 c 24.457 98.945 24.289
 99.453 24.059 99.848 c 23.836 100.246 23.551 100.5 23.238 100.672 c 22.898
 100.84 22.531 100.926 22.105 100.926 c 21.652 100.926 21.254 100.84 20.914
 100.672 c 20.574 100.5 20.293 100.219 20.066 99.848 c 19.84 99.453 19.668
 98.945 19.527 98.266 c 19.414 97.613 19.355 96.82 19.355 95.828 c 19.355
 94.867 19.414 94.074 19.555 93.422 c 19.668 92.773 19.84 92.262 20.066 
91.867 c 20.293 91.469 20.574 91.188 20.914 91.016 c 21.254 90.848 21.625
 90.762 22.047 90.762 c 22.473 90.762 22.844 90.848 23.184 91.016 c 23.523
 91.188 23.805 91.469 24.031 91.867 c 24.258 92.262 24.457 92.773 24.57 
93.422 c 24.684 94.074 24.77 94.867 24.77 95.828 c f*
0.796078 0.92549 0.870588 rg
113.359 120.941 113.504 -40.285 re f*
0.00392157 g
183.785 99.934 m 191.551 99.934 l 191.551 98.266 l 185.598 98.266 l 185.598
 94.668 l 185.883 94.781 186.164 94.84 186.449 94.895 c 186.73 94.953 187.043
 94.98 187.328 94.98 c 188.941 94.98 190.246 94.527 191.184 93.621 c 192.145
 92.742 192.598 91.527 192.598 89.996 c 192.598 88.441 192.117 87.223 191.152
 86.344 c 190.16 85.469 188.801 85.043 187.016 85.043 c 186.391 85.043 185.77
 85.102 185.145 85.215 c 184.523 85.297 183.84 85.469 183.16 85.664 c 183.16
 87.648 l 183.758 87.336 184.379 87.082 185.004 86.941 c 185.629 86.77 186.277
 86.715 186.988 86.715 c 188.094 86.715 189 86.996 189.652 87.59 c 190.305
 88.184 190.645 88.977 190.645 89.996 c 190.645 91.016 190.305 91.836 189.652
 92.434 c 189 93.027 188.094 93.309 186.988 93.309 c 186.449 93.309 185.91
 93.254 185.398 93.141 c 184.863 93.027 184.324 92.828 183.785 92.574 c 
183.785 99.934 l f*
202.461 93.195 m 203.426 93 204.16 92.574 204.699 91.922 c 205.211 91.301
 205.492 90.508 205.492 89.574 c 205.492 88.129 204.984 87.023 203.992 86.23
 c 203 85.441 201.609 85.043 199.77 85.043 c 199.172 85.043 198.523 85.102
 197.898 85.215 c 197.246 85.355 196.566 85.523 195.887 85.781 c 195.887
 87.676 l 196.426 87.363 197.02 87.109 197.672 86.941 c 198.324 86.797 199.004
 86.715 199.711 86.715 c 200.961 86.715 201.895 86.941 202.547 87.449 c 
203.199 87.93 203.508 88.641 203.508 89.574 c 203.508 90.422 203.227 91.102
 202.602 91.582 c 202.008 92.062 201.188 92.32 200.109 92.32 c 198.406 92.32
 l 198.406 93.934 l 200.164 93.934 l 201.156 93.934 201.895 94.133 202.402
 94.527 c 202.914 94.922 203.172 95.461 203.172 96.199 c 203.172 96.934 
202.914 97.527 202.375 97.926 c 201.84 98.32 201.102 98.52 200.109 98.52
 c 199.57 98.52 198.977 98.461 198.352 98.348 c 197.758 98.234 197.078 98.039
 196.312 97.781 c 196.312 99.566 l 197.078 99.766 197.758 99.906 198.438
 100.02 c 199.09 100.133 199.684 100.188 200.277 100.188 c 201.781 100.188
 202.973 99.848 203.82 99.168 c 204.699 98.492 205.152 97.555 205.152 96.395
 c 205.152 95.602 204.898 94.895 204.445 94.355 c 203.992 93.789 203.34 
93.395 202.461 93.195 c f*
209.402 87.816 m 211.445 87.816 l 211.445 86.117 l 209.859 83.004 l 208.582
 83.004 l 209.402 86.117 l 209.402 87.816 l f*
220.031 93.422 m 219.152 93.422 218.445 93.113 217.934 92.516 c 217.395
 91.895 217.141 91.074 217.141 90.027 c 217.141 88.949 217.395 88.129 217.934
 87.535 c 218.445 86.91 219.152 86.602 220.031 86.602 c 220.91 86.602 221.617
 86.91 222.129 87.535 c 222.668 88.129 222.922 88.949 222.922 90.027 c 222.922
 91.074 222.668 91.895 222.129 92.516 c 221.617 93.113 220.91 93.422 220.031
 93.422 c h
223.941 99.594 m 223.941 97.812 l 223.461 98.039 222.949 98.207 222.441
 98.32 c 221.961 98.461 221.449 98.52 220.938 98.52 c 219.637 98.52 218.645
 98.066 217.965 97.188 c 217.281 96.309 216.887 95.008 216.801 93.227 c 
217.172 93.789 217.652 94.215 218.246 94.527 c 218.812 94.84 219.465 94.98
 220.145 94.98 c 221.617 94.98 222.781 94.527 223.633 93.648 c 224.48 92.742
 224.906 91.555 224.906 90.027 c 224.906 88.527 224.453 87.309 223.574 86.402
 c 222.695 85.496 221.504 85.043 220.031 85.043 c 218.359 85.043 217.055
 85.695 216.18 86.996 c 215.27 88.27 214.816 90.141 214.816 92.602 c 214.816
 94.922 215.383 96.766 216.461 98.121 c 217.566 99.48 219.039 100.188 220.883
 100.188 c 221.363 100.188 221.875 100.133 222.383 100.047 c 222.867 99.934
 223.402 99.793 223.941 99.594 c f*
0.796078 0.92549 0.870588 rg
226.863 120.941 113.613 -40.285 re f*
0.00392157 g
284.73 99.934 m 292.496 99.934 l 292.496 98.266 l 286.547 98.266 l 286.547
 94.668 l 286.828 94.781 287.113 94.84 287.395 94.895 c 287.68 94.953 287.992
 94.98 288.273 94.98 c 289.891 94.98 291.191 94.527 292.129 93.621 c 293.094
 92.742 293.547 91.527 293.547 89.996 c 293.547 88.441 293.062 87.223 292.102
 86.344 c 291.109 85.469 289.746 85.043 287.965 85.043 c 287.34 85.043 286.715
 85.102 286.094 85.215 c 285.469 85.297 284.789 85.469 284.109 85.664 c 
284.109 87.648 l 284.703 87.336 285.328 87.082 285.949 86.941 c 286.574 
86.77 287.227 86.715 287.934 86.715 c 289.039 86.715 289.945 86.996 290.598
 87.59 c 291.25 88.184 291.59 88.977 291.59 89.996 c 291.59 91.016 291.25
 91.836 290.598 92.434 c 289.945 93.027 289.039 93.309 287.934 93.309 c 
287.395 93.309 286.855 93.254 286.348 93.141 c 285.809 93.027 285.27 92.828
 284.73 92.574 c 284.73 99.934 l f*
296.945 99.934 m 306.328 99.934 l 306.328 99.086 l 301.027 85.328 l 298.961
 85.328 l 303.945 98.266 l 296.945 98.266 l 296.945 99.934 l f*
310.352 87.816 m 312.391 87.816 l 312.391 86.117 l 310.805 83.004 l 309.531
 83.004 l 310.352 86.117 l 310.352 87.816 l f*
316.527 99.934 m 324.297 99.934 l 324.297 98.266 l 318.344 98.266 l 318.344
 94.668 l 318.629 94.781 318.91 94.84 319.191 94.895 c 319.477 94.953 319.789
 94.98 320.07 94.98 c 321.688 94.98 322.992 94.527 323.926 93.621 c 324.891
 92.742 325.344 91.527 325.344 89.996 c 325.344 88.441 324.859 87.223 323.898
 86.344 c 322.906 85.469 321.547 85.043 319.762 85.043 c 319.137 85.043 
318.512 85.102 317.891 85.215 c 317.266 85.297 316.586 85.469 315.906 85.664
 c 315.906 87.648 l 316.5 87.336 317.125 87.082 317.746 86.941 c 318.371
 86.77 319.023 86.715 319.73 86.715 c 320.836 86.715 321.742 86.996 322.395
 87.59 c 323.047 88.184 323.387 88.977 323.387 89.996 c 323.387 91.016 323.047
 91.836 322.395 92.434 c 321.742 93.027 320.836 93.309 319.73 93.309 c 319.191
 93.309 318.656 93.254 318.145 93.141 c 317.605 93.027 317.066 92.828 316.527
 92.574 c 316.527 99.934 l f*
330.926 86.996 m 337.84 86.996 l 337.84 85.328 l 328.574 85.328 l 328.574
 86.996 l 329.312 87.762 330.332 88.809 331.637 90.109 c 332.91 91.414 333.73
 92.262 334.07 92.629 c 334.695 93.34 335.148 93.961 335.402 94.441 c 335.629
 94.922 335.773 95.406 335.773 95.887 c 335.773 96.68 335.488 97.301 334.949
 97.781 c 334.41 98.266 333.703 98.52 332.824 98.52 c 332.203 98.52 331.551
 98.406 330.871 98.207 c 330.188 97.98 329.453 97.668 328.66 97.215 c 328.66
 99.227 l 329.453 99.539 330.188 99.766 330.898 99.934 c 331.578 100.105
 332.203 100.188 332.797 100.188 c 334.301 100.188 335.488 99.793 336.395
 99.055 c 337.305 98.293 337.758 97.273 337.758 96.027 c 337.758 95.406 
337.645 94.84 337.414 94.301 c 337.188 93.762 336.793 93.141 336.195 92.402
 c 336.027 92.234 335.516 91.668 334.641 90.762 c 333.762 89.883 332.539
 88.609 330.926 86.996 c f*
0.796078 0.92549 0.870588 rg
340.477 120.941 113.332 -40.285 re f*
0.00392157 g
386.984 86.996 m 393.898 86.996 l 393.898 85.328 l 384.629 85.328 l 384.629
 86.996 l 385.367 87.762 386.387 88.809 387.691 90.109 c 388.965 91.414 
389.789 92.262 390.129 92.629 c 390.754 93.34 391.203 93.961 391.461 94.441
 c 391.688 94.922 391.828 95.406 391.828 95.887 c 391.828 96.68 391.547 
97.301 391.008 97.781 c 390.469 98.266 389.762 98.52 388.883 98.52 c 388.258
 98.52 387.605 98.406 386.926 98.207 c 386.246 97.98 385.508 97.668 384.715
 97.215 c 384.715 99.227 l 385.508 99.539 386.246 99.766 386.953 99.934 
c 387.633 100.105 388.258 100.188 388.852 100.188 c 390.355 100.188 391.547
 99.793 392.453 99.055 c 393.359 98.293 393.812 97.273 393.812 96.027 c 
393.812 95.406 393.699 94.84 393.473 94.301 c 393.246 93.762 392.848 93.141
 392.254 92.402 c 392.086 92.234 391.574 91.668 390.695 90.762 c 389.816
 89.883 388.598 88.609 386.984 86.996 c f*
398.375 86.996 m 401.578 86.996 l 401.578 98.121 l 398.094 97.414 l 398.094
 99.227 l 401.578 99.934 l 403.531 99.934 l 403.531 86.996 l 406.766 86.996
 l 406.766 85.328 l 398.375 85.328 l 398.375 86.996 l f*
414.926 92.262 m 413.992 92.262 413.254 92.008 412.715 91.496 c 412.176
 91.016 411.922 90.309 411.922 89.43 c 411.922 88.555 412.176 87.875 412.715
 87.363 c 413.254 86.855 413.992 86.602 414.926 86.602 c 415.891 86.602 
416.629 86.855 417.164 87.363 c 417.703 87.875 417.957 88.555 417.957 89.43
 c 417.957 90.309 417.703 91.016 417.164 91.496 c 416.629 92.008 415.891
 92.262 414.926 92.262 c h
412.973 93.113 m 412.121 93.309 411.469 93.707 410.988 94.273 c 410.504
 94.867 410.277 95.574 410.277 96.395 c 410.277 97.586 410.703 98.492 411.523
 99.168 c 412.348 99.848 413.48 100.188 414.926 100.188 c 416.398 100.188
 417.531 99.848 418.355 99.168 c 419.176 98.492 419.602 97.586 419.602 96.395
 c 419.602 95.574 419.375 94.867 418.895 94.273 c 418.41 93.707 417.762 
93.309 416.91 93.113 c 417.871 92.887 418.609 92.461 419.148 91.809 c 419.688
 91.156 419.941 90.367 419.941 89.43 c 419.941 88.016 419.516 86.941 418.641
 86.176 c 417.789 85.41 416.539 85.043 414.926 85.043 c 413.34 85.043 412.094
 85.41 411.242 86.176 c 410.363 86.941 409.938 88.016 409.938 89.43 c 409.938
 90.367 410.191 91.156 410.73 91.809 c 411.27 92.434 412.008 92.887 412.973
 93.113 c h
412.234 96.227 m 412.234 95.461 412.488 94.867 412.941 94.441 c 413.426
 94.02 414.074 93.82 414.926 93.82 c 415.777 93.82 416.457 94.02 416.938
 94.441 c 417.391 94.867 417.645 95.461 417.645 96.227 c 417.645 96.988 
417.391 97.555 416.938 97.98 c 416.457 98.406 415.777 98.633 414.926 98.633
 c 414.074 98.633 413.426 98.406 412.941 97.98 c 412.488 97.555 412.234 
96.988 412.234 96.227 c f*
423.656 87.816 m 425.695 87.816 l 425.695 86.117 l 424.109 83.004 l 422.832
 83.004 l 423.656 86.117 l 423.656 87.816 l f*
430.172 86.996 m 433.375 86.996 l 433.375 98.121 l 429.891 97.414 l 429.891
 99.227 l 433.375 99.934 l 435.332 99.934 l 435.332 86.996 l 438.562 86.996
 l 438.562 85.328 l 430.172 85.328 l 430.172 86.996 l f*
447.941 98.207 m 442.953 90.422 l 447.941 90.422 l h
447.434 99.934 m 449.898 99.934 l 449.898 90.422 l 451.996 90.422 l 451.996
 88.781 l 449.898 88.781 l 449.898 85.355 l 447.941 85.355 l 447.941 88.781
 l 441.34 88.781 l 441.34 90.676 l 447.434 99.934 l f*
0.796078 0.92549 0.870588 rg
453.809 120.941 113.504 -40.285 re f*
0.00392157 g
560.227 98.633 m 559.234 98.633 558.469 98.121 557.957 97.133 c 557.449
 96.113 557.191 94.613 557.191 92.602 c 557.191 90.621 557.449 89.121 557.957
 88.102 c 558.469 87.109 559.234 86.602 560.227 86.602 c 561.273 86.602 
562.039 87.109 562.551 88.102 c 563.059 89.121 563.312 90.621 563.312 92.602
 c 563.312 94.613 563.059 96.113 562.551 97.133 c 562.039 98.121 561.273
 98.633 560.227 98.633 c h
560.227 100.188 m 561.867 100.188 563.117 99.539 563.996 98.234 c 564.844
 96.961 565.27 95.066 565.27 92.602 c 565.27 90.168 564.844 88.27 563.996
 86.996 c 563.117 85.695 561.867 85.043 560.227 85.043 c 558.609 85.043 
557.363 85.695 556.484 86.996 c 555.633 88.27 555.211 90.168 555.211 92.602
 c 555.211 95.066 555.633 96.961 556.484 98.234 c 557.363 99.539 558.609
 100.188 560.227 100.188 c f*
0.796078 0.92549 0.870588 rg
567.309 120.941 113.418 -40.285 re f*
0.00392157 g
618.18 93.195 m 619.145 93 619.883 92.574 620.418 91.922 c 620.93 91.301
 621.215 90.508 621.215 89.574 c 621.215 88.129 620.703 87.023 619.711 86.23
 c 618.719 85.441 617.328 85.043 615.488 85.043 c 614.895 85.043 614.242
 85.102 613.617 85.215 c 612.965 85.355 612.285 85.523 611.605 85.781 c 
611.605 87.676 l 612.145 87.363 612.738 87.109 613.391 86.941 c 614.043 
86.797 614.723 86.715 615.434 86.715 c 616.68 86.715 617.613 86.941 618.266
 87.449 c 618.918 87.93 619.23 88.641 619.23 89.574 c 619.23 90.422 618.945
 91.102 618.32 91.582 c 617.727 92.062 616.906 92.32 615.828 92.32 c 614.129
 92.32 l 614.129 93.934 l 615.887 93.934 l 616.879 93.934 617.613 94.133
 618.125 94.527 c 618.633 94.922 618.891 95.461 618.891 96.199 c 618.891
 96.934 618.633 97.527 618.094 97.926 c 617.559 98.32 616.82 98.52 615.828
 98.52 c 615.289 98.52 614.695 98.461 614.07 98.348 c 613.477 98.234 612.797
 98.039 612.031 97.781 c 612.031 99.566 l 612.797 99.766 613.477 99.906 
614.156 100.02 c 614.809 100.133 615.402 100.188 615.996 100.188 c 617.5
 100.188 618.691 99.848 619.539 99.168 c 620.418 98.492 620.871 97.555 620.871
 96.395 c 620.871 95.602 620.617 94.895 620.164 94.355 c 619.711 93.789 
619.059 93.395 618.18 93.195 c f*
629.148 98.633 m 628.156 98.633 627.391 98.121 626.883 97.133 c 626.371
 96.113 626.117 94.613 626.117 92.602 c 626.117 90.621 626.371 89.121 626.883
 88.102 c 627.391 87.109 628.156 86.602 629.148 86.602 c 630.195 86.602 
630.961 87.109 631.473 88.102 c 631.98 89.121 632.238 90.621 632.238 92.602
 c 632.238 94.613 631.98 96.113 631.473 97.133 c 630.961 98.121 630.195 
98.633 629.148 98.633 c h
629.148 100.188 m 630.793 100.188 632.039 99.539 632.918 98.234 c 633.77
 96.961 634.191 95.066 634.191 92.602 c 634.191 90.168 633.77 88.27 632.918
 86.996 c 632.039 85.695 630.793 85.043 629.148 85.043 c 627.531 85.043 
626.285 85.695 625.406 86.996 c 624.559 88.27 624.133 90.168 624.133 92.602
 c 624.133 95.066 624.559 96.961 625.406 98.234 c 626.285 99.539 627.531
 100.188 629.148 100.188 c f*
641.844 98.633 m 640.852 98.633 640.086 98.121 639.578 97.133 c 639.066
 96.113 638.812 94.613 638.812 92.602 c 638.812 90.621 639.066 89.121 639.578
 88.102 c 640.086 87.109 640.852 86.602 641.844 86.602 c 642.895 86.602 
643.656 87.109 644.168 88.102 c 644.68 89.121 644.934 90.621 644.934 92.602
 c 644.934 94.613 644.68 96.113 644.168 97.133 c 643.656 98.121 642.895 
98.633 641.844 98.633 c h
641.844 100.188 m 643.488 100.188 644.734 99.539 645.613 98.234 c 646.465
 96.961 646.891 95.066 646.891 92.602 c 646.891 90.168 646.465 88.27 645.613
 86.996 c 644.734 85.695 643.488 85.043 641.844 85.043 c 640.23 85.043 638.98
 85.695 638.105 86.996 c 637.254 88.27 636.828 90.168 636.828 92.602 c 636.828
 95.066 637.254 96.961 638.105 98.234 c 638.98 99.539 640.23 100.188 641.844
 100.188 c f*
650.574 87.816 m 652.613 87.816 l 652.613 86.117 l 651.027 83.004 l 649.75
 83.004 l 650.574 86.117 l 650.574 87.816 l f*
661.199 93.422 m 660.32 93.422 659.613 93.113 659.105 92.516 c 658.566 
91.895 658.309 91.074 658.309 90.027 c 658.309 88.949 658.566 88.129 659.105
 87.535 c 659.613 86.91 660.32 86.602 661.199 86.602 c 662.078 86.602 662.789
 86.91 663.297 87.535 c 663.836 88.129 664.09 88.949 664.09 90.027 c 664.09
 91.074 663.836 91.895 663.297 92.516 c 662.789 93.113 662.078 93.422 661.199
 93.422 c h
665.109 99.594 m 665.109 97.812 l 664.629 98.039 664.121 98.207 663.609
 98.32 c 663.129 98.461 662.617 98.52 662.105 98.52 c 660.805 98.52 659.812
 98.066 659.133 97.188 c 658.453 96.309 658.055 95.008 657.969 93.227 c 
658.34 93.789 658.82 94.215 659.414 94.527 c 659.98 94.84 660.633 94.98 
661.312 94.98 c 662.789 94.98 663.949 94.527 664.801 93.648 c 665.648 92.742
 666.074 91.555 666.074 90.027 c 666.074 88.527 665.621 87.309 664.742 86.402
 c 663.863 85.496 662.676 85.043 661.199 85.043 c 659.527 85.043 658.227
 85.695 657.348 86.996 c 656.438 88.27 655.984 90.141 655.984 92.602 c 655.984
 94.922 656.555 96.766 657.629 98.121 c 658.734 99.48 660.211 100.188 662.051
 100.188 c 662.531 100.188 663.043 100.133 663.555 100.047 c 664.035 99.934
 664.574 99.793 665.109 99.594 c f*
669.789 86.996 m 672.988 86.996 l 672.988 98.121 l 669.504 97.414 l 669.504
 99.227 l 672.988 99.934 l 674.945 99.934 l 674.945 86.996 l 678.176 86.996
 l 678.176 85.328 l 669.789 85.328 l 669.789 86.996 l f*
0.905882 0.964706 0.937255 rg
0.027 80.656 113.332 -40.258 re f*
0.00392157 g
8.473 49.344 m 8.473 50.676 l 11.648 50.676 l 11.648 60.215 l 8.844 58.234
 l 8.844 59.707 l 11.762 61.742 l 13.234 61.742 l 13.234 50.676 l 16.238
 50.676 l 16.238 49.344 l 8.473 49.344 l f*
26.355 55.543 m 26.355 54.355 26.242 53.363 26.016 52.543 c 25.789 51.723
 25.508 51.07 25.109 50.59 c 24.711 50.082 24.258 49.711 23.719 49.484 c
 23.211 49.289 22.645 49.176 22.047 49.176 c 21.453 49.176 20.887 49.289
 20.348 49.484 c 19.84 49.711 19.383 50.082 18.988 50.562 c 18.621 51.07
 18.309 51.723 18.082 52.543 c 17.883 53.336 17.77 54.355 17.77 55.543 c
 17.77 56.789 17.883 57.836 18.082 58.629 c 18.309 59.453 18.621 60.102 
19.016 60.582 c 19.383 61.094 19.84 61.434 20.375 61.633 c 20.914 61.828
 21.48 61.914 22.105 61.914 c 22.699 61.914 23.238 61.828 23.75 61.633 c
 24.289 61.434 24.742 61.094 25.109 60.582 c 25.508 60.102 25.816 59.453
 26.043 58.629 c 26.242 57.836 26.355 56.789 26.355 55.543 c h
24.77 55.543 m 24.77 56.535 24.711 57.355 24.57 58.008 c 24.457 58.656 
24.289 59.168 24.059 59.562 c 23.836 59.961 23.551 60.215 23.238 60.387 
c 22.898 60.555 22.531 60.641 22.105 60.641 c 21.652 60.641 21.254 60.555
 20.914 60.387 c 20.574 60.215 20.293 59.934 20.066 59.562 c 19.84 59.168
 19.668 58.656 19.527 57.98 c 19.414 57.328 19.355 56.535 19.355 55.543 
c 19.355 54.582 19.414 53.789 19.555 53.137 c 19.668 52.488 19.84 51.977
 20.066 51.582 c 20.293 51.184 20.574 50.902 20.914 50.73 c 21.254 50.562
 21.625 50.477 22.047 50.477 c 22.473 50.477 22.844 50.562 23.184 50.73 
c 23.523 50.902 23.805 51.184 24.031 51.582 c 24.258 51.977 24.457 52.488
 24.57 53.137 c 24.684 53.789 24.77 54.582 24.77 55.543 c f*
36.332 55.543 m 36.332 54.355 36.219 53.363 35.992 52.543 c 35.766 51.723
 35.48 51.07 35.086 50.59 c 34.688 50.082 34.234 49.711 33.695 49.484 c 
33.188 49.289 32.621 49.176 32.023 49.176 c 31.43 49.176 30.863 49.289 30.324
 49.484 c 29.812 49.711 29.359 50.082 28.965 50.562 c 28.594 51.07 28.281
 51.723 28.055 52.543 c 27.859 53.336 27.746 54.355 27.746 55.543 c 27.746
 56.789 27.859 57.836 28.055 58.629 c 28.281 59.453 28.594 60.102 28.992
 60.582 c 29.359 61.094 29.812 61.434 30.352 61.633 c 30.891 61.828 31.457
 61.914 32.082 61.914 c 32.676 61.914 33.215 61.828 33.723 61.633 c 34.262
 61.434 34.715 61.094 35.086 60.582 c 35.48 60.102 35.793 59.453 36.02 58.629
 c 36.219 57.836 36.332 56.789 36.332 55.543 c h
34.746 55.543 m 34.746 56.535 34.688 57.355 34.547 58.008 c 34.434 58.656
 34.262 59.168 34.035 59.562 c 33.809 59.961 33.527 60.215 33.215 60.387
 c 32.875 60.555 32.508 60.641 32.082 60.641 c 31.629 60.641 31.23 60.555
 30.891 60.387 c 30.551 60.215 30.266 59.934 30.039 59.562 c 29.812 59.168
 29.645 58.656 29.504 57.98 c 29.391 57.328 29.332 56.535 29.332 55.543 
c 29.332 54.582 29.391 53.789 29.531 53.137 c 29.645 52.488 29.812 51.977
 30.039 51.582 c 30.266 51.184 30.551 50.902 30.891 50.73 c 31.23 50.562
 31.598 50.477 32.023 50.477 c 32.449 50.477 32.816 50.562 33.156 50.73 
c 33.496 50.902 33.781 51.184 34.008 51.582 c 34.234 51.977 34.434 52.488
 34.547 53.137 c 34.66 53.789 34.746 54.582 34.746 55.543 c f*
0.905882 0.964706 0.937255 rg
113.359 80.656 113.504 -40.258 re f*
0.00392157 g
175.281 51.977 m 174.348 51.977 173.609 51.723 173.07 51.215 c 172.535 
50.73 172.277 50.023 172.277 49.145 c 172.277 48.27 172.535 47.59 173.07
 47.078 c 173.609 46.57 174.348 46.316 175.281 46.316 c 176.246 46.316 176.984
 46.57 177.523 47.078 c 178.059 47.59 178.316 48.27 178.316 49.145 c 178.316
 50.023 178.059 50.73 177.523 51.215 c 176.984 51.723 176.246 51.977 175.281
 51.977 c h
173.328 52.828 m 172.477 53.023 171.824 53.422 171.344 53.988 c 170.863
 54.582 170.637 55.289 170.637 56.109 c 170.637 57.301 171.059 58.207 171.883
 58.887 c 172.703 59.562 173.84 59.902 175.281 59.902 c 176.758 59.902 177.891
 59.562 178.711 58.887 c 179.535 58.207 179.961 57.301 179.961 56.109 c 
179.961 55.289 179.73 54.582 179.25 53.988 c 178.77 53.422 178.117 53.023
 177.266 52.828 c 178.23 52.602 178.969 52.176 179.504 51.523 c 180.043 
50.871 180.301 50.082 180.301 49.145 c 180.301 47.73 179.875 46.656 178.996
 45.891 c 178.145 45.125 176.898 44.758 175.281 44.758 c 173.695 44.758 
172.449 45.125 171.598 45.891 c 170.719 46.656 170.297 47.73 170.297 49.145
 c 170.297 50.082 170.551 50.871 171.09 51.523 c 171.629 52.148 172.363 
52.602 173.328 52.828 c h
172.59 55.941 m 172.59 55.176 172.848 54.582 173.301 54.156 c 173.781 53.73
 174.434 53.535 175.281 53.535 c 176.133 53.535 176.812 53.73 177.297 54.156
 c 177.746 54.582 178.004 55.176 178.004 55.941 c 178.004 56.707 177.746
 57.27 177.297 57.695 c 176.812 58.121 176.133 58.348 175.281 58.348 c 174.434
 58.348 173.781 58.121 173.301 57.695 c 172.848 57.27 172.59 56.707 172.59
 55.941 c f*
189.766 52.91 m 190.727 52.715 191.465 52.289 192.004 51.637 c 192.516 
51.016 192.797 50.223 192.797 49.289 c 192.797 47.844 192.285 46.738 191.297
 45.949 c 190.305 45.156 188.914 44.758 187.07 44.758 c 186.477 44.758 185.824
 44.816 185.203 44.93 c 184.551 45.07 183.871 45.238 183.191 45.492 c 183.191
 47.391 l 183.727 47.078 184.324 46.824 184.977 46.656 c 185.629 46.512 
186.309 46.43 187.016 46.43 c 188.262 46.43 189.199 46.656 189.852 47.164
 c 190.504 47.645 190.812 48.352 190.812 49.289 c 190.812 50.137 190.531
 50.816 189.906 51.297 c 189.312 51.777 188.488 52.035 187.414 52.035 c 
185.711 52.035 l 185.711 53.648 l 187.469 53.648 l 188.461 53.648 189.199
 53.844 189.707 54.242 c 190.219 54.637 190.473 55.176 190.473 55.91 c 190.473
 56.648 190.219 57.242 189.68 57.641 c 189.141 58.035 188.402 58.234 187.414
 58.234 c 186.875 58.234 186.277 58.176 185.656 58.062 c 185.059 57.949 
184.379 57.754 183.613 57.496 c 183.613 59.281 l 184.379 59.48 185.059 59.621
 185.738 59.734 c 186.391 59.848 186.988 59.902 187.582 59.902 c 189.086
 59.902 190.273 59.562 191.125 58.887 c 192.004 58.207 192.457 57.27 192.457
 56.109 c 192.457 55.316 192.203 54.609 191.746 54.074 c 191.297 53.508 
190.645 53.109 189.766 52.91 c f*
196.707 47.531 m 198.746 47.531 l 198.746 45.836 l 197.16 42.719 l 195.887
 42.719 l 196.707 45.836 l 196.707 47.531 l f*
207.078 58.348 m 206.09 58.348 205.324 57.836 204.812 56.848 c 204.305 
55.828 204.047 54.328 204.047 52.316 c 204.047 50.336 204.305 48.836 204.812
 47.816 c 205.324 46.824 206.09 46.316 207.078 46.316 c 208.129 46.316 208.895
 46.824 209.402 47.816 c 209.914 48.836 210.172 50.336 210.172 52.316 c 
210.172 54.328 209.914 55.828 209.402 56.848 c 208.895 57.836 208.129 58.348
 207.078 58.348 c h
207.078 59.902 m 208.723 59.902 209.973 59.254 210.852 57.949 c 211.699
 56.676 212.125 54.781 212.125 52.316 c 212.125 49.883 211.699 47.984 210.852
 46.711 c 209.973 45.41 208.723 44.758 207.078 44.758 c 205.465 44.758 204.219
 45.41 203.34 46.711 c 202.488 47.984 202.062 49.883 202.062 52.316 c 202.062
 54.781 202.488 56.676 203.34 57.949 c 204.219 59.254 205.465 59.902 207.078
 59.902 c f*
217.281 46.711 m 224.199 46.711 l 224.199 45.043 l 214.93 45.043 l 214.93
 46.711 l 215.668 47.477 216.688 48.523 217.992 49.824 c 219.266 51.129 
220.09 51.977 220.43 52.344 c 221.051 53.055 221.504 53.676 221.762 54.156
 c 221.988 54.637 222.129 55.121 222.129 55.602 c 222.129 56.395 221.848
 57.016 221.309 57.496 c 220.77 57.98 220.059 58.234 219.184 58.234 c 218.559
 58.234 217.906 58.121 217.227 57.922 c 216.547 57.695 215.809 57.383 215.016
 56.93 c 215.016 58.941 l 215.809 59.254 216.547 59.48 217.254 59.648 c 
217.934 59.82 218.559 59.902 219.152 59.902 c 220.656 59.902 221.848 59.508
 222.754 58.773 c 223.66 58.008 224.113 56.988 224.113 55.742 c 224.113 
55.121 224 54.555 223.773 54.016 c 223.547 53.477 223.148 52.855 222.555
 52.117 c 222.383 51.949 221.875 51.383 220.996 50.477 c 220.117 49.598 
218.898 48.324 217.281 46.711 c f*
0.905882 0.964706 0.937255 rg
226.863 80.656 113.613 -40.258 re f*
0.00392157 g
285.07 46.711 m 288.273 46.711 l 288.273 57.836 l 284.789 57.129 l 284.789
 58.941 l 288.273 59.648 l 290.23 59.648 l 290.23 46.711 l 293.461 46.711
 l 293.461 45.043 l 285.07 45.043 l 285.07 46.711 l f*
297.797 46.711 m 301 46.711 l 301 57.836 l 297.512 57.129 l 297.512 58.941
 l 301 59.648 l 302.953 59.648 l 302.953 46.711 l 306.188 46.711 l 306.188
 45.043 l 297.797 45.043 l 297.797 46.711 l f*
314.602 53.137 m 313.723 53.137 313.016 52.828 312.504 52.23 c 311.969 
51.609 311.711 50.789 311.711 49.742 c 311.711 48.664 311.969 47.844 312.504
 47.25 c 313.016 46.625 313.723 46.316 314.602 46.316 c 315.48 46.316 316.188
 46.625 316.699 47.25 c 317.238 47.844 317.492 48.664 317.492 49.742 c 317.492
 50.789 317.238 51.609 316.699 52.23 c 316.188 52.828 315.48 53.137 314.602
 53.137 c h
318.512 59.309 m 318.512 57.527 l 318.031 57.754 317.52 57.922 317.012 
58.035 c 316.527 58.176 316.02 58.234 315.508 58.234 c 314.203 58.234 313.215
 57.781 312.535 56.902 c 311.855 56.027 311.457 54.723 311.371 52.941 c 
311.738 53.508 312.223 53.93 312.816 54.242 c 313.383 54.555 314.035 54.695
 314.715 54.695 c 316.188 54.695 317.352 54.242 318.203 53.363 c 319.051
 52.457 319.477 51.27 319.477 49.742 c 319.477 48.238 319.023 47.023 318.145
 46.117 c 317.266 45.211 316.074 44.758 314.602 44.758 c 312.93 44.758 311.629
 45.41 310.746 46.711 c 309.84 47.984 309.387 49.855 309.387 52.316 c 309.387
 54.637 309.953 56.477 311.031 57.836 c 312.137 59.195 313.609 59.902 315.453
 59.902 c 315.934 59.902 316.445 59.848 316.953 59.762 c 317.438 59.648 
317.977 59.508 318.512 59.309 c f*
323.074 47.531 m 325.117 47.531 l 325.117 45.836 l 323.527 42.719 l 322.254
 42.719 l 323.074 45.836 l 323.074 47.531 l f*
333.449 51.977 m 332.512 51.977 331.777 51.723 331.238 51.215 c 330.699
 50.73 330.445 50.023 330.445 49.145 c 330.445 48.27 330.699 47.59 331.238
 47.078 c 331.777 46.57 332.512 46.316 333.449 46.316 c 334.41 46.316 335.148
 46.57 335.688 47.078 c 336.227 47.59 336.48 48.27 336.48 49.145 c 336.48
 50.023 336.227 50.73 335.688 51.215 c 335.148 51.723 334.41 51.977 333.449
 51.977 c h
331.492 52.828 m 330.645 53.023 329.992 53.422 329.508 53.988 c 329.027
 54.582 328.801 55.289 328.801 56.109 c 328.801 57.301 329.227 58.207 330.047
 58.887 c 330.871 59.562 332.004 59.902 333.449 59.902 c 334.922 59.902 
336.055 59.562 336.879 58.887 c 337.699 58.207 338.125 57.301 338.125 56.109
 c 338.125 55.289 337.898 54.582 337.414 53.988 c 336.934 53.422 336.281
 53.023 335.434 52.828 c 336.395 52.602 337.133 52.176 337.672 51.523 c 
338.211 50.871 338.465 50.082 338.465 49.145 c 338.465 47.73 338.039 46.656
 337.16 45.891 c 336.312 45.125 335.062 44.758 333.449 44.758 c 331.859 
44.758 330.613 45.125 329.766 45.891 c 328.887 46.656 328.461 47.73 328.461
 49.145 c 328.461 50.082 328.715 50.871 329.254 51.523 c 329.793 52.148 
330.527 52.602 331.492 52.828 c h
330.758 55.941 m 330.758 55.176 331.012 54.582 331.465 54.156 c 331.945
 53.73 332.598 53.535 333.449 53.535 c 334.301 53.535 334.98 53.73 335.461
 54.156 c 335.914 54.582 336.168 55.176 336.168 55.941 c 336.168 56.707 
335.914 57.27 335.461 57.695 c 334.98 58.121 334.301 58.348 333.449 58.348
 c 332.598 58.348 331.945 58.121 331.465 57.695 c 331.012 57.27 330.758 
56.707 330.758 55.941 c f*
0.905882 0.964706 0.937255 rg
340.477 80.656 113.332 -40.258 re f*
0.00392157 g
386.984 46.711 m 393.898 46.711 l 393.898 45.043 l 384.629 45.043 l 384.629
 46.711 l 385.367 47.477 386.387 48.523 387.691 49.824 c 388.965 51.129 
389.789 51.977 390.129 52.344 c 390.754 53.055 391.203 53.676 391.461 54.156
 c 391.688 54.637 391.828 55.121 391.828 55.602 c 391.828 56.395 391.547
 57.016 391.008 57.496 c 390.469 57.98 389.762 58.234 388.883 58.234 c 388.258
 58.234 387.605 58.121 386.926 57.922 c 386.246 57.695 385.508 57.383 384.715
 56.93 c 384.715 58.941 l 385.508 59.254 386.246 59.48 386.953 59.648 c 
387.633 59.82 388.258 59.902 388.852 59.902 c 390.355 59.902 391.547 59.508
 392.453 58.773 c 393.359 58.008 393.812 56.988 393.812 55.742 c 393.812
 55.121 393.699 54.555 393.473 54.016 c 393.246 53.477 392.848 52.855 392.254
 52.117 c 392.086 51.949 391.574 51.383 390.695 50.477 c 389.816 49.598 
388.598 48.324 386.984 46.711 c f*
403.988 52.91 m 404.949 52.715 405.688 52.289 406.227 51.637 c 406.734 
51.016 407.02 50.223 407.02 49.289 c 407.02 47.844 406.508 46.738 405.516
 45.949 c 404.523 45.156 403.137 44.758 401.297 44.758 c 400.699 44.758 
400.047 44.816 399.426 44.93 c 398.773 45.07 398.094 45.238 397.41 45.492
 c 397.41 47.391 l 397.949 47.078 398.547 46.824 399.195 46.656 c 399.848
 46.512 400.527 46.43 401.238 46.43 c 402.484 46.43 403.422 46.656 404.07
 47.164 c 404.723 47.645 405.035 48.352 405.035 49.289 c 405.035 50.137 
404.754 50.816 404.129 51.297 c 403.531 51.777 402.711 52.035 401.633 52.035
 c 399.934 52.035 l 399.934 53.648 l 401.691 53.648 l 402.684 53.648 403.422
 53.844 403.93 54.242 c 404.441 54.637 404.695 55.176 404.695 55.91 c 404.695
 56.648 404.441 57.242 403.902 57.641 c 403.363 58.035 402.629 58.234 401.633
 58.234 c 401.098 58.234 400.5 58.176 399.879 58.062 c 399.281 57.949 398.602
 57.754 397.836 57.496 c 397.836 59.281 l 398.602 59.48 399.281 59.621 399.965
 59.734 c 400.613 59.848 401.211 59.902 401.805 59.902 c 403.309 59.902 
404.496 59.562 405.348 58.887 c 406.227 58.207 406.68 57.27 406.68 56.109
 c 406.68 55.316 406.426 54.609 405.973 54.074 c 405.516 53.508 404.863 
53.109 403.988 52.91 c f*
414.926 58.348 m 413.934 58.348 413.168 57.836 412.66 56.848 c 412.148 
55.828 411.895 54.328 411.895 52.316 c 411.895 50.336 412.148 48.836 412.66
 47.816 c 413.168 46.824 413.934 46.316 414.926 46.316 c 415.977 46.316 
416.738 46.824 417.25 47.816 c 417.762 48.836 418.016 50.336 418.016 52.316
 c 418.016 54.328 417.762 55.828 417.25 56.848 c 416.738 57.836 415.977 
58.348 414.926 58.348 c h
414.926 59.902 m 416.57 59.902 417.816 59.254 418.695 57.949 c 419.547 
56.676 419.969 54.781 419.969 52.316 c 419.969 49.883 419.547 47.984 418.695
 46.711 c 417.816 45.41 416.57 44.758 414.926 44.758 c 413.312 44.758 412.062
 45.41 411.184 46.711 c 410.336 47.984 409.91 49.883 409.91 52.316 c 409.91
 54.781 410.336 56.676 411.184 57.949 c 412.062 59.254 413.312 59.902 414.926
 59.902 c f*
423.656 47.531 m 425.695 47.531 l 425.695 45.836 l 424.109 42.719 l 422.832
 42.719 l 423.656 45.836 l 423.656 47.531 l f*
434.281 53.137 m 433.402 53.137 432.695 52.828 432.184 52.23 c 431.645 
51.609 431.391 50.789 431.391 49.742 c 431.391 48.664 431.645 47.844 432.184
 47.25 c 432.695 46.625 433.402 46.316 434.281 46.316 c 435.16 46.316 435.867
 46.625 436.379 47.25 c 436.918 47.844 437.172 48.664 437.172 49.742 c 437.172
 50.789 436.918 51.609 436.379 52.23 c 435.867 52.828 435.16 53.137 434.281
 53.137 c h
438.191 59.309 m 438.191 57.527 l 437.711 57.754 437.199 57.922 436.691
 58.035 c 436.211 58.176 435.699 58.234 435.188 58.234 c 433.887 58.234 
432.895 57.781 432.215 56.902 c 431.531 56.027 431.137 54.723 431.051 52.941
 c 431.422 53.508 431.902 53.93 432.496 54.242 c 433.062 54.555 433.715 
54.695 434.395 54.695 c 435.867 54.695 437.031 54.242 437.883 53.363 c 438.73
 52.457 439.156 51.27 439.156 49.742 c 439.156 48.238 438.703 47.023 437.824
 46.117 c 436.945 45.211 435.758 44.758 434.281 44.758 c 432.609 44.758 
431.309 45.41 430.43 46.711 c 429.52 47.984 429.066 49.855 429.066 52.316
 c 429.066 54.637 429.633 56.477 430.711 57.836 c 431.816 59.195 433.289
 59.902 435.133 59.902 c 435.613 59.902 436.125 59.848 436.633 59.762 c 
437.117 59.648 437.656 59.508 438.191 59.309 c f*
448.48 52.91 m 449.445 52.715 450.18 52.289 450.719 51.637 c 451.23 51.016
 451.512 50.223 451.512 49.289 c 451.512 47.844 451.004 46.738 450.012 45.949
 c 449.02 45.156 447.629 44.758 445.789 44.758 c 445.191 44.758 444.539 
44.816 443.918 44.93 c 443.266 45.07 442.586 45.238 441.906 45.492 c 441.906
 47.391 l 442.445 47.078 443.039 46.824 443.691 46.656 c 444.344 46.512 
445.023 46.43 445.73 46.43 c 446.98 46.43 447.914 46.656 448.566 47.164 
c 449.219 47.645 449.527 48.352 449.527 49.289 c 449.527 50.137 449.246 
50.816 448.621 51.297 c 448.027 51.777 447.203 52.035 446.129 52.035 c 444.43
 52.035 l 444.43 53.648 l 446.184 53.648 l 447.176 53.648 447.914 53.844
 448.426 54.242 c 448.934 54.637 449.188 55.176 449.188 55.91 c 449.188 
56.648 448.934 57.242 448.395 57.641 c 447.855 58.035 447.121 58.234 446.129
 58.234 c 445.59 58.234 444.996 58.176 444.371 58.062 c 443.777 57.949 443.098
 57.754 442.332 57.496 c 442.332 59.281 l 443.098 59.48 443.777 59.621 444.457
 59.734 c 445.109 59.848 445.703 59.902 446.297 59.902 c 447.801 59.902 
448.992 59.562 449.84 58.887 c 450.719 58.207 451.172 57.27 451.172 56.109
 c 451.172 55.316 450.918 54.609 450.465 54.074 c 450.012 53.508 449.359
 53.109 448.48 52.91 c f*
0.905882 0.964706 0.937255 rg
453.809 80.656 113.504 -40.258 re f*
0.00392157 g
499.152 46.711 m 502.355 46.711 l 502.355 57.836 l 498.867 57.129 l 498.867
 58.941 l 502.355 59.648 l 504.309 59.648 l 504.309 46.711 l 507.539 46.711
 l 507.539 45.043 l 499.152 45.043 l 499.152 46.711 l f*
511.879 46.711 m 515.078 46.711 l 515.078 57.836 l 511.594 57.129 l 511.594
 58.941 l 515.078 59.648 l 517.035 59.648 l 517.035 46.711 l 520.266 46.711
 l 520.266 45.043 l 511.879 45.043 l 511.879 46.711 l f*
528.684 53.137 m 527.805 53.137 527.098 52.828 526.586 52.23 c 526.047 
51.609 525.793 50.789 525.793 49.742 c 525.793 48.664 526.047 47.844 526.586
 47.25 c 527.098 46.625 527.805 46.316 528.684 46.316 c 529.562 46.316 530.27
 46.625 530.781 47.25 c 531.316 47.844 531.574 48.664 531.574 49.742 c 531.574
 50.789 531.316 51.609 530.781 52.23 c 530.27 52.828 529.562 53.137 528.684
 53.137 c h
532.594 59.309 m 532.594 57.527 l 532.113 57.754 531.602 57.922 531.094
 58.035 c 530.609 58.176 530.102 58.234 529.59 58.234 c 528.285 58.234 527.293
 57.781 526.613 56.902 c 525.934 56.027 525.535 54.723 525.453 52.941 c 
525.82 53.508 526.301 53.93 526.898 54.242 c 527.465 54.555 528.117 54.695
 528.797 54.695 c 530.27 54.695 531.434 54.242 532.281 53.363 c 533.133 
52.457 533.559 51.27 533.559 49.742 c 533.559 48.238 533.105 47.023 532.227
 46.117 c 531.348 45.211 530.156 44.758 528.684 44.758 c 527.012 44.758 
525.707 45.41 524.828 46.711 c 523.922 47.984 523.469 49.855 523.469 52.316
 c 523.469 54.637 524.035 56.477 525.113 57.836 c 526.219 59.195 527.691
 59.902 529.531 59.902 c 530.016 59.902 530.523 59.848 531.035 59.762 c 
531.516 59.648 532.055 59.508 532.594 59.309 c f*
537.156 47.531 m 539.195 47.531 l 539.195 45.836 l 537.609 42.719 l 536.336
 42.719 l 537.156 45.836 l 537.156 47.531 l f*
542.824 59.648 m 552.203 59.648 l 552.203 58.801 l 546.906 45.043 l 544.836
 45.043 l 549.824 57.98 l 542.824 57.98 l 542.824 59.648 l f*
561.445 57.922 m 556.457 50.137 l 561.445 50.137 l h
560.934 59.648 m 563.398 59.648 l 563.398 50.137 l 565.496 50.137 l 565.496
 48.496 l 563.398 48.496 l 563.398 45.07 l 561.445 45.07 l 561.445 48.496
 l 554.84 48.496 l 554.84 50.391 l 560.934 59.648 l f*
0.905882 0.964706 0.937255 rg
567.309 80.656 113.418 -40.258 re f*
0.00392157 g
618.18 52.91 m 619.145 52.715 619.883 52.289 620.418 51.637 c 620.93 51.016
 621.215 50.223 621.215 49.289 c 621.215 47.844 620.703 46.738 619.711 45.949
 c 618.719 45.156 617.328 44.758 615.488 44.758 c 614.895 44.758 614.242
 44.816 613.617 44.93 c 612.965 45.07 612.285 45.238 611.605 45.492 c 611.605
 47.391 l 612.145 47.078 612.738 46.824 613.391 46.656 c 614.043 46.512 
614.723 46.43 615.434 46.43 c 616.68 46.43 617.613 46.656 618.266 47.164
 c 618.918 47.645 619.23 48.352 619.23 49.289 c 619.23 50.137 618.945 50.816
 618.32 51.297 c 617.727 51.777 616.906 52.035 615.828 52.035 c 614.129 
52.035 l 614.129 53.648 l 615.887 53.648 l 616.879 53.648 617.613 53.844
 618.125 54.242 c 618.633 54.637 618.891 55.176 618.891 55.91 c 618.891 
56.648 618.633 57.242 618.094 57.641 c 617.559 58.035 616.82 58.234 615.828
 58.234 c 615.289 58.234 614.695 58.176 614.07 58.062 c 613.477 57.949 612.797
 57.754 612.031 57.496 c 612.031 59.281 l 612.797 59.48 613.477 59.621 614.156
 59.734 c 614.809 59.848 615.402 59.902 615.996 59.902 c 617.5 59.902 618.691
 59.562 619.539 58.887 c 620.418 58.207 620.871 57.27 620.871 56.109 c 620.871
 55.316 620.617 54.609 620.164 54.074 c 619.711 53.508 619.059 53.109 618.18
 52.91 c f*
629.148 58.348 m 628.156 58.348 627.391 57.836 626.883 56.848 c 626.371
 55.828 626.117 54.328 626.117 52.316 c 626.117 50.336 626.371 48.836 626.883
 47.816 c 627.391 46.824 628.156 46.316 629.148 46.316 c 630.195 46.316 
630.961 46.824 631.473 47.816 c 631.98 48.836 632.238 50.336 632.238 52.316
 c 632.238 54.328 631.98 55.828 631.473 56.848 c 630.961 57.836 630.195 
58.348 629.148 58.348 c h
629.148 59.902 m 630.793 59.902 632.039 59.254 632.918 57.949 c 633.77 
56.676 634.191 54.781 634.191 52.316 c 634.191 49.883 633.77 47.984 632.918
 46.711 c 632.039 45.41 630.793 44.758 629.148 44.758 c 627.531 44.758 626.285
 45.41 625.406 46.711 c 624.559 47.984 624.133 49.883 624.133 52.316 c 624.133
 54.781 624.559 56.676 625.406 57.949 c 626.285 59.254 627.531 59.902 629.148
 59.902 c f*
641.844 58.348 m 640.852 58.348 640.086 57.836 639.578 56.848 c 639.066
 55.828 638.812 54.328 638.812 52.316 c 638.812 50.336 639.066 48.836 639.578
 47.816 c 640.086 46.824 640.852 46.316 641.844 46.316 c 642.895 46.316 
643.656 46.824 644.168 47.816 c 644.68 48.836 644.934 50.336 644.934 52.316
 c 644.934 54.328 644.68 55.828 644.168 56.848 c 643.656 57.836 642.895 
58.348 641.844 58.348 c h
641.844 59.902 m 643.488 59.902 644.734 59.254 645.613 57.949 c 646.465
 56.676 646.891 54.781 646.891 52.316 c 646.891 49.883 646.465 47.984 645.613
 46.711 c 644.734 45.41 643.488 44.758 641.844 44.758 c 640.23 44.758 638.98
 45.41 638.105 46.711 c 637.254 47.984 636.828 49.883 636.828 52.316 c 636.828
 54.781 637.254 56.676 638.105 57.949 c 638.98 59.254 640.23 59.902 641.844
 59.902 c f*
650.574 47.531 m 652.613 47.531 l 652.613 45.836 l 651.027 42.719 l 649.75
 42.719 l 650.574 45.836 l 650.574 47.531 l f*
661.199 53.137 m 660.32 53.137 659.613 52.828 659.105 52.23 c 658.566 51.609
 658.309 50.789 658.309 49.742 c 658.309 48.664 658.566 47.844 659.105 47.25
 c 659.613 46.625 660.32 46.316 661.199 46.316 c 662.078 46.316 662.789 
46.625 663.297 47.25 c 663.836 47.844 664.09 48.664 664.09 49.742 c 664.09
 50.789 663.836 51.609 663.297 52.23 c 662.789 52.828 662.078 53.137 661.199
 53.137 c h
665.109 59.309 m 665.109 57.527 l 664.629 57.754 664.121 57.922 663.609
 58.035 c 663.129 58.176 662.617 58.234 662.105 58.234 c 660.805 58.234 
659.812 57.781 659.133 56.902 c 658.453 56.027 658.055 54.723 657.969 52.941
 c 658.34 53.508 658.82 53.93 659.414 54.242 c 659.98 54.555 660.633 54.695
 661.312 54.695 c 662.789 54.695 663.949 54.242 664.801 53.363 c 665.648
 52.457 666.074 51.27 666.074 49.742 c 666.074 48.238 665.621 47.023 664.742
 46.117 c 663.863 45.211 662.676 44.758 661.199 44.758 c 659.527 44.758 
658.227 45.41 657.348 46.711 c 656.438 47.984 655.984 49.855 655.984 52.316
 c 655.984 54.637 656.555 56.477 657.629 57.836 c 658.734 59.195 660.211
 59.902 662.051 59.902 c 662.531 59.902 663.043 59.848 663.555 59.762 c 
664.035 59.648 664.574 59.508 665.109 59.309 c f*
669.789 46.711 m 672.988 46.711 l 672.988 57.836 l 669.504 57.129 l 669.504
 58.941 l 672.988 59.648 l 674.945 59.648 l 674.945 46.711 l 678.176 46.711
 l 678.176 45.043 l 669.789 45.043 l 669.789 46.711 l f*
0.796078 0.92549 0.870588 rg
0.027 40.398 113.332 -40.344 re f*
0.00392157 g
8.473 9.086 m 8.473 10.418 l 11.648 10.418 l 11.648 19.957 l 8.844 17.977
 l 8.844 19.449 l 11.762 21.488 l 13.234 21.488 l 13.234 10.418 l 16.238
 10.418 l 16.238 9.086 l 8.473 9.086 l f*
26.355 15.289 m 26.355 14.098 26.242 13.105 26.016 12.285 c 25.789 11.465
 25.508 10.816 25.109 10.332 c 24.711 9.824 24.258 9.457 23.719 9.23 c 23.211
 9.031 22.645 8.918 22.047 8.918 c 21.453 8.918 20.887 9.031 20.348 9.23
 c 19.84 9.457 19.383 9.824 18.988 10.305 c 18.621 10.816 18.309 11.465 
18.082 12.285 c 17.883 13.078 17.77 14.098 17.77 15.289 c 17.77 16.531 17.883
 17.582 18.082 18.371 c 18.309 19.195 18.621 19.844 19.016 20.328 c 19.383
 20.836 19.84 21.176 20.375 21.375 c 20.914 21.574 21.48 21.656 22.105 21.656
 c 22.699 21.656 23.238 21.574 23.75 21.375 c 24.289 21.176 24.742 20.836
 25.109 20.328 c 25.508 19.844 25.816 19.195 26.043 18.371 c 26.242 17.582
 26.355 16.531 26.355 15.289 c h
24.77 15.289 m 24.77 16.277 24.711 17.098 24.57 17.75 c 24.457 18.402 24.289
 18.91 24.059 19.309 c 23.836 19.703 23.551 19.957 23.238 20.129 c 22.898
 20.297 22.531 20.383 22.105 20.383 c 21.652 20.383 21.254 20.297 20.914
 20.129 c 20.574 19.957 20.293 19.676 20.066 19.309 c 19.84 18.91 19.668
 18.402 19.527 17.723 c 19.414 17.07 19.355 16.277 19.355 15.289 c 19.355
 14.324 19.414 13.531 19.555 12.883 c 19.668 12.23 19.84 11.719 20.066 11.324
 c 20.293 10.926 20.574 10.645 20.914 10.473 c 21.254 10.305 21.625 10.219
 22.047 10.219 c 22.473 10.219 22.844 10.305 23.184 10.473 c 23.523 10.645
 23.805 10.926 24.031 11.324 c 24.258 11.719 24.457 12.23 24.57 12.883 c
 24.684 13.531 24.77 14.324 24.77 15.289 c f*
36.332 15.289 m 36.332 14.098 36.219 13.105 35.992 12.285 c 35.766 11.465
 35.48 10.816 35.086 10.332 c 34.688 9.824 34.234 9.457 33.695 9.23 c 33.188
 9.031 32.621 8.918 32.023 8.918 c 31.43 8.918 30.863 9.031 30.324 9.23 
c 29.812 9.457 29.359 9.824 28.965 10.305 c 28.594 10.816 28.281 11.465 
28.055 12.285 c 27.859 13.078 27.746 14.098 27.746 15.289 c 27.746 16.531
 27.859 17.582 28.055 18.371 c 28.281 19.195 28.594 19.844 28.992 20.328
 c 29.359 20.836 29.812 21.176 30.352 21.375 c 30.891 21.574 31.457 21.656
 32.082 21.656 c 32.676 21.656 33.215 21.574 33.723 21.375 c 34.262 21.176
 34.715 20.836 35.086 20.328 c 35.48 19.844 35.793 19.195 36.02 18.371 c
 36.219 17.582 36.332 16.531 36.332 15.289 c h
34.746 15.289 m 34.746 16.277 34.688 17.098 34.547 17.75 c 34.434 18.402
 34.262 18.91 34.035 19.309 c 33.809 19.703 33.527 19.957 33.215 20.129 
c 32.875 20.297 32.508 20.383 32.082 20.383 c 31.629 20.383 31.23 20.297
 30.891 20.129 c 30.551 19.957 30.266 19.676 30.039 19.309 c 29.812 18.91
 29.645 18.402 29.504 17.723 c 29.391 17.07 29.332 16.277 29.332 15.289 
c 29.332 14.324 29.391 13.531 29.531 12.883 c 29.645 12.23 29.812 11.719
 30.039 11.324 c 30.266 10.926 30.551 10.645 30.891 10.473 c 31.23 10.305
 31.598 10.219 32.023 10.219 c 32.449 10.219 32.816 10.305 33.156 10.473
 c 33.496 10.645 33.781 10.926 34.008 11.324 c 34.234 11.719 34.434 12.23
 34.547 12.883 c 34.66 13.531 34.746 14.324 34.746 15.289 c f*
46.281 15.289 m 46.281 14.098 46.164 13.105 45.938 12.285 c 45.711 11.465
 45.43 10.816 45.031 10.332 c 44.637 9.824 44.184 9.457 43.645 9.23 c 43.133
 9.031 42.566 8.918 41.973 8.918 c 41.375 8.918 40.809 9.031 40.27 9.23 
c 39.762 9.457 39.309 9.824 38.91 10.305 c 38.543 10.816 38.23 11.465 38.004
 12.285 c 37.805 13.078 37.691 14.098 37.691 15.289 c 37.691 16.531 37.805
 17.582 38.004 18.371 c 38.23 19.195 38.543 19.844 38.938 20.328 c 39.309
 20.836 39.762 21.176 40.301 21.375 c 40.84 21.574 41.406 21.656 42.027 
21.656 c 42.625 21.656 43.16 21.574 43.672 21.375 c 44.211 21.176 44.664
 20.836 45.031 20.328 c 45.43 19.844 45.742 19.195 45.969 18.371 c 46.164
 17.582 46.281 16.531 46.281 15.289 c h
44.691 15.289 m 44.691 16.277 44.637 17.098 44.492 17.75 c 44.379 18.402
 44.211 18.91 43.984 19.309 c 43.758 19.703 43.473 19.957 43.16 20.129 c
 42.82 20.297 42.453 20.383 42.027 20.383 c 41.574 20.383 41.18 20.297 40.84
 20.129 c 40.496 19.957 40.215 19.676 39.988 19.309 c 39.762 18.91 39.59
 18.402 39.449 17.723 c 39.336 17.07 39.281 16.277 39.281 15.289 c 39.281
 14.324 39.336 13.531 39.477 12.883 c 39.59 12.23 39.762 11.719 39.988 11.324
 c 40.215 10.926 40.496 10.645 40.84 10.473 c 41.18 10.305 41.547 10.219
 41.973 10.219 c 42.398 10.219 42.766 10.305 43.105 10.473 c 43.445 10.645
 43.727 10.926 43.957 11.324 c 44.184 11.719 44.379 12.23 44.492 12.883 
c 44.605 13.531 44.691 14.324 44.691 15.289 c f*
0.796078 0.92549 0.870588 rg
113.359 40.398 113.504 -40.344 re f*
0.00392157 g
158.703 6.398 m 161.906 6.398 l 161.906 17.523 l 158.422 16.816 l 158.422
 18.629 l 161.906 19.336 l 163.863 19.336 l 163.863 6.398 l 167.094 6.398
 l 167.094 4.727 l 158.703 4.727 l 158.703 6.398 l f*
171.43 6.398 m 174.633 6.398 l 174.633 17.523 l 171.145 16.816 l 171.145
 18.629 l 174.633 19.336 l 176.586 19.336 l 176.586 6.398 l 179.816 6.398
 l 179.816 4.727 l 171.43 4.727 l 171.43 6.398 l f*
188.234 12.824 m 187.355 12.824 186.648 12.512 186.137 11.918 c 185.598
 11.297 185.344 10.473 185.344 9.426 c 185.344 8.352 185.598 7.531 186.137
 6.938 c 186.648 6.312 187.355 6 188.234 6 c 189.113 6 189.82 6.312 190.332
 6.938 c 190.871 7.531 191.125 8.352 191.125 9.426 c 191.125 10.473 190.871
 11.297 190.332 11.918 c 189.82 12.512 189.113 12.824 188.234 12.824 c h
192.145 18.996 m 192.145 17.211 l 191.664 17.438 191.152 17.609 190.645
 17.723 c 190.16 17.863 189.652 17.922 189.141 17.922 c 187.84 17.922 186.848
 17.469 186.164 16.59 c 185.484 15.711 185.09 14.41 185.004 12.625 c 185.371
 13.191 185.855 13.617 186.449 13.93 c 187.016 14.238 187.668 14.383 188.348
 14.383 c 189.82 14.383 190.984 13.93 191.836 13.051 c 192.684 12.145 193.109
 10.957 193.109 9.426 c 193.109 7.926 192.656 6.711 191.777 5.805 c 190.898
 4.898 189.707 4.445 188.234 4.445 c 186.562 4.445 185.258 5.094 184.379
 6.398 c 183.473 7.672 183.02 9.539 183.02 12.004 c 183.02 14.324 183.586
 16.164 184.664 17.523 c 185.77 18.883 187.242 19.59 189.086 19.59 c 189.566
 19.59 190.078 19.535 190.586 19.449 c 191.066 19.336 191.605 19.195 192.145
 18.996 c f*
196.707 7.219 m 198.746 7.219 l 198.746 5.52 l 197.16 2.406 l 195.887 2.406
 l 196.707 5.52 l 196.707 7.219 l f*
202.375 19.336 m 211.758 19.336 l 211.758 18.484 l 206.457 4.727 l 204.387
 4.727 l 209.375 17.664 l 202.375 17.664 l 202.375 19.336 l f*
221.535 12.598 m 222.496 12.398 223.234 11.977 223.773 11.324 c 224.281
 10.703 224.566 9.91 224.566 8.973 c 224.566 7.531 224.055 6.426 223.062
 5.633 c 222.07 4.84 220.684 4.445 218.84 4.445 c 218.246 4.445 217.594 
4.5 216.973 4.613 c 216.32 4.758 215.641 4.926 214.961 5.18 c 214.961 7.078
 l 215.496 6.766 216.094 6.512 216.746 6.34 c 217.395 6.199 218.074 6.113
 218.785 6.113 c 220.031 6.113 220.969 6.34 221.617 6.852 c 222.27 7.332
 222.582 8.039 222.582 8.973 c 222.582 9.824 222.301 10.504 221.676 10.984
 c 221.078 11.465 220.258 11.719 219.184 11.719 c 217.48 11.719 l 217.48
 13.336 l 219.238 13.336 l 220.23 13.336 220.969 13.531 221.477 13.93 c 
221.988 14.324 222.242 14.863 222.242 15.598 c 222.242 16.336 221.988 16.93
 221.449 17.324 c 220.91 17.723 220.172 17.922 219.184 17.922 c 218.645 
17.922 218.047 17.863 217.426 17.75 c 216.828 17.637 216.148 17.438 215.383
 17.184 c 215.383 18.969 l 216.148 19.164 216.828 19.309 217.508 19.422 
c 218.16 19.535 218.758 19.59 219.352 19.59 c 220.855 19.59 222.043 19.25
 222.895 18.57 c 223.773 17.891 224.227 16.957 224.227 15.797 c 224.227 
15.004 223.973 14.297 223.52 13.758 c 223.062 13.191 222.414 12.797 221.535
 12.598 c f*
0.796078 0.92549 0.870588 rg
226.863 40.398 113.613 -40.344 re f*
0.00392157 g
285.07 6.398 m 288.273 6.398 l 288.273 17.523 l 284.789 16.816 l 284.789
 18.629 l 288.273 19.336 l 290.23 19.336 l 290.23 6.398 l 293.461 6.398 
l 293.461 4.727 l 285.07 4.727 l 285.07 6.398 l f*
297.797 6.398 m 301 6.398 l 301 17.523 l 297.512 16.816 l 297.512 18.629
 l 301 19.336 l 302.953 19.336 l 302.953 6.398 l 306.188 6.398 l 306.188
 4.727 l 297.797 4.727 l 297.797 6.398 l f*
314.602 12.824 m 313.723 12.824 313.016 12.512 312.504 11.918 c 311.969
 11.297 311.711 10.473 311.711 9.426 c 311.711 8.352 311.969 7.531 312.504
 6.938 c 313.016 6.312 313.723 6 314.602 6 c 315.48 6 316.188 6.312 316.699
 6.938 c 317.238 7.531 317.492 8.352 317.492 9.426 c 317.492 10.473 317.238
 11.297 316.699 11.918 c 316.188 12.512 315.48 12.824 314.602 12.824 c h
318.512 18.996 m 318.512 17.211 l 318.031 17.438 317.52 17.609 317.012 
17.723 c 316.527 17.863 316.02 17.922 315.508 17.922 c 314.203 17.922 313.215
 17.469 312.535 16.59 c 311.855 15.711 311.457 14.41 311.371 12.625 c 311.738
 13.191 312.223 13.617 312.816 13.93 c 313.383 14.238 314.035 14.383 314.715
 14.383 c 316.188 14.383 317.352 13.93 318.203 13.051 c 319.051 12.145 319.477
 10.957 319.477 9.426 c 319.477 7.926 319.023 6.711 318.145 5.805 c 317.266
 4.898 316.074 4.445 314.602 4.445 c 312.93 4.445 311.629 5.094 310.746 
6.398 c 309.84 7.672 309.387 9.539 309.387 12.004 c 309.387 14.324 309.953
 16.164 311.031 17.523 c 312.137 18.883 313.609 19.59 315.453 19.59 c 315.934
 19.59 316.445 19.535 316.953 19.449 c 317.438 19.336 317.977 19.195 318.512
 18.996 c f*
323.074 7.219 m 325.117 7.219 l 325.117 5.52 l 323.527 2.406 l 322.254 
2.406 l 323.074 5.52 l 323.074 7.219 l f*
333.449 11.664 m 332.512 11.664 331.777 11.41 331.238 10.898 c 330.699 
10.418 330.445 9.711 330.445 8.832 c 330.445 7.957 330.699 7.277 331.238
 6.766 c 331.777 6.258 332.512 6 333.449 6 c 334.41 6 335.148 6.258 335.688
 6.766 c 336.227 7.277 336.48 7.957 336.48 8.832 c 336.48 9.711 336.227 
10.418 335.688 10.898 c 335.148 11.41 334.41 11.664 333.449 11.664 c h
331.492 12.512 m 330.645 12.711 329.992 13.105 329.508 13.672 c 329.027
 14.27 328.801 14.977 328.801 15.797 c 328.801 16.984 329.227 17.891 330.047
 18.57 c 330.871 19.25 332.004 19.59 333.449 19.59 c 334.922 19.59 336.055
 19.25 336.879 18.57 c 337.699 17.891 338.125 16.984 338.125 15.797 c 338.125
 14.977 337.898 14.27 337.414 13.672 c 336.934 13.105 336.281 12.711 335.434
 12.512 c 336.395 12.285 337.133 11.863 337.672 11.211 c 338.211 10.559 
338.465 9.766 338.465 8.832 c 338.465 7.418 338.039 6.34 337.16 5.578 c 
336.312 4.812 335.062 4.445 333.449 4.445 c 331.859 4.445 330.613 4.812 
329.766 5.578 c 328.887 6.34 328.461 7.418 328.461 8.832 c 328.461 9.766
 328.715 10.559 329.254 11.211 c 329.793 11.832 330.527 12.285 331.492 12.512
 c h
330.758 15.629 m 330.758 14.863 331.012 14.27 331.465 13.844 c 331.945 
13.418 332.598 13.219 333.449 13.219 c 334.301 13.219 334.98 13.418 335.461
 13.844 c 335.914 14.27 336.168 14.863 336.168 15.629 c 336.168 16.391 335.914
 16.957 335.461 17.383 c 334.98 17.809 334.301 18.035 333.449 18.035 c 332.598
 18.035 331.945 17.809 331.465 17.383 c 331.012 16.957 330.758 16.391 330.758
 15.629 c f*
0.796078 0.92549 0.870588 rg
340.477 40.398 113.332 -40.344 re f*
0.00392157 g
386.984 6.398 m 393.898 6.398 l 393.898 4.727 l 384.629 4.727 l 384.629
 6.398 l 385.367 7.164 386.387 8.211 387.691 9.512 c 388.965 10.816 389.789
 11.664 390.129 12.031 c 390.754 12.738 391.203 13.363 391.461 13.844 c 
391.688 14.324 391.828 14.805 391.828 15.289 c 391.828 16.082 391.547 16.703
 391.008 17.184 c 390.469 17.664 389.762 17.922 388.883 17.922 c 388.258
 17.922 387.605 17.809 386.926 17.609 c 386.246 17.383 385.508 17.07 384.715
 16.617 c 384.715 18.629 l 385.508 18.941 386.246 19.164 386.953 19.336 
c 387.633 19.504 388.258 19.59 388.852 19.59 c 390.355 19.59 391.547 19.195
 392.453 18.457 c 393.359 17.695 393.812 16.676 393.812 15.43 c 393.812 
14.805 393.699 14.238 393.473 13.703 c 393.246 13.164 392.848 12.543 392.254
 11.805 c 392.086 11.637 391.574 11.07 390.695 10.164 c 389.816 9.285 388.598
 8.012 386.984 6.398 c f*
397.523 19.336 m 406.906 19.336 l 406.906 18.484 l 401.605 4.727 l 399.539
 4.727 l 404.523 17.664 l 397.523 17.664 l 397.523 19.336 l f*
412.402 6.398 m 419.32 6.398 l 419.32 4.727 l 410.051 4.727 l 410.051 6.398
 l 410.789 7.164 411.809 8.211 413.113 9.512 c 414.387 10.816 415.211 11.664
 415.551 12.031 c 416.172 12.738 416.629 13.363 416.883 13.844 c 417.109
 14.324 417.25 14.805 417.25 15.289 c 417.25 16.082 416.965 16.703 416.43
 17.184 c 415.891 17.664 415.18 17.922 414.301 17.922 c 413.68 17.922 413.027
 17.809 412.348 17.609 c 411.668 17.383 410.93 17.07 410.137 16.617 c 410.137
 18.629 l 410.93 18.941 411.668 19.164 412.375 19.336 c 413.055 19.504 413.68
 19.59 414.273 19.59 c 415.777 19.59 416.965 19.195 417.871 18.457 c 418.781
 17.695 419.234 16.676 419.234 15.43 c 419.234 14.805 419.121 14.238 418.895
 13.703 c 418.668 13.164 418.27 12.543 417.676 11.805 c 417.504 11.637 416.996
 11.07 416.117 10.164 c 415.238 9.285 414.02 8.012 412.402 6.398 c f*
423.656 7.219 m 425.695 7.219 l 425.695 5.52 l 424.109 2.406 l 422.832 
2.406 l 423.656 5.52 l 423.656 7.219 l f*
429.891 5.039 m 429.891 6.824 l 430.371 6.598 430.883 6.426 431.391 6.285
 c 431.902 6.172 432.383 6.113 432.863 6.113 c 434.168 6.113 435.16 6.539
 435.867 7.418 c 436.551 8.293 436.945 9.625 437.031 11.41 c 436.664 10.844
 436.18 10.418 435.613 10.105 c 435.02 9.824 434.367 9.652 433.688 9.652
 c 432.215 9.652 431.051 10.105 430.199 10.984 c 429.352 11.891 428.926 
13.078 428.926 14.609 c 428.926 16.109 429.379 17.324 430.258 18.23 c 431.164
 19.137 432.328 19.59 433.801 19.59 c 435.5 19.59 436.777 18.941 437.656
 17.637 c 438.562 16.363 439.016 14.465 439.016 12.004 c 439.016 9.711 438.449
 7.871 437.371 6.512 c 436.266 5.125 434.82 4.445 432.98 4.445 c 432.469
 4.445 431.957 4.5 431.449 4.586 c 430.938 4.699 430.43 4.84 429.891 5.039
 c h
433.801 11.211 m 434.68 11.211 435.387 11.523 435.898 12.117 c 436.438 
12.738 436.691 13.559 436.691 14.609 c 436.691 15.684 436.438 16.504 435.898
 17.098 c 435.387 17.723 434.68 18.035 433.801 18.035 c 432.922 18.035 432.215
 17.723 431.703 17.098 c 431.191 16.504 430.91 15.684 430.91 14.609 c 430.91
 13.559 431.191 12.738 431.703 12.117 c 432.215 11.523 432.922 11.211 433.801
 11.211 c f*
442.02 19.336 m 451.398 19.336 l 451.398 18.484 l 446.102 4.727 l 444.031
 4.727 l 449.02 17.664 l 442.02 17.664 l 442.02 19.336 l f*
0.796078 0.92549 0.870588 rg
453.809 40.398 113.504 -40.344 re f*
0.00392157 g
499.152 6.398 m 502.355 6.398 l 502.355 17.523 l 498.867 16.816 l 498.867
 18.629 l 502.355 19.336 l 504.309 19.336 l 504.309 6.398 l 507.539 6.398
 l 507.539 4.727 l 499.152 4.727 l 499.152 6.398 l f*
511.879 6.398 m 515.078 6.398 l 515.078 17.523 l 511.594 16.816 l 511.594
 18.629 l 515.078 19.336 l 517.035 19.336 l 517.035 6.398 l 520.266 6.398
 l 520.266 4.727 l 511.879 4.727 l 511.879 6.398 l f*
528.684 12.824 m 527.805 12.824 527.098 12.512 526.586 11.918 c 526.047
 11.297 525.793 10.473 525.793 9.426 c 525.793 8.352 526.047 7.531 526.586
 6.938 c 527.098 6.312 527.805 6 528.684 6 c 529.562 6 530.27 6.312 530.781
 6.938 c 531.316 7.531 531.574 8.352 531.574 9.426 c 531.574 10.473 531.316
 11.297 530.781 11.918 c 530.27 12.512 529.562 12.824 528.684 12.824 c h
532.594 18.996 m 532.594 17.211 l 532.113 17.438 531.602 17.609 531.094
 17.723 c 530.609 17.863 530.102 17.922 529.59 17.922 c 528.285 17.922 527.293
 17.469 526.613 16.59 c 525.934 15.711 525.535 14.41 525.453 12.625 c 525.82
 13.191 526.301 13.617 526.898 13.93 c 527.465 14.238 528.117 14.383 528.797
 14.383 c 530.27 14.383 531.434 13.93 532.281 13.051 c 533.133 12.145 533.559
 10.957 533.559 9.426 c 533.559 7.926 533.105 6.711 532.227 5.805 c 531.348
 4.898 530.156 4.445 528.684 4.445 c 527.012 4.445 525.707 5.094 524.828
 6.398 c 523.922 7.672 523.469 9.539 523.469 12.004 c 523.469 14.324 524.035
 16.164 525.113 17.523 c 526.219 18.883 527.691 19.59 529.531 19.59 c 530.016
 19.59 530.523 19.535 531.035 19.449 c 531.516 19.336 532.055 19.195 532.594
 18.996 c f*
537.156 7.219 m 539.195 7.219 l 539.195 5.52 l 537.609 2.406 l 536.336 
2.406 l 537.156 5.52 l 537.156 7.219 l f*
542.824 19.336 m 552.203 19.336 l 552.203 18.484 l 546.906 4.727 l 544.836
 4.727 l 549.824 17.664 l 542.824 17.664 l 542.824 19.336 l f*
561.445 17.609 m 556.457 9.824 l 561.445 9.824 l h
560.934 19.336 m 563.398 19.336 l 563.398 9.824 l 565.496 9.824 l 565.496
 8.18 l 563.398 8.18 l 563.398 4.758 l 561.445 4.758 l 561.445 8.18 l 554.84
 8.18 l 554.84 10.078 l 560.934 19.336 l f*
0.796078 0.92549 0.870588 rg
567.309 40.398 113.418 -40.344 re f*
0.00392157 g
618.18 12.598 m 619.145 12.398 619.883 11.977 620.418 11.324 c 620.93 10.703
 621.215 9.91 621.215 8.973 c 621.215 7.531 620.703 6.426 619.711 5.633 
c 618.719 4.84 617.328 4.445 615.488 4.445 c 614.895 4.445 614.242 4.5 613.617
 4.613 c 612.965 4.758 612.285 4.926 611.605 5.18 c 611.605 7.078 l 612.145
 6.766 612.738 6.512 613.391 6.34 c 614.043 6.199 614.723 6.113 615.434 
6.113 c 616.68 6.113 617.613 6.34 618.266 6.852 c 618.918 7.332 619.23 8.039
 619.23 8.973 c 619.23 9.824 618.945 10.504 618.32 10.984 c 617.727 11.465
 616.906 11.719 615.828 11.719 c 614.129 11.719 l 614.129 13.336 l 615.887
 13.336 l 616.879 13.336 617.613 13.531 618.125 13.93 c 618.633 14.324 618.891
 14.863 618.891 15.598 c 618.891 16.336 618.633 16.93 618.094 17.324 c 617.559
 17.723 616.82 17.922 615.828 17.922 c 615.289 17.922 614.695 17.863 614.07
 17.75 c 613.477 17.637 612.797 17.438 612.031 17.184 c 612.031 18.969 l
 612.797 19.164 613.477 19.309 614.156 19.422 c 614.809 19.535 615.402 19.59
 615.996 19.59 c 617.5 19.59 618.691 19.25 619.539 18.57 c 620.418 17.891
 620.871 16.957 620.871 15.797 c 620.871 15.004 620.617 14.297 620.164 13.758
 c 619.711 13.191 619.059 12.797 618.18 12.598 c f*
629.148 18.035 m 628.156 18.035 627.391 17.523 626.883 16.531 c 626.371
 15.516 626.117 14.012 626.117 12.004 c 626.117 10.023 626.371 8.52 626.883
 7.5 c 627.391 6.512 628.156 6 629.148 6 c 630.195 6 630.961 6.512 631.473
 7.5 c 631.98 8.52 632.238 10.023 632.238 12.004 c 632.238 14.012 631.98
 15.516 631.473 16.531 c 630.961 17.523 630.195 18.035 629.148 18.035 c 
h
629.148 19.59 m 630.793 19.59 632.039 18.941 632.918 17.637 c 633.77 16.363
 634.191 14.465 634.191 12.004 c 634.191 9.57 633.77 7.672 632.918 6.398
 c 632.039 5.094 630.793 4.445 629.148 4.445 c 627.531 4.445 626.285 5.094
 625.406 6.398 c 624.559 7.672 624.133 9.57 624.133 12.004 c 624.133 14.465
 624.559 16.363 625.406 17.637 c 626.285 18.941 627.531 19.59 629.148 19.59
 c f*
641.844 18.035 m 640.852 18.035 640.086 17.523 639.578 16.531 c 639.066
 15.516 638.812 14.012 638.812 12.004 c 638.812 10.023 639.066 8.52 639.578
 7.5 c 640.086 6.512 640.852 6 641.844 6 c 642.895 6 643.656 6.512 644.168
 7.5 c 644.68 8.52 644.934 10.023 644.934 12.004 c 644.934 14.012 644.68
 15.516 644.168 16.531 c 643.656 17.523 642.895 18.035 641.844 18.035 c 
h
641.844 19.59 m 643.488 19.59 644.734 18.941 645.613 17.637 c 646.465 16.363
 646.891 14.465 646.891 12.004 c 646.891 9.57 646.465 7.672 645.613 6.398
 c 644.734 5.094 643.488 4.445 641.844 4.445 c 640.23 4.445 638.98 5.094
 638.105 6.398 c 637.254 7.672 636.828 9.57 636.828 12.004 c 636.828 14.465
 637.254 16.363 638.105 17.637 c 638.98 18.941 640.23 19.59 641.844 19.59
 c f*
650.574 7.219 m 652.613 7.219 l 652.613 5.52 l 651.027 2.406 l 649.75 2.406
 l 650.574 5.52 l 650.574 7.219 l f*
661.199 12.824 m 660.32 12.824 659.613 12.512 659.105 11.918 c 658.566 
11.297 658.309 10.473 658.309 9.426 c 658.309 8.352 658.566 7.531 659.105
 6.938 c 659.613 6.312 660.32 6 661.199 6 c 662.078 6 662.789 6.312 663.297
 6.938 c 663.836 7.531 664.09 8.352 664.09 9.426 c 664.09 10.473 663.836
 11.297 663.297 11.918 c 662.789 12.512 662.078 12.824 661.199 12.824 c 
h
665.109 18.996 m 665.109 17.211 l 664.629 17.438 664.121 17.609 663.609
 17.723 c 663.129 17.863 662.617 17.922 662.105 17.922 c 660.805 17.922 
659.812 17.469 659.133 16.59 c 658.453 15.711 658.055 14.41 657.969 12.625
 c 658.34 13.191 658.82 13.617 659.414 13.93 c 659.98 14.238 660.633 14.383
 661.312 14.383 c 662.789 14.383 663.949 13.93 664.801 13.051 c 665.648 
12.145 666.074 10.957 666.074 9.426 c 666.074 7.926 665.621 6.711 664.742
 5.805 c 663.863 4.898 662.676 4.445 661.199 4.445 c 659.527 4.445 658.227
 5.094 657.348 6.398 c 656.438 7.672 655.984 9.539 655.984 12.004 c 655.984
 14.324 656.555 16.164 657.629 17.523 c 658.734 18.883 660.211 19.59 662.051
 19.59 c 662.531 19.59 663.043 19.535 663.555 19.449 c 664.035 19.336 664.574
 19.195 665.109 18.996 c f*
669.789 6.398 m 672.988 6.398 l 672.988 17.523 l 669.504 16.816 l 669.504
 18.629 l 672.988 19.336 l 674.945 19.336 l 674.945 6.398 l 678.176 6.398
 l 678.176 4.727 l 669.789 4.727 l 669.789 6.398 l f*
1 g
538.348 182.43 m 535.258 182.43 l 533.586 189.594 l 533.527 189.82 533.473
 190.074 533.414 190.359 c 533.359 190.668 533.301 190.953 533.246 191.234
 c 533.188 191.574 533.133 191.887 533.074 192.254 c 533.02 191.887 532.934
 191.547 532.875 191.234 c 532.848 191.094 532.82 190.953 532.793 190.781
 c 532.766 190.641 532.734 190.5 532.707 190.359 c 532.68 190.215 532.621
 190.074 532.621 189.934 c 532.594 189.82 532.566 189.707 532.535 189.594
 c 530.863 182.43 l 527.777 182.43 l 524.602 194.832 l 527.207 194.832 l
 528.766 187.922 l 528.852 187.555 528.938 187.188 529.023 186.82 c 529.078
 186.453 529.164 186.141 529.223 185.828 c 529.305 185.516 529.363 185.176
 529.418 184.895 c 529.504 185.32 529.59 185.742 529.672 186.141 c 529.703
 186.336 529.73 186.508 529.789 186.707 c 529.816 186.875 529.871 187.074
 529.902 187.242 c 529.93 187.441 529.984 187.613 530.016 187.781 c 530.043
 187.953 530.098 188.094 530.129 188.234 c 531.656 194.832 l 534.547 194.832
 l 536.109 188.234 l 536.137 188.094 536.191 187.922 536.223 187.754 c 536.25
 187.582 536.277 187.414 536.332 187.215 c 536.363 187.047 536.391 186.848
 536.418 186.676 c 536.477 186.48 536.504 186.309 536.531 186.113 c 536.59
 185.715 536.672 185.289 536.73 184.895 c 536.816 185.207 536.871 185.547
 536.957 185.914 c 537.016 186.195 537.098 186.535 537.184 186.875 c 537.27
 187.242 537.324 187.582 537.41 187.922 c 538.914 194.832 l 541.547 194.832
 l 538.348 182.43 l f*
542.625 193.672 m 542.625 195.48 l 545.09 195.48 l 545.09 193.672 l h
542.625 182.43 m 542.625 191.945 l 545.09 191.945 l 545.09 182.43 l 542.625
 182.43 l f*
550.191 192.793 m 550.191 188.969 l 556.539 188.969 l 556.539 186.961 l
 550.191 186.961 l 550.191 182.402 l 547.586 182.402 l 547.586 194.801 l
 556.738 194.801 l 556.738 192.793 l 550.191 192.793 l f*
558.695 193.672 m 558.695 195.48 l 561.16 195.48 l 561.16 193.672 l h
558.695 182.43 m 558.695 191.945 l 561.16 191.945 l 561.16 182.43 l 558.695
 182.43 l f*
Q Q
showpage
%%Trailer
end restore
%%EOF
