%!PS-Adobe-3.0 EPSF-3.0
%%Creator: cairo 1.14.6 (http://cairographics.org)
%%CreationDate: Thu Dec  1 18:17:37 2016
%%Pages: 1
%%DocumentData: Clean7Bit
%%LanguageLevel: 2
%%BoundingBox: 0 0 681 220
%%EndComments
%%BeginProlog
save
50 dict begin
/q { gsave } bind def
/Q { grestore } bind def
/cm { 6 array astore concat } bind def
/w { setlinewidth } bind def
/J { setlinecap } bind def
/j { setlinejoin } bind def
/M { setmiterlimit } bind def
/d { setdash } bind def
/m { moveto } bind def
/l { lineto } bind def
/c { curveto } bind def
/h { closepath } bind def
/re { exch dup neg 3 1 roll 5 3 roll moveto 0 rlineto
      0 exch rlineto 0 rlineto closepath } bind def
/S { stroke } bind def
/f { fill } bind def
/f* { eofill } bind def
/n { newpath } bind def
/W { clip } bind def
/W* { eoclip } bind def
/BT { } bind def
/ET { } bind def
/pdfmark where { pop globaldict /?pdfmark /exec load put }
    { globaldict begin /?pdfmark /pop load def /pdfmark
    /cleartomark load def end } ifelse
/BDC { mark 3 1 roll /BDC pdfmark } bind def
/EMC { mark /EMC pdfmark } bind def
/cairo_store_point { /cairo_point_y exch def /cairo_point_x exch def } def
/Tj { show currentpoint cairo_store_point } bind def
/TJ {
  {
    dup
    type /stringtype eq
    { show } { -0.001 mul 0 cairo_font_matrix dtransform rmoveto } ifelse
  } forall
  currentpoint cairo_store_point
} bind def
/cairo_selectfont { cairo_font_matrix aload pop pop pop 0 0 6 array astore
    cairo_font exch selectfont cairo_point_x cairo_point_y moveto } bind def
/Tf { pop /cairo_font exch def /cairo_font_matrix where
      { pop cairo_selectfont } if } bind def
/Td { matrix translate cairo_font_matrix matrix concatmatrix dup
      /cairo_font_matrix exch def dup 4 get exch 5 get cairo_store_point
      /cairo_font where { pop cairo_selectfont } if } bind def
/Tm { 2 copy 8 2 roll 6 array astore /cairo_font_matrix exch def
      cairo_store_point /cairo_font where { pop cairo_selectfont } if } bind def
/g { setgray } bind def
/rg { setrgbcolor } bind def
/d1 { setcachedevice } bind def
%%EndProlog
%%BeginSetup
%%EndSetup
%%Page: 1 1
%%BeginPageSetup
%%PageBoundingBox: 0 0 681 220
%%EndPageSetup
q 0 0 681 220 rectclip q
0.00392157 0.8 0.6 rg
0.027 219.934 113.332 -49.547 re f*
113.359 219.934 113.504 -49.547 re f*
1 g
134.219 188.656 m 131.129 188.656 l 129.457 195.812 l 129.398 196.035 129.344
 196.289 129.285 196.574 c 129.23 196.887 129.176 197.168 129.117 197.449
 c 129.062 197.789 129.004 198.102 128.945 198.469 c 128.891 198.102 128.805
 197.762 128.746 197.449 c 128.719 197.309 128.691 197.168 128.664 196.996
 c 128.637 196.855 128.605 196.715 128.578 196.574 c 128.551 196.434 128.492
 196.289 128.492 196.148 c 128.465 196.035 128.438 195.926 128.41 195.812
 c 126.734 188.656 l 123.648 188.656 l 120.473 201.043 l 123.078 201.043
 l 124.641 194.141 l 124.723 193.773 124.809 193.406 124.895 193.039 c 124.949
 192.672 125.035 192.359 125.094 192.051 c 125.18 191.738 125.234 191.398
 125.289 191.117 c 125.375 191.539 125.461 191.965 125.547 192.359 c 125.574
 192.559 125.602 192.727 125.66 192.926 c 125.688 193.098 125.746 193.293
 125.773 193.465 c 125.801 193.66 125.859 193.832 125.887 194 c 125.914 
194.172 125.973 194.312 126 194.453 c 127.531 201.043 l 130.422 201.043 
l 131.98 194.453 l 132.008 194.312 132.062 194.141 132.094 193.973 c 132.121
 193.805 132.148 193.633 132.207 193.434 c 132.234 193.266 132.262 193.066
 132.289 192.898 c 132.348 192.699 132.375 192.531 132.402 192.332 c 132.461
 191.938 132.547 191.512 132.602 191.117 c 132.688 191.426 132.746 191.766
 132.828 192.133 c 132.887 192.418 132.973 192.758 133.055 193.098 c 133.141
 193.465 133.199 193.805 133.281 194.141 c 134.785 201.043 l 137.422 201.043
 l 134.219 188.656 l f*
138.496 199.883 m 138.496 201.691 l 140.965 201.691 l 140.965 199.883 l
 h
138.496 188.656 m 138.496 198.156 l 140.965 198.156 l 140.965 188.656 l
 138.496 188.656 l f*
146.062 199.008 m 146.062 195.188 l 152.414 195.188 l 152.414 193.18 l 
146.062 193.18 l 146.062 188.629 l 143.457 188.629 l 143.457 201.016 l 152.609
 201.016 l 152.609 199.008 l 146.062 199.008 l f*
154.566 199.883 m 154.566 201.691 l 157.031 201.691 l 157.031 199.883 l
 h
154.566 188.656 m 154.566 198.156 l 157.031 198.156 l 157.031 188.656 l
 154.566 188.656 l f*
159.07 194.398 4.566 -2.152 re f*
178.117 188.656 m 175.027 188.656 l 173.355 195.812 l 173.301 196.035 173.242
 196.289 173.188 196.574 c 173.129 196.887 173.07 197.168 173.016 197.449
 c 172.961 197.789 172.902 198.102 172.848 198.469 c 172.789 198.102 172.703
 197.762 172.648 197.449 c 172.617 197.309 172.59 197.168 172.562 196.996
 c 172.535 196.855 172.504 196.715 172.477 196.574 c 172.449 196.434 172.391
 196.289 172.391 196.148 c 172.363 196.035 172.336 195.926 172.309 195.812
 c 170.637 188.656 l 167.547 188.656 l 164.371 201.043 l 166.98 201.043 
l 168.539 194.141 l 168.621 193.773 168.707 193.406 168.793 193.039 c 168.852
 192.672 168.934 192.359 168.992 192.051 c 169.078 191.738 169.133 191.398
 169.191 191.117 c 169.273 191.539 169.359 191.965 169.445 192.359 c 169.473
 192.559 169.504 192.727 169.559 192.926 c 169.586 193.098 169.645 193.293
 169.672 193.465 c 169.699 193.66 169.758 193.832 169.785 194 c 169.812 
194.172 169.871 194.312 169.898 194.453 c 171.43 201.043 l 174.32 201.043
 l 175.879 194.453 l 175.906 194.312 175.965 194.141 175.992 193.973 c 176.02
 193.805 176.047 193.633 176.105 193.434 c 176.133 193.266 176.16 193.066
 176.191 192.898 c 176.246 192.699 176.273 192.531 176.305 192.332 c 176.359
 191.938 176.445 191.512 176.504 191.117 c 176.586 191.426 176.645 191.766
 176.727 192.133 c 176.785 192.418 176.871 192.758 176.953 193.098 c 177.039
 193.465 177.098 193.805 177.184 194.141 c 178.684 201.043 l 181.32 201.043
 l 178.117 188.656 l f*
182.395 199.883 m 182.395 201.691 l 184.863 201.691 l 184.863 199.883 l
 h
182.395 188.656 m 182.395 198.156 l 184.863 198.156 l 184.863 188.656 l
 182.395 188.656 l f*
189.992 199.008 m 189.992 195.188 l 196.34 195.188 l 196.34 193.18 l 189.992
 193.18 l 189.992 188.629 l 187.383 188.629 l 187.383 201.016 l 196.539 
201.016 l 196.539 199.008 l 189.992 199.008 l f*
198.465 199.883 m 198.465 201.691 l 200.93 201.691 l 200.93 199.883 l h
198.465 188.656 m 198.465 198.156 l 200.93 198.156 l 200.93 188.656 l 198.465
 188.656 l f*
0.00392157 0.8 0.6 rg
226.863 219.934 226.945 -49.547 re f*
1 g
312.191 188.656 m 309.105 188.656 l 307.434 195.812 l 307.375 196.035 307.32
 196.289 307.262 196.574 c 307.203 196.887 307.148 197.168 307.094 197.449
 c 307.035 197.789 306.98 198.102 306.922 198.469 c 306.867 198.102 306.781
 197.762 306.723 197.449 c 306.695 197.309 306.668 197.168 306.641 196.996
 c 306.609 196.855 306.582 196.715 306.555 196.574 c 306.523 196.434 306.469
 196.289 306.469 196.148 c 306.441 196.035 306.41 195.926 306.383 195.812
 c 304.711 188.656 l 301.621 188.656 l 298.449 201.043 l 301.055 201.043
 l 302.613 194.141 l 302.699 193.773 302.785 193.406 302.871 193.039 c 302.926
 192.672 303.012 192.359 303.066 192.051 c 303.152 191.738 303.211 191.398
 303.266 191.117 c 303.352 191.539 303.438 191.965 303.52 192.359 c 303.551
 192.559 303.578 192.727 303.637 192.926 c 303.664 193.098 303.719 193.293
 303.746 193.465 c 303.777 193.66 303.832 193.832 303.859 194 c 303.891 
194.172 303.945 194.312 303.977 194.453 c 305.504 201.043 l 308.395 201.043
 l 309.953 194.453 l 309.984 194.312 310.039 194.141 310.066 193.973 c 310.098
 193.805 310.125 193.633 310.18 193.434 c 310.211 193.266 310.238 193.066
 310.266 192.898 c 310.324 192.699 310.352 192.531 310.379 192.332 c 310.438
 191.938 310.52 191.512 310.578 191.117 c 310.664 191.426 310.719 191.766
 310.805 192.133 c 310.859 192.418 310.945 192.758 311.031 193.098 c 311.117
 193.465 311.172 193.805 311.258 194.141 c 312.762 201.043 l 315.395 201.043
 l 312.191 188.656 l f*
316.473 199.883 m 316.473 201.691 l 318.938 201.691 l 318.938 199.883 l
 h
316.473 188.656 m 316.473 198.156 l 318.938 198.156 l 318.938 188.656 l
 316.473 188.656 l f*
324.039 199.008 m 324.039 195.188 l 330.387 195.188 l 330.387 193.18 l 
324.039 193.18 l 324.039 188.629 l 321.434 188.629 l 321.434 201.016 l 330.586
 201.016 l 330.586 199.008 l 324.039 199.008 l f*
332.539 199.883 m 332.539 201.691 l 335.008 201.691 l 335.008 199.883 l
 h
332.539 188.656 m 332.539 198.156 l 335.008 198.156 l 335.008 188.656 l
 332.539 188.656 l f*
337.047 194.398 4.562 -2.152 re f*
343.508 188.656 m 343.508 201.043 l 346.117 201.043 l 346.117 190.664 l
 352.746 190.664 l 352.746 188.656 l 343.508 188.656 l f*
357.055 188.484 m 356.348 188.516 355.781 188.684 355.383 189.078 c 354.988
 189.477 354.789 190.098 354.789 190.891 c 354.789 196.488 l 353.598 196.488
 l 353.598 198.156 l 354.93 198.156 l 355.695 200.391 l 357.227 200.391 
l 357.227 198.156 l 359.039 198.156 l 359.039 196.488 l 357.227 196.488 
l 357.227 191.57 l 357.227 191.09 357.34 190.746 357.508 190.523 c 357.68
 190.324 357.965 190.211 358.332 190.211 c 358.473 190.211 358.613 190.211
 358.727 190.238 c 358.84 190.27 358.984 190.297 359.152 190.324 c 359.152
 188.797 l 358.84 188.715 358.527 188.629 358.188 188.57 c 357.848 188.516
 357.453 188.516 357.055 188.484 c f*
364.539 188.484 m 363.855 188.484 363.234 188.598 362.668 188.797 c 362.129
 188.996 361.676 189.305 361.277 189.703 c 360.883 190.129 360.598 190.637
 360.398 191.258 c 360.172 191.879 360.09 192.613 360.09 193.465 c 360.09
 194.367 360.203 195.133 360.457 195.754 c 360.684 196.348 361.023 196.855
 361.422 197.254 c 361.844 197.621 362.328 197.902 362.863 198.074 c 363.402
 198.242 363.973 198.328 364.566 198.328 c 365.305 198.328 365.953 198.188
 366.492 197.934 c 367.004 197.676 367.457 197.309 367.797 196.828 c 368.137
 196.375 368.391 195.812 368.531 195.16 c 368.703 194.48 368.762 193.773
 368.762 192.984 c 362.668 192.984 l 362.668 192.559 362.723 192.191 362.781
 191.852 c 362.836 191.512 362.98 191.199 363.121 190.945 c 363.289 190.691
 363.488 190.492 363.742 190.352 c 364 190.211 364.281 190.129 364.652 190.129
 c 365.074 190.129 365.445 190.238 365.727 190.41 c 365.984 190.605 366.18
 190.891 366.297 191.258 c 368.617 191.059 l 368.531 190.805 368.391 190.523
 368.191 190.211 c 367.996 189.898 367.738 189.617 367.43 189.363 c 367.117
 189.109 366.719 188.91 366.238 188.742 c 365.785 188.57 365.188 188.484
 364.539 188.484 c h
364.539 196.773 m 364.281 196.773 364.027 196.742 363.828 196.66 c 363.602
 196.574 363.402 196.434 363.262 196.234 c 363.094 196.066 362.949 195.812
 362.863 195.527 c 362.754 195.246 362.695 194.879 362.695 194.48 c 366.379
 194.48 l 366.324 195.246 366.152 195.812 365.84 196.207 c 365.5 196.574
 365.074 196.773 364.539 196.773 c f*
375.676 188.484 m 374.91 188.484 374.203 188.57 373.551 188.77 c 372.898
 188.938 372.359 189.223 371.879 189.617 c 371.426 190.012 371.055 190.523
 370.801 191.117 c 370.547 191.738 370.402 192.445 370.402 193.293 c 370.402
 201.043 l 373.012 201.043 l 373.012 193.492 l 373.012 192.984 373.066 192.531
 373.18 192.164 c 373.324 191.766 373.492 191.453 373.746 191.23 c 373.977
 190.977 374.285 190.805 374.629 190.691 c 374.965 190.578 375.336 190.523
 375.762 190.523 c 376.184 190.523 376.555 190.578 376.922 190.691 c 377.262
 190.805 377.574 191.004 377.828 191.258 c 378.086 191.512 378.281 191.824
 378.426 192.219 c 378.566 192.586 378.621 193.039 378.621 193.578 c 378.621
 201.043 l 381.23 201.043 l 381.23 193.434 l 381.23 192.586 381.09 191.852
 380.805 191.23 c 380.551 190.605 380.152 190.098 379.672 189.676 c 379.16
 189.277 378.594 188.969 377.914 188.77 c 377.234 188.57 376.496 188.484
 375.676 188.484 c f*
0.00392157 0.8 0.6 rg
453.809 219.934 226.918 -49.547 re f*
1 g
565.102 194.398 4.562 -2.152 re f*
571.59 188.656 m 571.59 201.043 l 574.195 201.043 l 574.195 190.664 l 580.828
 190.664 l 580.828 188.656 l 571.59 188.656 l f*
586.781 199.035 m 586.781 188.684 l 584.172 188.684 l 584.172 199.035 l
 580.176 199.035 l 580.176 201.043 l 590.777 201.043 l 590.777 199.035 l
 586.781 199.035 l f*
592.223 188.656 m 592.223 201.016 l 601.969 201.016 l 601.969 199.008 l
 594.828 199.008 l 594.828 195.926 l 601.434 195.926 l 601.434 193.914 l
 594.828 193.914 l 594.828 190.664 l 602.34 190.664 l 602.34 188.656 l 592.223
 188.656 l f*
0.00392157 0.8 0.6 rg
0.027 170.387 113.332 -49.547 re f*
1 g
14.539 139.137 m 14.512 139.195 14.512 139.277 14.48 139.391 c 14.48 139.535
 14.453 139.645 14.453 139.816 c 14.426 139.957 14.426 140.129 14.426 140.27
 c 14.398 140.438 14.398 140.578 14.398 140.691 c 14.367 140.691 l 14.086
 140.098 13.688 139.645 13.148 139.391 c 12.641 139.109 12.043 138.969 11.336
 138.969 c 10.711 138.969 10.203 139.109 9.777 139.336 c 9.324 139.59 8.984
 139.93 8.699 140.383 c 8.418 140.805 8.191 141.344 8.047 141.938 c 7.906
 142.531 7.852 143.184 7.852 143.891 c 7.852 144.625 7.934 145.273 8.078
 145.867 c 8.219 146.488 8.445 147 8.73 147.426 c 9.039 147.875 9.41 148.215
 9.863 148.441 c 10.316 148.695 10.883 148.84 11.508 148.84 c 11.816 148.84
 12.129 148.781 12.414 148.727 c 12.695 148.668 12.953 148.555 13.207 148.441
 c 13.461 148.301 13.66 148.129 13.859 147.902 c 14.055 147.707 14.227 147.453
 14.367 147.141 c 14.398 147.141 l 14.398 148.242 l 14.367 148.414 14.367
 148.555 14.367 148.695 c 14.367 152.176 l 16.863 152.176 l 16.863 139.984
 l 16.891 139.617 16.918 139.336 16.918 139.137 c h
14.426 143.945 m 14.426 144.566 14.367 145.105 14.227 145.5 c 14.113 145.926
 13.973 146.266 13.773 146.488 c 13.574 146.746 13.375 146.914 13.121 147
 c 12.895 147.113 12.641 147.141 12.387 147.141 c 12.074 147.141 11.789 
147.086 11.535 146.973 c 11.309 146.828 11.109 146.66 10.938 146.379 c 10.77
 146.121 10.629 145.785 10.543 145.387 c 10.457 144.965 10.43 144.48 10.43
 143.891 c 10.43 141.738 11.082 140.664 12.355 140.664 c 12.609 140.664 
12.867 140.723 13.094 140.836 c 13.348 140.918 13.574 141.117 13.773 141.371
 c 13.973 141.598 14.113 141.938 14.227 142.363 c 14.367 142.785 14.426 
143.324 14.426 143.945 c f*
19.383 150.363 m 19.383 152.176 l 21.852 152.176 l 21.852 150.363 l h
19.383 139.137 m 19.383 148.641 l 21.852 148.641 l 21.852 139.137 l 19.383
 139.137 l f*
32.449 141.91 m 32.449 141.457 32.363 141.062 32.164 140.691 c 31.969 140.324
 31.711 140.016 31.344 139.762 c 30.977 139.504 30.523 139.309 30.012 139.164
 c 29.473 139.023 28.879 138.969 28.199 138.969 c 27.602 138.969 27.066 
139.023 26.555 139.109 c 26.074 139.195 25.648 139.336 25.281 139.535 c 
24.91 139.73 24.629 139.984 24.371 140.324 c 24.117 140.637 23.949 141.031
 23.805 141.512 c 25.988 141.824 l 26.043 141.57 26.156 141.371 26.27 141.203
 c 26.383 141.031 26.555 140.918 26.723 140.805 c 26.922 140.723 27.121 
140.664 27.375 140.637 c 27.602 140.609 27.887 140.609 28.199 140.609 c 
28.48 140.609 28.738 140.609 28.992 140.637 c 29.219 140.691 29.445 140.75
 29.613 140.805 c 29.785 140.891 29.926 141.004 30.039 141.145 c 30.125 
141.285 30.184 141.484 30.184 141.684 c 30.184 141.938 30.125 142.137 29.984
 142.277 c 29.812 142.418 29.645 142.531 29.391 142.617 c 29.133 142.699
 28.852 142.785 28.512 142.871 c 28.168 142.926 27.801 143.012 27.434 143.098
 c 27.035 143.184 26.641 143.297 26.242 143.406 c 25.875 143.52 25.508 143.691
 25.223 143.918 c 24.91 144.113 24.656 144.371 24.484 144.711 c 24.289 145.02
 24.203 145.445 24.203 145.926 c 24.203 146.379 24.289 146.801 24.457 147.141
 c 24.629 147.508 24.883 147.789 25.223 148.047 c 25.562 148.301 25.988 
148.469 26.496 148.609 c 26.98 148.754 27.574 148.809 28.227 148.809 c 28.738
 148.809 29.219 148.754 29.672 148.668 c 30.098 148.582 30.492 148.414 30.863
 148.215 c 31.203 147.988 31.484 147.734 31.742 147.426 c 31.969 147.086
 32.137 146.719 32.223 146.234 c 30.039 146.012 l 30.012 146.234 29.926 
146.434 29.812 146.574 c 29.727 146.746 29.586 146.859 29.445 146.941 c 
29.277 147.027 29.105 147.086 28.906 147.113 c 28.68 147.141 28.453 147.168
 28.227 147.168 c 27.633 147.168 27.18 147.086 26.895 146.941 c 26.609 146.801
 26.469 146.547 26.469 146.207 c 26.469 145.98 26.527 145.812 26.641 145.672
 c 26.754 145.559 26.922 145.445 27.148 145.359 c 27.375 145.273 27.633 
145.188 27.945 145.133 c 28.227 145.078 28.566 144.992 28.906 144.906 c 
29.359 144.82 29.785 144.711 30.211 144.598 c 30.637 144.453 31.031 144.285
 31.344 144.059 c 31.684 143.859 31.938 143.578 32.137 143.238 c 32.363 
142.871 32.449 142.445 32.449 141.91 c f*
36.844 138.969 m 36.133 138.996 35.566 139.164 35.168 139.562 c 34.773 
139.957 34.574 140.578 34.574 141.371 c 34.574 146.973 l 33.383 146.973 
l 33.383 148.641 l 34.715 148.641 l 35.48 150.875 l 37.012 150.875 l 37.012
 148.641 l 38.824 148.641 l 38.824 146.973 l 37.012 146.973 l 37.012 142.051
 l 37.012 141.57 37.125 141.23 37.297 141.004 c 37.465 140.805 37.75 140.691
 38.117 140.691 c 38.258 140.691 38.402 140.691 38.516 140.723 c 38.629 
140.75 38.77 140.777 38.938 140.805 c 38.938 139.277 l 38.629 139.195 38.316
 139.109 37.977 139.055 c 37.637 138.996 37.238 138.996 36.844 138.969 c
 f*
42.594 138.969 m 42.141 138.969 41.715 139.023 41.375 139.164 c 41.008 
139.277 40.695 139.477 40.441 139.703 c 40.188 139.957 39.988 140.27 39.875
 140.609 c 39.734 140.977 39.676 141.371 39.676 141.824 c 39.676 142.391
 39.762 142.871 39.961 143.266 c 40.156 143.633 40.414 143.945 40.754 144.199
 c 41.094 144.426 41.488 144.598 41.973 144.711 c 42.426 144.82 42.906 144.879
 43.418 144.879 c 45.457 144.879 l 45.457 145.359 l 45.457 145.699 45.43
 146.012 45.371 146.234 c 45.316 146.461 45.23 146.66 45.117 146.801 c 44.977
 146.941 44.836 147.055 44.664 147.113 c 44.492 147.168 44.297 147.227 44.07
 147.227 c 43.871 147.227 43.699 147.195 43.531 147.141 c 43.359 147.113
 43.219 147.055 43.105 146.941 c 42.992 146.859 42.906 146.719 42.82 146.547
 c 42.738 146.406 42.707 146.18 42.68 145.926 c 40.102 145.926 l 40.156 
146.348 40.301 146.746 40.469 147.086 c 40.668 147.453 40.922 147.734 41.262
 147.988 c 41.602 148.273 42 148.469 42.48 148.609 c 42.965 148.754 43.531
 148.809 44.184 148.809 c 44.777 148.809 45.289 148.727 45.77 148.582 c 
46.223 148.441 46.617 148.215 46.93 147.934 c 47.27 147.648 47.496 147.281
 47.668 146.859 c 47.84 146.461 47.922 145.953 47.922 145.414 c 47.922 141.938
 l 47.922 141.738 47.953 141.539 47.953 141.344 c 47.98 141.176 48.035 141.031
 48.066 140.918 c 48.121 140.777 48.207 140.691 48.32 140.637 c 48.406 140.578
 48.547 140.551 48.715 140.551 c 48.914 140.551 49.086 140.551 49.254 140.609
 c 49.254 139.277 l 49.113 139.223 48.973 139.195 48.859 139.164 c 48.746
 139.137 48.633 139.109 48.52 139.109 c 48.406 139.082 48.262 139.082 48.148
 139.055 c 48.008 139.055 47.867 139.023 47.668 139.023 c 47.043 139.023
 46.59 139.195 46.309 139.504 c 45.996 139.789 45.824 140.242 45.77 140.836
 c 45.711 140.836 l 45.402 140.242 44.977 139.789 44.465 139.449 c 43.957
 139.137 43.332 138.969 42.594 138.969 c h
45.457 143.52 m 44.211 143.52 l 43.926 143.52 43.672 143.492 43.445 143.465
 c 43.219 143.438 42.992 143.379 42.82 143.266 c 42.652 143.152 42.512 143.012
 42.398 142.812 c 42.281 142.617 42.227 142.363 42.227 142.023 c 42.227 
141.57 42.34 141.23 42.539 141.031 c 42.766 140.805 43.047 140.691 43.391
 140.691 c 43.699 140.691 43.984 140.75 44.238 140.891 c 44.492 141.031 
44.719 141.203 44.891 141.43 c 45.09 141.625 45.203 141.883 45.316 142.164
 c 45.402 142.445 45.457 142.758 45.457 143.039 c 45.457 143.52 l f*
56.539 139.137 m 56.539 144.48 l 56.539 144.852 56.512 145.16 56.453 145.473
 c 56.398 145.785 56.281 146.066 56.141 146.266 c 56.027 146.488 55.828 
146.66 55.633 146.773 c 55.406 146.914 55.148 146.973 54.84 146.973 c 54.527
 146.973 54.27 146.914 54.016 146.773 c 53.789 146.633 53.562 146.461 53.395
 146.207 c 53.223 145.98 53.082 145.672 52.996 145.332 c 52.883 144.992 
52.824 144.625 52.824 144.227 c 52.824 139.137 l 50.359 139.137 l 50.359
 147.82 l 50.332 148.02 50.332 148.188 50.332 148.328 c 50.332 148.496 50.305
 148.582 50.305 148.582 c 52.656 148.582 l 52.656 148.496 52.684 148.387
 52.684 148.242 c 52.711 148.102 52.711 147.934 52.711 147.762 c 52.742 
147.566 52.742 147.395 52.77 147.195 c 52.77 146.746 l 52.797 146.746 l 
53.137 147.48 53.562 148.02 54.074 148.328 c 54.555 148.668 55.18 148.809
 55.859 148.809 c 56.426 148.809 56.906 148.727 57.305 148.555 c 57.699 
148.355 58.039 148.102 58.297 147.762 c 58.523 147.453 58.719 147.055 58.836
 146.605 c 58.949 146.18 59.004 145.699 59.004 145.16 c 59.004 139.137 l
 56.539 139.137 l f*
65.352 138.969 m 64.613 138.969 63.934 139.082 63.367 139.309 c 62.801 
139.562 62.348 139.871 61.98 140.297 c 61.582 140.75 61.301 141.258 61.129
 141.852 c 60.93 142.445 60.848 143.125 60.848 143.832 c 60.848 144.625 
60.93 145.332 61.156 145.953 c 61.355 146.574 61.641 147.086 62.035 147.508
 c 62.434 147.934 62.887 148.242 63.453 148.469 c 64.02 148.695 64.672 148.809
 65.379 148.809 c 66.004 148.809 66.543 148.727 67.023 148.555 c 67.508 
148.387 67.93 148.16 68.27 147.875 c 68.609 147.594 68.895 147.254 69.094
 146.859 c 69.32 146.461 69.461 146.039 69.547 145.586 c 67.051 145.586 
l 66.996 146.039 66.824 146.434 66.543 146.688 c 66.258 146.973 65.863 147.113
 65.352 147.113 c 64.672 147.113 64.191 146.828 63.879 146.293 c 63.594 
145.754 63.426 144.965 63.426 143.945 c 63.426 141.738 64.078 140.664 65.379
 140.664 c 65.836 140.664 66.23 140.805 66.543 141.09 c 66.883 141.371 67.051
 141.797 67.137 142.363 c 69.633 142.363 l 69.547 141.91 69.434 141.484 
69.207 141.09 c 69.008 140.664 68.723 140.297 68.383 139.984 c 68.016 139.676
 67.59 139.449 67.082 139.25 c 66.57 139.055 66.004 138.969 65.352 138.969
 c f*
75.27 138.969 m 74.59 138.969 73.969 139.082 73.402 139.277 c 72.863 139.477
 72.41 139.789 72.012 140.184 c 71.613 140.609 71.332 141.117 71.133 141.738
 c 70.906 142.363 70.82 143.098 70.82 143.945 c 70.82 144.852 70.934 145.613
 71.191 146.234 c 71.418 146.828 71.758 147.34 72.152 147.734 c 72.578 148.102
 73.059 148.387 73.598 148.555 c 74.137 148.727 74.703 148.809 75.301 148.809
 c 76.035 148.809 76.688 148.668 77.227 148.414 c 77.738 148.16 78.191 147.789
 78.531 147.312 c 78.871 146.859 79.125 146.293 79.266 145.641 c 79.438 
144.965 79.492 144.258 79.492 143.465 c 73.402 143.465 l 73.402 143.039 
73.457 142.672 73.516 142.332 c 73.57 141.992 73.711 141.684 73.855 141.43
 c 74.023 141.176 74.223 140.977 74.477 140.836 c 74.73 140.691 75.016 140.609
 75.383 140.609 c 75.809 140.609 76.176 140.723 76.461 140.891 c 76.715 
141.09 76.914 141.371 77.027 141.738 c 79.352 141.539 l 79.266 141.285 79.125
 141.004 78.926 140.691 c 78.727 140.383 78.473 140.098 78.16 139.844 c 
77.852 139.59 77.453 139.391 76.973 139.223 c 76.52 139.055 75.922 138.969
 75.27 138.969 c h
75.27 147.254 m 75.016 147.254 74.762 147.227 74.562 147.141 c 74.336 147.055
 74.137 146.914 73.996 146.719 c 73.824 146.547 73.684 146.293 73.598 146.012
 c 73.484 145.727 73.43 145.359 73.43 144.965 c 77.113 144.965 l 77.055 
145.727 76.887 146.293 76.574 146.688 c 76.234 147.055 75.809 147.254 75.27
 147.254 c f*
0.00392157 0.8 0.6 rg
113.359 170.387 113.504 -49.547 re f*
226.863 170.387 113.613 -49.547 re f*
1 g
247.719 139.137 m 244.633 139.137 l 242.961 146.293 l 242.902 146.52 242.844
 146.773 242.789 147.055 c 242.73 147.367 242.676 147.648 242.617 147.934
 c 242.562 148.273 242.504 148.582 242.449 148.949 c 242.391 148.582 242.309
 148.242 242.25 147.934 c 242.223 147.789 242.195 147.648 242.164 147.48
 c 242.137 147.34 242.109 147.195 242.078 147.055 c 242.051 146.914 241.996
 146.773 241.996 146.633 c 241.969 146.52 241.938 146.406 241.91 146.293
 c 240.238 139.137 l 237.148 139.137 l 233.977 151.523 l 236.582 151.523
 l 238.141 144.625 l 238.227 144.258 238.312 143.891 238.395 143.52 c 238.453
 143.152 238.539 142.844 238.594 142.531 c 238.68 142.219 238.734 141.883
 238.793 141.598 c 238.879 142.023 238.965 142.445 239.047 142.844 c 239.074
 143.039 239.105 143.211 239.16 143.406 c 239.188 143.578 239.246 143.773
 239.273 143.945 c 239.305 144.145 239.359 144.312 239.387 144.48 c 239.414
 144.652 239.473 144.793 239.5 144.934 c 241.031 151.523 l 243.922 151.523
 l 245.48 144.934 l 245.508 144.793 245.566 144.625 245.594 144.453 c 245.621
 144.285 245.652 144.113 245.707 143.918 c 245.734 143.746 245.766 143.551
 245.793 143.379 c 245.852 143.184 245.879 143.012 245.906 142.812 c 245.965
 142.418 246.047 141.992 246.105 141.598 c 246.188 141.91 246.246 142.246
 246.332 142.617 c 246.387 142.898 246.473 143.238 246.559 143.578 c 246.645
 143.945 246.699 144.285 246.785 144.625 c 248.285 151.523 l 250.922 151.523
 l 247.719 139.137 l f*
252 150.363 m 252 152.176 l 254.465 152.176 l 254.465 150.363 l h
252 139.137 m 252 148.641 l 254.465 148.641 l 254.465 139.137 l 252 139.137
 l f*
259.566 149.488 m 259.566 145.672 l 265.914 145.672 l 265.914 143.664 l
 259.566 143.664 l 259.566 139.109 l 256.961 139.109 l 256.961 151.496 l
 266.113 151.496 l 266.113 149.488 l 259.566 149.488 l f*
268.066 150.363 m 268.066 152.176 l 270.535 152.176 l 270.535 150.363 l
 h
268.066 139.137 m 268.066 148.641 l 270.535 148.641 l 270.535 139.137 l
 268.066 139.137 l f*
0.00392157 0.8 0.6 rg
340.477 170.387 113.332 -49.547 re f*
1 g
353.797 139.137 m 353.797 151.523 l 356.402 151.523 l 356.402 141.145 l
 363.035 141.145 l 363.035 139.137 l 353.797 139.137 l f*
367.316 138.969 m 366.605 138.996 366.039 139.164 365.645 139.562 c 365.246
 139.957 365.047 140.578 365.047 141.371 c 365.047 146.973 l 363.855 146.973
 l 363.855 148.641 l 365.188 148.641 l 365.953 150.875 l 367.484 150.875
 l 367.484 148.641 l 369.297 148.641 l 369.297 146.973 l 367.484 146.973
 l 367.484 142.051 l 367.484 141.57 367.598 141.23 367.77 141.004 c 367.938
 140.805 368.223 140.691 368.59 140.691 c 368.73 140.691 368.871 140.691
 368.988 140.723 c 369.102 140.75 369.242 140.777 369.41 140.805 c 369.41
 139.277 l 369.102 139.195 368.789 139.109 368.449 139.055 c 368.109 138.996
 367.711 138.996 367.316 138.969 c f*
374.797 138.969 m 374.117 138.969 373.492 139.082 372.926 139.277 c 372.387
 139.477 371.934 139.789 371.539 140.184 c 371.141 140.609 370.855 141.117
 370.66 141.738 c 370.434 142.363 370.348 143.098 370.348 143.945 c 370.348
 144.852 370.461 145.613 370.715 146.234 c 370.941 146.828 371.281 147.34
 371.68 147.734 c 372.105 148.102 372.586 148.387 373.125 148.555 c 373.664
 148.727 374.23 148.809 374.824 148.809 c 375.562 148.809 376.215 148.668
 376.754 148.414 c 377.262 148.16 377.715 147.789 378.055 147.312 c 378.395
 146.859 378.652 146.293 378.793 145.641 c 378.965 144.965 379.02 144.258
 379.02 143.465 c 372.926 143.465 l 372.926 143.039 372.984 142.672 373.039
 142.332 c 373.098 141.992 373.238 141.684 373.379 141.43 c 373.551 141.176
 373.746 140.977 374.004 140.836 c 374.258 140.691 374.539 140.609 374.91
 140.609 c 375.336 140.609 375.703 140.723 375.988 140.891 c 376.242 141.09
 376.441 141.371 376.555 141.738 c 378.879 141.539 l 378.793 141.285 378.652
 141.004 378.453 140.691 c 378.254 140.383 378 140.098 377.688 139.844 c
 377.375 139.59 376.98 139.391 376.496 139.223 c 376.043 139.055 375.449
 138.969 374.797 138.969 c h
374.797 147.254 m 374.539 147.254 374.285 147.227 374.09 147.141 c 373.859
 147.055 373.664 146.914 373.52 146.719 c 373.352 146.547 373.211 146.293
 373.125 146.012 c 373.012 145.727 372.953 145.359 372.953 144.965 c 376.641
 144.965 l 376.582 145.727 376.41 146.293 376.102 146.688 c 375.762 147.055
 375.336 147.254 374.797 147.254 c f*
385.965 138.969 m 385.195 138.969 384.488 139.055 383.836 139.25 c 383.184
 139.422 382.648 139.703 382.164 140.098 c 381.711 140.496 381.344 141.004
 381.09 141.598 c 380.832 142.219 380.691 142.926 380.691 143.773 c 380.691
 151.523 l 383.297 151.523 l 383.297 143.973 l 383.297 143.465 383.355 143.012
 383.469 142.645 c 383.609 142.246 383.781 141.938 384.035 141.711 c 384.262
 141.457 384.574 141.285 384.914 141.176 c 385.254 141.062 385.621 141.004
 386.047 141.004 c 386.473 141.004 386.84 141.062 387.211 141.176 c 387.551
 141.285 387.859 141.484 388.117 141.738 c 388.371 141.992 388.57 142.305
 388.711 142.699 c 388.852 143.066 388.91 143.52 388.91 144.059 c 388.91
 151.523 l 391.516 151.523 l 391.516 143.918 l 391.516 143.066 391.375 142.332
 391.094 141.711 c 390.836 141.09 390.441 140.578 389.961 140.156 c 389.449
 139.762 388.883 139.449 388.199 139.25 c 387.52 139.055 386.785 138.969
 385.965 138.969 c f*
0.00392157 0.8 0.6 rg
453.809 170.387 113.504 -49.547 re f*
1 g
474.668 139.137 m 471.578 139.137 l 469.906 146.293 l 469.848 146.52 469.793
 146.773 469.734 147.055 c 469.68 147.367 469.621 147.648 469.566 147.934
 c 469.508 148.273 469.453 148.582 469.395 148.949 c 469.34 148.582 469.254
 148.242 469.195 147.934 c 469.168 147.789 469.141 147.648 469.113 147.48
 c 469.086 147.34 469.055 147.195 469.027 147.055 c 469 146.914 468.941 
146.773 468.941 146.633 c 468.914 146.52 468.887 146.406 468.855 146.293
 c 467.184 139.137 l 464.098 139.137 l 460.922 151.523 l 463.527 151.523
 l 465.09 144.625 l 465.172 144.258 465.258 143.891 465.344 143.52 c 465.398
 143.152 465.484 142.844 465.539 142.531 c 465.625 142.219 465.684 141.883
 465.738 141.598 c 465.824 142.023 465.91 142.445 465.996 142.844 c 466.023
 143.039 466.051 143.211 466.109 143.406 c 466.137 143.578 466.191 143.773
 466.223 143.945 c 466.25 144.145 466.305 144.312 466.336 144.48 c 466.363
 144.652 466.422 144.793 466.449 144.934 c 467.98 151.523 l 470.867 151.523
 l 472.43 144.934 l 472.457 144.793 472.512 144.625 472.539 144.453 c 472.57
 144.285 472.598 144.113 472.656 143.918 c 472.684 143.746 472.711 143.551
 472.738 143.379 c 472.797 143.184 472.824 143.012 472.852 142.812 c 472.91
 142.418 472.996 141.992 473.051 141.598 c 473.137 141.91 473.191 142.246
 473.277 142.617 c 473.336 142.898 473.422 143.238 473.504 143.578 c 473.59
 143.945 473.645 144.285 473.73 144.625 c 475.234 151.523 l 477.867 151.523
 l 474.668 139.137 l f*
478.945 150.363 m 478.945 152.176 l 481.41 152.176 l 481.41 150.363 l h
478.945 139.137 m 478.945 148.641 l 481.41 148.641 l 481.41 139.137 l 478.945
 139.137 l f*
486.512 149.488 m 486.512 145.672 l 492.859 145.672 l 492.859 143.664 l
 486.512 143.664 l 486.512 139.109 l 483.906 139.109 l 483.906 151.496 l
 493.059 151.496 l 493.059 149.488 l 486.512 149.488 l f*
495.016 150.363 m 495.016 152.176 l 497.48 152.176 l 497.48 150.363 l h
495.016 139.137 m 495.016 148.641 l 497.48 148.641 l 497.48 139.137 l 495.016
 139.137 l f*
0.00392157 0.8 0.6 rg
567.309 170.387 113.418 -49.547 re f*
1 g
575.586 139.137 m 575.586 151.523 l 578.191 151.523 l 578.191 141.145 l
 584.824 141.145 l 584.824 139.137 l 575.586 139.137 l f*
590.805 149.516 m 590.805 139.164 l 588.195 139.164 l 588.195 149.516 l
 584.199 149.516 l 584.199 151.523 l 594.801 151.523 l 594.801 149.516 l
 590.805 149.516 l f*
596.219 139.137 m 596.219 151.496 l 605.965 151.496 l 605.965 149.488 l
 598.824 149.488 l 598.824 146.406 l 605.426 146.406 l 605.426 144.398 l
 598.824 144.398 l 598.824 141.145 l 606.336 141.145 l 606.336 139.137 l
 596.219 139.137 l f*
0.796078 0.92549 0.870588 rg
0.027 120.84 113.332 -40.242 re f*
0.00392157 g
8.473 89.562 m 8.473 90.891 l 11.648 90.891 l 11.648 100.422 l 8.844 98.441
 l 8.844 99.914 l 11.762 101.949 l 13.234 101.949 l 13.234 90.891 l 16.238
 90.891 l 16.238 89.562 l 8.473 89.562 l f*
26.355 95.758 m 26.355 94.57 26.242 93.578 26.016 92.758 c 25.789 91.938
 25.508 91.289 25.109 90.809 c 24.711 90.297 24.258 89.93 23.719 89.703 
c 23.211 89.508 22.645 89.395 22.047 89.395 c 21.453 89.395 20.887 89.508
 20.348 89.703 c 19.84 89.93 19.383 90.297 18.988 90.777 c 18.621 91.289
 18.309 91.938 18.082 92.758 c 17.883 93.551 17.77 94.57 17.77 95.758 c 
17.77 97 17.883 98.047 18.082 98.84 c 18.309 99.66 18.621 100.309 19.016
 100.789 c 19.383 101.301 19.84 101.637 20.375 101.836 c 20.914 102.035 
21.48 102.117 22.105 102.117 c 22.699 102.117 23.238 102.035 23.75 101.836
 c 24.289 101.637 24.742 101.301 25.109 100.789 c 25.508 100.309 25.816 
99.66 26.043 98.84 c 26.242 98.047 26.355 97 26.355 95.758 c h
24.77 95.758 m 24.77 96.746 24.711 97.566 24.57 98.215 c 24.457 98.867 
24.289 99.375 24.059 99.773 c 23.836 100.168 23.551 100.422 23.238 100.594
 c 22.898 100.762 22.531 100.848 22.105 100.848 c 21.652 100.848 21.254 
100.762 20.914 100.594 c 20.574 100.422 20.293 100.141 20.066 99.773 c 19.84
 99.375 19.668 98.867 19.527 98.188 c 19.414 97.539 19.355 96.746 19.355
 95.758 c 19.355 94.793 19.414 94.004 19.555 93.352 c 19.668 92.703 19.84
 92.191 20.066 91.797 c 20.293 91.402 20.574 91.117 20.914 90.949 c 21.254
 90.777 21.625 90.695 22.047 90.695 c 22.473 90.695 22.844 90.777 23.184
 90.949 c 23.523 91.117 23.805 91.402 24.031 91.797 c 24.258 92.191 24.457
 92.703 24.57 93.352 c 24.684 94.004 24.77 94.793 24.77 95.758 c f*
0.796078 0.92549 0.870588 rg
113.359 120.84 113.504 -40.242 re f*
0.00392157 g
183.785 99.855 m 191.551 99.855 l 191.551 98.188 l 185.598 98.188 l 185.598
 94.598 l 185.883 94.711 186.164 94.766 186.449 94.824 c 186.73 94.879 187.043
 94.906 187.328 94.906 c 188.941 94.906 190.246 94.457 191.184 93.551 c 
192.145 92.672 192.598 91.457 192.598 89.93 c 192.598 88.375 192.117 87.16
 191.152 86.281 c 190.16 85.406 188.801 84.98 187.016 84.98 c 186.391 84.98
 185.77 85.039 185.145 85.152 c 184.523 85.234 183.84 85.406 183.16 85.602
 c 183.16 87.582 l 183.758 87.273 184.379 87.02 185.004 86.875 c 185.629
 86.707 186.277 86.648 186.988 86.648 c 188.094 86.648 189 86.934 189.652
 87.527 c 190.305 88.121 190.645 88.914 190.645 89.93 c 190.645 90.949 190.305
 91.77 189.652 92.363 c 189 92.957 188.094 93.238 186.988 93.238 c 186.449
 93.238 185.91 93.184 185.398 93.07 c 184.863 92.957 184.324 92.758 183.785
 92.504 c 183.785 99.855 l f*
202.461 93.125 m 203.426 92.93 204.16 92.504 204.699 91.852 c 205.211 91.23
 205.492 90.441 205.492 89.508 c 205.492 88.062 204.984 86.961 203.992 86.168
 c 203 85.379 201.609 84.98 199.77 84.98 c 199.172 84.98 198.523 85.039 
197.898 85.152 c 197.246 85.293 196.566 85.461 195.887 85.719 c 195.887 
87.609 l 196.426 87.301 197.02 87.047 197.672 86.875 c 198.324 86.734 199.004
 86.648 199.711 86.648 c 200.961 86.648 201.895 86.875 202.547 87.387 c 
203.199 87.867 203.508 88.574 203.508 89.508 c 203.508 90.355 203.227 91.031
 202.602 91.516 c 202.008 91.996 201.188 92.25 200.109 92.25 c 198.406 92.25
 l 198.406 93.859 l 200.164 93.859 l 201.156 93.859 201.895 94.059 202.402
 94.457 c 202.914 94.852 203.172 95.387 203.172 96.125 c 203.172 96.859 
202.914 97.453 202.375 97.848 c 201.84 98.246 201.102 98.441 200.109 98.441
 c 199.57 98.441 198.977 98.387 198.352 98.273 c 197.758 98.16 197.074 97.961
 196.312 97.707 c 196.312 99.488 l 197.074 99.688 197.758 99.828 198.438
 99.941 c 199.09 100.055 199.684 100.109 200.277 100.109 c 201.781 100.109
 202.973 99.773 203.82 99.094 c 204.699 98.414 205.152 97.48 205.152 96.32
 c 205.152 95.531 204.898 94.824 204.445 94.285 c 203.992 93.719 203.34 
93.324 202.461 93.125 c f*
209.402 87.754 m 211.445 87.754 l 211.445 86.055 l 209.859 82.945 l 208.582
 82.945 l 209.402 86.055 l 209.402 87.754 l f*
220.996 98.133 m 216.008 90.355 l 220.996 90.355 l h
220.484 99.855 m 222.949 99.855 l 222.949 90.355 l 225.047 90.355 l 225.047
 88.715 l 222.949 88.715 l 222.949 85.293 l 220.996 85.293 l 220.996 88.715
 l 214.391 88.715 l 214.391 90.609 l 220.484 99.855 l f*
0.796078 0.92549 0.870588 rg
226.863 120.84 113.613 -40.242 re f*
0.00392157 g
284.73 99.855 m 292.496 99.855 l 292.496 98.188 l 286.547 98.188 l 286.547
 94.598 l 286.828 94.711 287.113 94.766 287.395 94.824 c 287.68 94.879 287.992
 94.906 288.273 94.906 c 289.891 94.906 291.191 94.457 292.129 93.551 c 
293.094 92.672 293.547 91.457 293.547 89.93 c 293.547 88.375 293.062 87.16
 292.102 86.281 c 291.109 85.406 289.746 84.98 287.965 84.98 c 287.34 84.98
 286.715 85.039 286.094 85.152 c 285.469 85.234 284.789 85.406 284.109 85.602
 c 284.109 87.582 l 284.703 87.273 285.328 87.02 285.949 86.875 c 286.574
 86.707 287.227 86.648 287.934 86.648 c 289.039 86.648 289.945 86.934 290.598
 87.527 c 291.25 88.121 291.59 88.914 291.59 89.93 c 291.59 90.949 291.25
 91.77 290.598 92.363 c 289.945 92.957 289.039 93.238 287.934 93.238 c 287.395
 93.238 286.855 93.184 286.348 93.07 c 285.809 92.957 285.27 92.758 284.73
 92.504 c 284.73 99.855 l f*
296.945 99.855 m 306.328 99.855 l 306.328 99.008 l 301.027 85.266 l 298.961
 85.266 l 303.945 98.188 l 296.945 98.188 l 296.945 99.855 l f*
310.352 87.754 m 312.391 87.754 l 312.391 86.055 l 310.805 82.945 l 309.531
 82.945 l 310.352 86.055 l 310.352 87.754 l f*
316.586 85.574 m 316.586 87.355 l 317.066 87.133 317.578 86.961 318.09 
86.82 c 318.598 86.707 319.078 86.648 319.562 86.648 c 320.867 86.648 321.855
 87.074 322.566 87.949 c 323.246 88.828 323.645 90.156 323.727 91.938 c 
323.359 91.371 322.879 90.949 322.312 90.637 c 321.715 90.355 321.062 90.184
 320.383 90.184 c 318.91 90.184 317.746 90.637 316.898 91.516 c 316.047 
92.418 315.621 93.605 315.621 95.133 c 315.621 96.633 316.074 97.848 316.953
 98.754 c 317.859 99.66 319.023 100.109 320.496 100.109 c 322.199 100.109
 323.473 99.461 324.352 98.16 c 325.258 96.887 325.711 94.992 325.711 92.531
 c 325.711 90.242 325.145 88.402 324.066 87.047 c 322.965 85.66 321.516 
84.98 319.676 84.98 c 319.164 84.98 318.656 85.039 318.145 85.121 c 317.637
 85.234 317.125 85.379 316.586 85.574 c h
320.496 91.738 m 321.375 91.738 322.086 92.051 322.594 92.645 c 323.133
 93.27 323.387 94.086 323.387 95.133 c 323.387 96.207 323.133 97.027 322.594
 97.621 c 322.086 98.246 321.375 98.555 320.496 98.555 c 319.617 98.555 
318.91 98.246 318.398 97.621 c 317.891 97.027 317.605 96.207 317.605 95.133
 c 317.605 94.086 317.891 93.27 318.398 92.645 c 318.91 92.051 319.617 91.738
 320.496 91.738 c f*
334.668 98.133 m 329.68 90.355 l 334.668 90.355 l h
334.156 99.855 m 336.621 99.855 l 336.621 90.355 l 338.719 90.355 l 338.719
 88.715 l 336.621 88.715 l 336.621 85.293 l 334.668 85.293 l 334.668 88.715
 l 328.062 88.715 l 328.062 90.609 l 334.156 99.855 l f*
0.796078 0.92549 0.870588 rg
340.477 120.84 113.332 -40.242 re f*
0.00392157 g
402.484 93.352 m 401.605 93.352 400.898 93.039 400.387 92.449 c 399.848
 91.824 399.594 91.004 399.594 89.957 c 399.594 88.883 399.848 88.062 400.387
 87.469 c 400.898 86.848 401.605 86.535 402.484 86.535 c 403.363 86.535 
404.07 86.848 404.582 87.469 c 405.121 88.062 405.375 88.883 405.375 89.957
 c 405.375 91.004 405.121 91.824 404.582 92.449 c 404.07 93.039 403.363 
93.352 402.484 93.352 c h
406.395 99.516 m 406.395 97.734 l 405.914 97.961 405.402 98.133 404.895
 98.246 c 404.41 98.387 403.902 98.441 403.391 98.441 c 402.09 98.441 401.098
 97.988 400.414 97.113 c 399.734 96.238 399.34 94.938 399.254 93.156 c 399.621
 93.719 400.105 94.145 400.699 94.457 c 401.266 94.766 401.918 94.906 402.598
 94.906 c 404.07 94.906 405.234 94.457 406.086 93.578 c 406.934 92.672 407.359
 91.484 407.359 89.957 c 407.359 88.461 406.906 87.242 406.027 86.34 c 405.148
 85.434 403.957 84.98 402.484 84.98 c 400.812 84.98 399.508 85.633 398.629
 86.934 c 397.723 88.207 397.27 90.07 397.27 92.531 c 397.27 94.852 397.836
 96.691 398.914 98.047 c 400.02 99.406 401.492 100.109 403.336 100.109 c
 403.816 100.109 404.328 100.055 404.836 99.969 c 405.32 99.855 405.855 
99.715 406.395 99.516 c f*
414.953 98.555 m 413.965 98.555 413.195 98.047 412.688 97.059 c 412.176
 96.039 411.922 94.539 411.922 92.531 c 411.922 90.551 412.176 89.055 412.688
 88.035 c 413.195 87.047 413.965 86.535 414.953 86.535 c 416.004 86.535 
416.77 87.047 417.277 88.035 c 417.789 89.055 418.043 90.551 418.043 92.531
 c 418.043 94.539 417.789 96.039 417.277 97.059 c 416.77 98.047 416.004 
98.555 414.953 98.555 c h
414.953 100.109 m 416.598 100.109 417.844 99.461 418.723 98.16 c 419.574
 96.887 420 94.992 420 92.531 c 420 90.102 419.574 88.207 418.723 86.934
 c 417.844 85.633 416.598 84.98 414.953 84.98 c 413.34 84.98 412.094 85.633
 411.215 86.934 c 410.363 88.207 409.938 90.102 409.938 92.531 c 409.938
 94.992 410.363 96.887 411.215 98.16 c 412.094 99.461 413.34 100.109 414.953
 100.109 c f*
423.656 87.754 m 425.695 87.754 l 425.695 86.055 l 424.109 82.945 l 422.832
 82.945 l 423.656 86.055 l 423.656 87.754 l f*
429.832 99.855 m 437.598 99.855 l 437.598 98.188 l 431.645 98.188 l 431.645
 94.598 l 431.93 94.711 432.215 94.766 432.496 94.824 c 432.781 94.879 433.094
 94.906 433.375 94.906 c 434.992 94.906 436.293 94.457 437.23 93.551 c 438.191
 92.672 438.645 91.457 438.645 89.93 c 438.645 88.375 438.164 87.16 437.199
 86.281 c 436.211 85.406 434.848 84.98 433.062 84.98 c 432.441 84.98 431.816
 85.039 431.191 85.152 c 430.57 85.234 429.891 85.406 429.211 85.602 c 429.211
 87.582 l 429.805 87.273 430.43 87.02 431.051 86.875 c 431.676 86.707 432.328
 86.648 433.035 86.648 c 434.141 86.648 435.047 86.934 435.699 87.527 c 
436.352 88.121 436.691 88.914 436.691 89.93 c 436.691 90.949 436.352 91.77
 435.699 92.363 c 435.047 92.957 434.141 93.238 433.035 93.238 c 432.496
 93.238 431.957 93.184 431.449 93.07 c 430.91 92.957 430.371 92.758 429.832
 92.504 c 429.832 99.855 l f*
442.613 85.574 m 442.613 87.355 l 443.098 87.133 443.605 86.961 444.117
 86.82 c 444.625 86.707 445.109 86.648 445.59 86.648 c 446.895 86.648 447.887
 87.074 448.594 87.949 c 449.273 88.828 449.672 90.156 449.758 91.938 c 
449.387 91.371 448.906 90.949 448.34 90.637 c 447.742 90.355 447.094 90.184
 446.41 90.184 c 444.938 90.184 443.777 90.637 442.926 91.516 c 442.074 
92.418 441.652 93.605 441.652 95.133 c 441.652 96.633 442.105 97.848 442.98
 98.754 c 443.891 99.66 445.051 100.109 446.523 100.109 c 448.227 100.109
 449.5 99.461 450.379 98.16 c 451.285 96.887 451.738 94.992 451.738 92.531
 c 451.738 90.242 451.172 88.402 450.098 87.047 c 448.992 85.66 447.547 
84.98 445.703 84.98 c 445.191 84.98 444.684 85.039 444.172 85.121 c 443.664
 85.234 443.152 85.379 442.613 85.574 c h
446.523 91.738 m 447.402 91.738 448.113 92.051 448.621 92.645 c 449.16 
93.27 449.414 94.086 449.414 95.133 c 449.414 96.207 449.16 97.027 448.621
 97.621 c 448.113 98.246 447.402 98.555 446.523 98.555 c 445.645 98.555 
444.938 98.246 444.43 97.621 c 443.918 97.027 443.633 96.207 443.633 95.133
 c 443.633 94.086 443.918 93.27 444.43 92.645 c 444.938 92.051 445.645 91.738
 446.523 91.738 c f*
0.796078 0.92549 0.870588 rg
453.809 120.84 113.504 -40.242 re f*
0.00392157 g
560.227 98.555 m 559.234 98.555 558.469 98.047 557.957 97.059 c 557.449
 96.039 557.191 94.539 557.191 92.531 c 557.191 90.551 557.449 89.055 557.957
 88.035 c 558.469 87.047 559.234 86.535 560.227 86.535 c 561.273 86.535 
562.039 87.047 562.551 88.035 c 563.059 89.055 563.312 90.551 563.312 92.531
 c 563.312 94.539 563.059 96.039 562.551 97.059 c 562.039 98.047 561.273
 98.555 560.227 98.555 c h
560.227 100.109 m 561.867 100.109 563.117 99.461 563.996 98.16 c 564.844
 96.887 565.27 94.992 565.27 92.531 c 565.27 90.102 564.844 88.207 563.996
 86.934 c 563.117 85.633 561.867 84.98 560.227 84.98 c 558.609 84.98 557.363
 85.633 556.484 86.934 c 555.633 88.207 555.211 90.102 555.211 92.531 c 
555.211 94.992 555.633 96.887 556.484 98.16 c 557.363 99.461 558.609 100.109
 560.227 100.109 c f*
0.796078 0.92549 0.870588 rg
567.309 120.84 113.418 -40.242 re f*
0.00392157 g
625.293 86.934 m 628.496 86.934 l 628.496 98.047 l 625.012 97.34 l 625.012
 99.148 l 628.496 99.855 l 630.453 99.855 l 630.453 86.934 l 633.684 86.934
 l 633.684 85.266 l 625.293 85.266 l 625.293 86.934 l f*
637.68 99.855 m 645.441 99.855 l 645.441 98.188 l 639.492 98.188 l 639.492
 94.598 l 639.773 94.711 640.059 94.766 640.344 94.824 c 640.625 94.879 
640.938 94.906 641.223 94.906 c 642.836 94.906 644.141 94.457 645.074 93.551
 c 646.039 92.672 646.492 91.457 646.492 89.93 c 646.492 88.375 646.012 
87.16 645.047 86.281 c 644.055 85.406 642.695 84.98 640.91 84.98 c 640.285
 84.98 639.66 85.039 639.039 85.152 c 638.414 85.234 637.734 85.406 637.055
 85.602 c 637.055 87.582 l 637.648 87.273 638.273 87.02 638.898 86.875 c
 639.52 86.707 640.172 86.648 640.883 86.648 c 641.984 86.648 642.895 86.934
 643.547 87.527 c 644.195 88.121 644.535 88.914 644.535 89.93 c 644.535 
90.949 644.195 91.77 643.547 92.363 c 642.895 92.957 641.984 93.238 640.883
 93.238 c 640.344 93.238 639.805 93.184 639.293 93.07 c 638.754 92.957 638.219
 92.758 637.68 92.504 c 637.68 99.855 l f*
654.57 98.555 m 653.578 98.555 652.812 98.047 652.301 97.059 c 651.793 
96.039 651.535 94.539 651.535 92.531 c 651.535 90.551 651.793 89.055 652.301
 88.035 c 652.812 87.047 653.578 86.535 654.57 86.535 c 655.617 86.535 656.383
 87.047 656.895 88.035 c 657.402 89.055 657.656 90.551 657.656 92.531 c 
657.656 94.539 657.402 96.039 656.895 97.059 c 656.383 98.047 655.617 98.555
 654.57 98.555 c h
654.57 100.109 m 656.215 100.109 657.461 99.461 658.34 98.16 c 659.188 
96.887 659.613 94.992 659.613 92.531 c 659.613 90.102 659.188 88.207 658.34
 86.934 c 657.461 85.633 656.215 84.98 654.57 84.98 c 652.953 84.98 651.707
 85.633 650.828 86.934 c 649.977 88.207 649.555 90.102 649.555 92.531 c 
649.555 94.992 649.977 96.887 650.828 98.16 c 651.707 99.461 652.953 100.109
 654.57 100.109 c f*
663.297 87.754 m 665.34 87.754 l 665.34 86.055 l 663.75 82.945 l 662.477
 82.945 l 663.297 86.055 l 663.297 87.754 l f*
675.426 93.125 m 676.391 92.93 677.129 92.504 677.664 91.852 c 678.176 
91.23 678.461 90.441 678.461 89.508 c 678.461 88.062 677.949 86.961 676.957
 86.168 c 675.965 85.379 674.578 84.98 672.734 84.98 c 672.141 84.98 671.488
 85.039 670.863 85.152 c 670.215 85.293 669.531 85.461 668.852 85.719 c 
668.852 87.609 l 669.391 87.301 669.984 87.047 670.637 86.875 c 671.289 
86.734 671.969 86.648 672.68 86.648 c 673.926 86.648 674.859 86.875 675.512
 87.387 c 676.164 87.867 676.477 88.574 676.477 89.508 c 676.477 90.355 
676.191 91.031 675.57 91.516 c 674.973 91.996 674.152 92.25 673.074 92.25
 c 671.375 92.25 l 671.375 93.859 l 673.133 93.859 l 674.121 93.859 674.859
 94.059 675.371 94.457 c 675.883 94.852 676.137 95.387 676.137 96.125 c 
676.137 96.859 675.883 97.453 675.344 97.848 c 674.805 98.246 674.066 98.441
 673.074 98.441 c 672.535 98.441 671.941 98.387 671.316 98.273 c 670.723
 98.16 670.043 97.961 669.277 97.707 c 669.277 99.488 l 670.043 99.688 670.723
 99.828 671.402 99.941 c 672.055 100.055 672.648 100.109 673.246 100.109
 c 674.746 100.109 675.938 99.773 676.789 99.094 c 677.664 98.414 678.121
 97.48 678.121 96.32 c 678.121 95.531 677.863 94.824 677.41 94.285 c 676.957
 93.719 676.305 93.324 675.426 93.125 c f*
0.905882 0.964706 0.937255 rg
0.027 80.598 113.332 -40.242 re f*
0.00392157 g
8.473 49.32 m 8.473 50.648 l 11.648 50.648 l 11.648 60.18 l 8.844 58.199
 l 8.844 59.672 l 11.762 61.707 l 13.234 61.707 l 13.234 50.648 l 16.238
 50.648 l 16.238 49.32 l 8.473 49.32 l f*
26.355 55.516 m 26.355 54.324 26.242 53.336 26.016 52.516 c 25.789 51.695
 25.508 51.047 25.109 50.566 c 24.711 50.055 24.258 49.688 23.719 49.461
 c 23.211 49.266 22.645 49.152 22.047 49.152 c 21.453 49.152 20.887 49.266
 20.348 49.461 c 19.84 49.688 19.383 50.055 18.988 50.535 c 18.621 51.047
 18.309 51.695 18.082 52.516 c 17.883 53.309 17.77 54.324 17.77 55.516 c
 17.77 56.758 17.883 57.805 18.082 58.598 c 18.309 59.418 18.621 60.066 
19.016 60.547 c 19.383 61.055 19.84 61.395 20.375 61.594 c 20.914 61.793
 21.48 61.875 22.105 61.875 c 22.699 61.875 23.238 61.793 23.75 61.594 c
 24.289 61.395 24.742 61.055 25.109 60.547 c 25.508 60.066 25.816 59.418
 26.043 58.598 c 26.242 57.805 26.355 56.758 26.355 55.516 c h
24.77 55.516 m 24.77 56.504 24.711 57.324 24.57 57.973 c 24.457 58.625 
24.289 59.133 24.059 59.531 c 23.836 59.926 23.551 60.18 23.238 60.348 c
 22.898 60.52 22.531 60.605 22.105 60.605 c 21.652 60.605 21.254 60.52 20.914
 60.348 c 20.574 60.18 20.293 59.898 20.066 59.531 c 19.84 59.133 19.668
 58.625 19.527 57.945 c 19.414 57.297 19.355 56.504 19.355 55.516 c 19.355
 54.551 19.414 53.762 19.555 53.109 c 19.668 52.461 19.84 51.949 20.066 
51.555 c 20.293 51.16 20.574 50.875 20.914 50.707 c 21.254 50.535 21.625
 50.453 22.047 50.453 c 22.473 50.453 22.844 50.535 23.184 50.707 c 23.523
 50.875 23.805 51.16 24.031 51.555 c 24.258 51.949 24.457 52.461 24.57 53.109
 c 24.684 53.762 24.77 54.551 24.77 55.516 c f*
36.332 55.516 m 36.332 54.324 36.219 53.336 35.992 52.516 c 35.766 51.695
 35.48 51.047 35.086 50.566 c 34.688 50.055 34.234 49.688 33.695 49.461 
c 33.188 49.266 32.621 49.152 32.023 49.152 c 31.43 49.152 30.863 49.266
 30.324 49.461 c 29.812 49.688 29.359 50.055 28.965 50.535 c 28.594 51.047
 28.281 51.695 28.055 52.516 c 27.859 53.309 27.746 54.324 27.746 55.516
 c 27.746 56.758 27.859 57.805 28.055 58.598 c 28.281 59.418 28.594 60.066
 28.992 60.547 c 29.359 61.055 29.812 61.395 30.352 61.594 c 30.891 61.793
 31.457 61.875 32.082 61.875 c 32.676 61.875 33.215 61.793 33.723 61.594
 c 34.262 61.395 34.715 61.055 35.086 60.547 c 35.48 60.066 35.793 59.418
 36.02 58.598 c 36.219 57.805 36.332 56.758 36.332 55.516 c h
34.746 55.516 m 34.746 56.504 34.688 57.324 34.547 57.973 c 34.434 58.625
 34.262 59.133 34.035 59.531 c 33.809 59.926 33.527 60.18 33.215 60.348 
c 32.875 60.52 32.508 60.605 32.082 60.605 c 31.629 60.605 31.23 60.52 30.891
 60.348 c 30.551 60.18 30.266 59.898 30.039 59.531 c 29.812 59.133 29.645
 58.625 29.504 57.945 c 29.391 57.297 29.332 56.504 29.332 55.516 c 29.332
 54.551 29.391 53.762 29.531 53.109 c 29.645 52.461 29.812 51.949 30.039
 51.555 c 30.266 51.16 30.551 50.875 30.891 50.707 c 31.23 50.535 31.598
 50.453 32.023 50.453 c 32.449 50.453 32.816 50.535 33.156 50.707 c 33.496
 50.875 33.781 51.16 34.008 51.555 c 34.234 51.949 34.434 52.461 34.547 
53.109 c 34.66 53.762 34.746 54.551 34.746 55.516 c f*
0.905882 0.964706 0.937255 rg
113.359 80.598 113.504 -40.242 re f*
0.00392157 g
170.578 59.613 m 179.961 59.613 l 179.961 58.766 l 174.66 45.023 l 172.59
 45.023 l 177.578 57.945 l 170.578 57.945 l 170.578 59.613 l f*
189.766 52.883 m 190.727 52.684 191.465 52.262 192.004 51.609 c 192.516
 50.988 192.797 50.195 192.797 49.266 c 192.797 47.82 192.285 46.719 191.297
 45.926 c 190.305 45.137 188.914 44.738 187.07 44.738 c 186.477 44.738 185.824
 44.797 185.203 44.91 c 184.551 45.051 183.871 45.219 183.191 45.473 c 183.191
 47.367 l 183.727 47.059 184.324 46.805 184.977 46.633 c 185.629 46.492 
186.309 46.406 187.016 46.406 c 188.262 46.406 189.199 46.633 189.852 47.145
 c 190.504 47.625 190.812 48.332 190.812 49.266 c 190.812 50.113 190.531
 50.789 189.906 51.273 c 189.312 51.754 188.488 52.008 187.414 52.008 c 
185.711 52.008 l 185.711 53.617 l 187.469 53.617 l 188.461 53.617 189.199
 53.816 189.707 54.215 c 190.219 54.609 190.473 55.145 190.473 55.883 c 
190.473 56.617 190.219 57.211 189.68 57.605 c 189.141 58.004 188.402 58.199
 187.414 58.199 c 186.875 58.199 186.277 58.145 185.656 58.031 c 185.059
 57.918 184.379 57.719 183.613 57.465 c 183.613 59.246 l 184.379 59.445 
185.059 59.586 185.738 59.699 c 186.391 59.812 186.988 59.867 187.582 59.867
 c 189.086 59.867 190.273 59.531 191.125 58.852 c 192.004 58.172 192.457
 57.238 192.457 56.078 c 192.457 55.289 192.203 54.582 191.746 54.043 c 
191.297 53.477 190.645 53.082 189.766 52.883 c f*
196.707 47.512 m 198.746 47.512 l 198.746 45.812 l 197.16 42.703 l 195.887
 42.703 l 196.707 45.812 l 196.707 47.512 l f*
208.84 52.883 m 209.801 52.684 210.539 52.262 211.074 51.609 c 211.586 
50.988 211.871 50.195 211.871 49.266 c 211.871 47.82 211.359 46.719 210.367
 45.926 c 209.375 45.137 207.988 44.738 206.145 44.738 c 205.551 44.738 
204.898 44.797 204.273 44.91 c 203.621 45.051 202.941 45.219 202.262 45.473
 c 202.262 47.367 l 202.801 47.059 203.395 46.805 204.047 46.633 c 204.699
 46.492 205.379 46.406 206.09 46.406 c 207.336 46.406 208.27 46.633 208.922
 47.145 c 209.574 47.625 209.887 48.332 209.887 49.266 c 209.887 50.113 
209.602 50.789 208.98 51.273 c 208.383 51.754 207.562 52.008 206.484 52.008
 c 204.785 52.008 l 204.785 53.617 l 206.543 53.617 l 207.535 53.617 208.27
 53.816 208.781 54.215 c 209.289 54.609 209.547 55.145 209.547 55.883 c 
209.547 56.617 209.289 57.211 208.754 57.605 c 208.215 58.004 207.477 58.199
 206.484 58.199 c 205.945 58.199 205.352 58.145 204.727 58.031 c 204.133
 57.918 203.453 57.719 202.688 57.465 c 202.688 59.246 l 203.453 59.445 
204.133 59.586 204.812 59.699 c 205.465 59.812 206.059 59.867 206.656 59.867
 c 208.156 59.867 209.348 59.531 210.199 58.852 c 211.074 58.172 211.531
 57.238 211.531 56.078 c 211.531 55.289 211.273 54.582 210.82 54.043 c 210.367
 53.477 209.715 53.082 208.84 52.883 c f*
219.805 51.949 m 218.871 51.949 218.133 51.695 217.594 51.188 c 217.055
 50.707 216.801 50 216.801 49.121 c 216.801 48.246 217.055 47.566 217.594
 47.059 c 218.133 46.547 218.871 46.293 219.805 46.293 c 220.77 46.293 221.504
 46.547 222.043 47.059 c 222.582 47.566 222.84 48.246 222.84 49.121 c 222.84
 50 222.582 50.707 222.043 51.188 c 221.504 51.695 220.77 51.949 219.805
 51.949 c h
217.852 52.797 m 217 52.996 216.348 53.395 215.867 53.957 c 215.383 54.551
 215.156 55.258 215.156 56.078 c 215.156 57.266 215.582 58.172 216.402 58.852
 c 217.227 59.531 218.359 59.867 219.805 59.867 c 221.277 59.867 222.414
 59.531 223.234 58.852 c 224.055 58.172 224.48 57.266 224.48 56.078 c 224.48
 55.258 224.254 54.551 223.773 53.957 c 223.289 53.395 222.641 52.996 221.789
 52.797 c 222.754 52.574 223.488 52.148 224.027 51.496 c 224.566 50.848 
224.82 50.055 224.82 49.121 c 224.82 47.707 224.395 46.633 223.52 45.871
 c 222.668 45.105 221.422 44.738 219.805 44.738 c 218.219 44.738 216.973
 45.105 216.121 45.871 c 215.242 46.633 214.816 47.707 214.816 49.121 c 
214.816 50.055 215.07 50.848 215.609 51.496 c 216.148 52.121 216.887 52.574
 217.852 52.797 c h
217.113 55.91 m 217.113 55.145 217.367 54.551 217.82 54.129 c 218.305 53.703
 218.953 53.508 219.805 53.508 c 220.656 53.508 221.336 53.703 221.816 54.129
 c 222.27 54.551 222.527 55.145 222.527 55.91 c 222.527 56.672 222.27 57.238
 221.816 57.664 c 221.336 58.086 220.656 58.312 219.805 58.312 c 218.953
 58.312 218.305 58.086 217.82 57.664 c 217.367 57.238 217.113 56.672 217.113
 55.91 c f*
0.905882 0.964706 0.937255 rg
226.863 80.598 113.613 -40.242 re f*
0.00392157 g
285.07 46.691 m 288.273 46.691 l 288.273 57.805 l 284.789 57.098 l 284.789
 58.906 l 288.273 59.613 l 290.23 59.613 l 290.23 46.691 l 293.461 46.691
 l 293.461 45.023 l 285.07 45.023 l 285.07 46.691 l f*
297.797 46.691 m 301 46.691 l 301 57.805 l 297.512 57.098 l 297.512 58.906
 l 301 59.613 l 302.953 59.613 l 302.953 46.691 l 306.188 46.691 l 306.188
 45.023 l 297.797 45.023 l 297.797 46.691 l f*
314.602 53.109 m 313.723 53.109 313.016 52.797 312.504 52.203 c 311.969
 51.582 311.711 50.762 311.711 49.715 c 311.711 48.641 311.969 47.82 312.504
 47.227 c 313.016 46.605 313.723 46.293 314.602 46.293 c 315.48 46.293 316.188
 46.605 316.699 47.227 c 317.238 47.82 317.492 48.641 317.492 49.715 c 317.492
 50.762 317.238 51.582 316.699 52.203 c 316.188 52.797 315.48 53.109 314.602
 53.109 c h
318.512 59.273 m 318.512 57.492 l 318.031 57.719 317.52 57.891 317.012 
58.004 c 316.527 58.145 316.02 58.199 315.508 58.199 c 314.203 58.199 313.215
 57.746 312.535 56.871 c 311.855 55.996 311.457 54.695 311.371 52.91 c 311.738
 53.477 312.223 53.902 312.816 54.215 c 313.383 54.523 314.035 54.664 314.715
 54.664 c 316.188 54.664 317.352 54.215 318.203 53.336 c 319.051 52.43 319.477
 51.242 319.477 49.715 c 319.477 48.219 319.023 47 318.145 46.098 c 317.266
 45.191 316.074 44.738 314.602 44.738 c 312.93 44.738 311.629 45.391 310.746
 46.691 c 309.84 47.965 309.387 49.828 309.387 52.289 c 309.387 54.609 309.953
 56.445 311.031 57.805 c 312.137 59.16 313.609 59.867 315.453 59.867 c 315.934
 59.867 316.445 59.812 316.953 59.727 c 317.438 59.613 317.977 59.473 318.512
 59.273 c f*
323.074 47.512 m 325.117 47.512 l 325.117 45.812 l 323.527 42.703 l 322.254
 42.703 l 323.074 45.812 l 323.074 47.512 l f*
328.742 59.613 m 338.125 59.613 l 338.125 58.766 l 332.824 45.023 l 330.758
 45.023 l 335.742 57.945 l 328.742 57.945 l 328.742 59.613 l f*
0.905882 0.964706 0.937255 rg
340.477 80.598 113.332 -40.242 re f*
0.00392157 g
397.523 59.613 m 406.906 59.613 l 406.906 58.766 l 401.605 45.023 l 399.539
 45.023 l 404.523 57.945 l 397.523 57.945 l 397.523 59.613 l f*
410.816 45.332 m 410.816 47.113 l 411.297 46.887 411.809 46.719 412.32 
46.578 c 412.828 46.465 413.312 46.406 413.793 46.406 c 415.098 46.406 416.09
 46.832 416.797 47.707 c 417.477 48.586 417.871 49.914 417.957 51.695 c 
417.59 51.129 417.109 50.707 416.539 50.395 c 415.945 50.113 415.297 49.941
 414.613 49.941 c 413.141 49.941 411.98 50.395 411.129 51.273 c 410.277 
52.176 409.852 53.363 409.852 54.891 c 409.852 56.391 410.309 57.605 411.184
 58.512 c 412.094 59.418 413.254 59.867 414.727 59.867 c 416.43 59.867 417.703
 59.219 418.582 57.918 c 419.488 56.645 419.941 54.75 419.941 52.289 c 419.941
 50 419.375 48.16 418.297 46.805 c 417.191 45.418 415.746 44.738 413.906
 44.738 c 413.395 44.738 412.887 44.797 412.375 44.879 c 411.863 44.992 
411.355 45.137 410.816 45.332 c h
414.727 51.496 m 415.605 51.496 416.312 51.809 416.824 52.402 c 417.363
 53.023 417.617 53.844 417.617 54.891 c 417.617 55.965 417.363 56.785 416.824
 57.379 c 416.312 58.004 415.605 58.312 414.727 58.312 c 413.848 58.312 
413.141 58.004 412.629 57.379 c 412.121 56.785 411.836 55.965 411.836 54.891
 c 411.836 53.844 412.121 53.023 412.629 52.402 c 413.141 51.809 413.848
 51.496 414.727 51.496 c f*
423.656 47.512 m 425.695 47.512 l 425.695 45.812 l 424.109 42.703 l 422.832
 42.703 l 423.656 45.812 l 423.656 47.512 l f*
435.246 57.891 m 430.258 50.113 l 435.246 50.113 l h
434.734 59.613 m 437.199 59.613 l 437.199 50.113 l 439.297 50.113 l 439.297
 48.473 l 437.199 48.473 l 437.199 45.051 l 435.246 45.051 l 435.246 48.473
 l 428.645 48.473 l 428.645 50.367 l 434.734 59.613 l f*
442.898 46.691 m 446.102 46.691 l 446.102 57.805 l 442.613 57.098 l 442.613
 58.906 l 446.102 59.613 l 448.055 59.613 l 448.055 46.691 l 451.285 46.691
 l 451.285 45.023 l 442.898 45.023 l 442.898 46.691 l f*
0.905882 0.964706 0.937255 rg
453.809 80.598 113.504 -40.242 re f*
0.00392157 g
499.152 46.691 m 502.355 46.691 l 502.355 57.805 l 498.867 57.098 l 498.867
 58.906 l 502.355 59.613 l 504.309 59.613 l 504.309 46.691 l 507.539 46.691
 l 507.539 45.023 l 499.152 45.023 l 499.152 46.691 l f*
511.879 46.691 m 515.078 46.691 l 515.078 57.805 l 511.594 57.098 l 511.594
 58.906 l 515.078 59.613 l 517.035 59.613 l 517.035 46.691 l 520.266 46.691
 l 520.266 45.023 l 511.879 45.023 l 511.879 46.691 l f*
528.684 53.109 m 527.805 53.109 527.098 52.797 526.586 52.203 c 526.047
 51.582 525.793 50.762 525.793 49.715 c 525.793 48.641 526.047 47.82 526.586
 47.227 c 527.098 46.605 527.805 46.293 528.684 46.293 c 529.562 46.293 
530.27 46.605 530.781 47.227 c 531.316 47.82 531.574 48.641 531.574 49.715
 c 531.574 50.762 531.316 51.582 530.781 52.203 c 530.27 52.797 529.562 
53.109 528.684 53.109 c h
532.594 59.273 m 532.594 57.492 l 532.113 57.719 531.602 57.891 531.094
 58.004 c 530.609 58.145 530.102 58.199 529.59 58.199 c 528.285 58.199 527.293
 57.746 526.613 56.871 c 525.934 55.996 525.535 54.695 525.453 52.91 c 525.82
 53.477 526.301 53.902 526.898 54.215 c 527.465 54.523 528.117 54.664 528.797
 54.664 c 530.27 54.664 531.434 54.215 532.281 53.336 c 533.133 52.43 533.559
 51.242 533.559 49.715 c 533.559 48.219 533.105 47 532.227 46.098 c 531.348
 45.191 530.156 44.738 528.684 44.738 c 527.012 44.738 525.707 45.391 524.828
 46.691 c 523.922 47.965 523.469 49.828 523.469 52.289 c 523.469 54.609 
524.035 56.445 525.113 57.805 c 526.219 59.16 527.691 59.867 529.531 59.867
 c 530.016 59.867 530.523 59.812 531.035 59.727 c 531.516 59.613 532.055
 59.473 532.594 59.273 c f*
537.156 47.512 m 539.195 47.512 l 539.195 45.812 l 537.609 42.703 l 536.336
 42.703 l 537.156 45.812 l 537.156 47.512 l f*
542.824 59.613 m 552.203 59.613 l 552.203 58.766 l 546.906 45.023 l 544.836
 45.023 l 549.824 57.945 l 542.824 57.945 l 542.824 59.613 l f*
560.48 53.109 m 559.602 53.109 558.895 52.797 558.383 52.203 c 557.844 
51.582 557.59 50.762 557.59 49.715 c 557.59 48.641 557.844 47.82 558.383
 47.227 c 558.895 46.605 559.602 46.293 560.48 46.293 c 561.359 46.293 562.066
 46.605 562.578 47.227 c 563.117 47.82 563.371 48.641 563.371 49.715 c 563.371
 50.762 563.117 51.582 562.578 52.203 c 562.066 52.797 561.359 53.109 560.48
 53.109 c h
564.391 59.273 m 564.391 57.492 l 563.91 57.719 563.398 57.891 562.891 
58.004 c 562.406 58.145 561.898 58.199 561.387 58.199 c 560.086 58.199 559.09
 57.746 558.41 56.871 c 557.73 55.996 557.336 54.695 557.25 52.91 c 557.617
 53.477 558.102 53.902 558.695 54.215 c 559.262 54.523 559.914 54.664 560.594
 54.664 c 562.066 54.664 563.23 54.215 564.078 53.336 c 564.93 52.43 565.355
 51.242 565.355 49.715 c 565.355 48.219 564.902 47 564.023 46.098 c 563.145
 45.191 561.953 44.738 560.48 44.738 c 558.809 44.738 557.504 45.391 556.625
 46.691 c 555.719 47.965 555.266 49.828 555.266 52.289 c 555.266 54.609 
555.832 56.445 556.91 57.805 c 558.016 59.16 559.488 59.867 561.328 59.867
 c 561.812 59.867 562.32 59.812 562.832 59.727 c 563.312 59.613 563.852 
59.473 564.391 59.273 c f*
0.905882 0.964706 0.937255 rg
567.309 80.598 113.418 -40.242 re f*
0.00392157 g
625.293 46.691 m 628.496 46.691 l 628.496 57.805 l 625.012 57.098 l 625.012
 58.906 l 628.496 59.613 l 630.453 59.613 l 630.453 46.691 l 633.684 46.691
 l 633.684 45.023 l 625.293 45.023 l 625.293 46.691 l f*
637.68 59.613 m 645.441 59.613 l 645.441 57.945 l 639.492 57.945 l 639.492
 54.355 l 639.773 54.469 640.059 54.523 640.344 54.582 c 640.625 54.637 
640.938 54.664 641.223 54.664 c 642.836 54.664 644.141 54.215 645.074 53.309
 c 646.039 52.43 646.492 51.215 646.492 49.688 c 646.492 48.133 646.012 
46.918 645.047 46.039 c 644.055 45.164 642.695 44.738 640.91 44.738 c 640.285
 44.738 639.66 44.797 639.039 44.91 c 638.414 44.992 637.734 45.164 637.055
 45.359 c 637.055 47.34 l 637.648 47.031 638.273 46.773 638.898 46.633 c
 639.52 46.465 640.172 46.406 640.883 46.406 c 641.984 46.406 642.895 46.691
 643.547 47.285 c 644.195 47.879 644.535 48.668 644.535 49.688 c 644.535
 50.707 644.195 51.527 643.547 52.121 c 642.895 52.715 641.984 52.996 640.883
 52.996 c 640.344 52.996 639.805 52.941 639.293 52.828 c 638.754 52.715 
638.219 52.516 637.68 52.262 c 637.68 59.613 l f*
654.57 58.312 m 653.578 58.312 652.812 57.805 652.301 56.816 c 651.793 
55.797 651.535 54.297 651.535 52.289 c 651.535 50.309 651.793 48.812 652.301
 47.793 c 652.812 46.805 653.578 46.293 654.57 46.293 c 655.617 46.293 656.383
 46.805 656.895 47.793 c 657.402 48.812 657.656 50.309 657.656 52.289 c 
657.656 54.297 657.402 55.797 656.895 56.816 c 656.383 57.805 655.617 58.312
 654.57 58.312 c h
654.57 59.867 m 656.215 59.867 657.461 59.219 658.34 57.918 c 659.188 56.645
 659.613 54.75 659.613 52.289 c 659.613 49.859 659.188 47.965 658.34 46.691
 c 657.461 45.391 656.215 44.738 654.57 44.738 c 652.953 44.738 651.707 
45.391 650.828 46.691 c 649.977 47.965 649.555 49.859 649.555 52.289 c 649.555
 54.75 649.977 56.645 650.828 57.918 c 651.707 59.219 652.953 59.867 654.57
 59.867 c f*
663.297 47.512 m 665.34 47.512 l 665.34 45.812 l 663.75 42.703 l 662.477
 42.703 l 663.297 45.812 l 663.297 47.512 l f*
675.426 52.883 m 676.391 52.684 677.129 52.262 677.664 51.609 c 678.176
 50.988 678.461 50.195 678.461 49.266 c 678.461 47.82 677.949 46.719 676.957
 45.926 c 675.965 45.137 674.578 44.738 672.734 44.738 c 672.141 44.738 
671.488 44.797 670.863 44.91 c 670.215 45.051 669.531 45.219 668.852 45.473
 c 668.852 47.367 l 669.391 47.059 669.984 46.805 670.637 46.633 c 671.289
 46.492 671.969 46.406 672.68 46.406 c 673.926 46.406 674.859 46.633 675.512
 47.145 c 676.164 47.625 676.477 48.332 676.477 49.266 c 676.477 50.113 
676.191 50.789 675.57 51.273 c 674.973 51.754 674.152 52.008 673.074 52.008
 c 671.375 52.008 l 671.375 53.617 l 673.133 53.617 l 674.121 53.617 674.859
 53.816 675.371 54.215 c 675.883 54.609 676.137 55.145 676.137 55.883 c 
676.137 56.617 675.883 57.211 675.344 57.605 c 674.805 58.004 674.066 58.199
 673.074 58.199 c 672.535 58.199 671.941 58.145 671.316 58.031 c 670.723
 57.918 670.043 57.719 669.277 57.465 c 669.277 59.246 l 670.043 59.445 
670.723 59.586 671.402 59.699 c 672.055 59.812 672.648 59.867 673.246 59.867
 c 674.746 59.867 675.938 59.531 676.789 58.852 c 677.664 58.172 678.121
 57.238 678.121 56.078 c 678.121 55.289 677.863 54.582 677.41 54.043 c 676.957
 53.477 676.305 53.082 675.426 52.883 c f*
0.796078 0.92549 0.870588 rg
0.027 40.355 113.332 -40.301 re f*
0.00392157 g
8.473 9.078 m 8.473 10.406 l 11.648 10.406 l 11.648 19.938 l 8.844 17.957
 l 8.844 19.43 l 11.762 21.465 l 13.234 21.465 l 13.234 10.406 l 16.238 
10.406 l 16.238 9.078 l 8.473 9.078 l f*
26.355 15.27 m 26.355 14.082 26.242 13.094 26.016 12.273 c 25.789 11.453
 25.508 10.805 25.109 10.324 c 24.711 9.812 24.258 9.445 23.719 9.219 c 
23.211 9.02 22.645 8.906 22.047 8.906 c 21.453 8.906 20.887 9.02 20.348 
9.219 c 19.84 9.445 19.383 9.812 18.988 10.293 c 18.621 10.805 18.309 11.453
 18.082 12.273 c 17.883 13.066 17.77 14.082 17.77 15.27 c 17.77 16.516 17.883
 17.562 18.082 18.355 c 18.309 19.172 18.621 19.824 19.016 20.305 c 19.383
 20.812 19.84 21.152 20.375 21.352 c 20.914 21.551 21.48 21.633 22.105 21.633
 c 22.699 21.633 23.238 21.551 23.75 21.352 c 24.289 21.152 24.742 20.812
 25.109 20.305 c 25.508 19.824 25.816 19.172 26.043 18.355 c 26.242 17.562
 26.355 16.516 26.355 15.27 c h
24.77 15.27 m 24.77 16.262 24.711 17.082 24.57 17.73 c 24.457 18.383 24.289
 18.891 24.059 19.285 c 23.836 19.684 23.551 19.938 23.238 20.105 c 22.898
 20.277 22.531 20.363 22.105 20.363 c 21.652 20.363 21.254 20.277 20.914
 20.105 c 20.574 19.938 20.293 19.656 20.066 19.285 c 19.84 18.891 19.668
 18.383 19.527 17.703 c 19.414 17.051 19.355 16.262 19.355 15.27 c 19.355
 14.309 19.414 13.52 19.555 12.867 c 19.668 12.219 19.84 11.707 20.066 11.312
 c 20.293 10.914 20.574 10.633 20.914 10.465 c 21.254 10.293 21.625 10.211
 22.047 10.211 c 22.473 10.211 22.844 10.293 23.184 10.465 c 23.523 10.633
 23.805 10.914 24.031 11.312 c 24.258 11.707 24.457 12.219 24.57 12.867 
c 24.684 13.52 24.77 14.309 24.77 15.27 c f*
36.332 15.27 m 36.332 14.082 36.219 13.094 35.992 12.273 c 35.766 11.453
 35.48 10.805 35.086 10.324 c 34.688 9.812 34.234 9.445 33.695 9.219 c 33.188
 9.02 32.621 8.906 32.023 8.906 c 31.43 8.906 30.863 9.02 30.324 9.219 c
 29.812 9.445 29.359 9.812 28.965 10.293 c 28.594 10.805 28.281 11.453 28.055
 12.273 c 27.859 13.066 27.746 14.082 27.746 15.27 c 27.746 16.516 27.859
 17.562 28.055 18.355 c 28.281 19.172 28.594 19.824 28.992 20.305 c 29.359
 20.812 29.812 21.152 30.352 21.352 c 30.891 21.551 31.457 21.633 32.082
 21.633 c 32.676 21.633 33.215 21.551 33.723 21.352 c 34.262 21.152 34.715
 20.812 35.086 20.305 c 35.48 19.824 35.793 19.172 36.02 18.355 c 36.219
 17.562 36.332 16.516 36.332 15.27 c h
34.746 15.27 m 34.746 16.262 34.688 17.082 34.547 17.73 c 34.434 18.383
 34.262 18.891 34.035 19.285 c 33.809 19.684 33.527 19.938 33.215 20.105
 c 32.875 20.277 32.508 20.363 32.082 20.363 c 31.629 20.363 31.23 20.277
 30.891 20.105 c 30.551 19.938 30.266 19.656 30.039 19.285 c 29.812 18.891
 29.645 18.383 29.504 17.703 c 29.391 17.051 29.332 16.262 29.332 15.27 
c 29.332 14.309 29.391 13.52 29.531 12.867 c 29.645 12.219 29.812 11.707
 30.039 11.312 c 30.266 10.914 30.551 10.633 30.891 10.465 c 31.23 10.293
 31.598 10.211 32.023 10.211 c 32.449 10.211 32.816 10.293 33.156 10.465
 c 33.496 10.633 33.781 10.914 34.008 11.312 c 34.234 11.707 34.434 12.219
 34.547 12.867 c 34.66 13.52 34.746 14.309 34.746 15.27 c f*
46.281 15.27 m 46.281 14.082 46.164 13.094 45.938 12.273 c 45.711 11.453
 45.43 10.805 45.031 10.324 c 44.637 9.812 44.184 9.445 43.645 9.219 c 43.133
 9.02 42.566 8.906 41.973 8.906 c 41.375 8.906 40.809 9.02 40.27 9.219 c
 39.762 9.445 39.309 9.812 38.91 10.293 c 38.543 10.805 38.23 11.453 38.004
 12.273 c 37.805 13.066 37.691 14.082 37.691 15.27 c 37.691 16.516 37.805
 17.562 38.004 18.355 c 38.23 19.172 38.543 19.824 38.938 20.305 c 39.309
 20.812 39.762 21.152 40.301 21.352 c 40.84 21.551 41.406 21.633 42.027 
21.633 c 42.625 21.633 43.16 21.551 43.672 21.352 c 44.211 21.152 44.664
 20.812 45.031 20.305 c 45.43 19.824 45.742 19.172 45.969 18.355 c 46.164
 17.562 46.281 16.516 46.281 15.27 c h
44.691 15.27 m 44.691 16.262 44.637 17.082 44.492 17.73 c 44.379 18.383
 44.211 18.891 43.984 19.285 c 43.758 19.684 43.473 19.938 43.16 20.105 
c 42.82 20.277 42.453 20.363 42.027 20.363 c 41.574 20.363 41.18 20.277 
40.84 20.105 c 40.496 19.938 40.215 19.656 39.988 19.285 c 39.762 18.891
 39.59 18.383 39.449 17.703 c 39.336 17.051 39.281 16.262 39.281 15.27 c
 39.281 14.309 39.336 13.52 39.477 12.867 c 39.59 12.219 39.762 11.707 39.988
 11.312 c 40.215 10.914 40.496 10.633 40.84 10.465 c 41.18 10.293 41.547
 10.211 41.973 10.211 c 42.398 10.211 42.766 10.293 43.105 10.465 c 43.445
 10.633 43.727 10.914 43.957 11.312 c 44.184 11.707 44.379 12.219 44.492
 12.867 c 44.605 13.52 44.691 14.309 44.691 15.27 c f*
0.796078 0.92549 0.870588 rg
113.359 40.355 113.504 -40.301 re f*
0.00392157 g
158.703 6.391 m 161.906 6.391 l 161.906 17.504 l 158.422 16.797 l 158.422
 18.609 l 161.906 19.316 l 163.863 19.316 l 163.863 6.391 l 167.094 6.391
 l 167.094 4.723 l 158.703 4.723 l 158.703 6.391 l f*
171.43 6.391 m 174.633 6.391 l 174.633 17.504 l 171.145 16.797 l 171.145
 18.609 l 174.633 19.316 l 176.586 19.316 l 176.586 6.391 l 179.816 6.391
 l 179.816 4.723 l 171.43 4.723 l 171.43 6.391 l f*
188.234 12.812 m 187.355 12.812 186.648 12.5 186.137 11.906 c 185.598 11.285
 185.344 10.465 185.344 9.418 c 185.344 8.344 185.598 7.523 186.137 6.93
 c 186.648 6.305 187.355 5.996 188.234 5.996 c 189.113 5.996 189.82 6.305
 190.332 6.93 c 190.871 7.523 191.125 8.344 191.125 9.418 c 191.125 10.465
 190.871 11.285 190.332 11.906 c 189.82 12.5 189.113 12.812 188.234 12.812
 c h
192.145 18.977 m 192.145 17.195 l 191.664 17.422 191.152 17.59 190.645 
17.703 c 190.16 17.844 189.652 17.902 189.141 17.902 c 187.84 17.902 186.848
 17.449 186.164 16.574 c 185.484 15.695 185.09 14.395 185.004 12.613 c 185.371
 13.18 185.855 13.602 186.449 13.914 c 187.016 14.227 187.668 14.367 188.348
 14.367 c 189.82 14.367 190.984 13.914 191.836 13.035 c 192.684 12.133 193.109
 10.945 193.109 9.418 c 193.109 7.918 192.656 6.703 191.777 5.797 c 190.898
 4.895 189.707 4.441 188.234 4.441 c 186.562 4.441 185.258 5.09 184.379 
6.391 c 183.473 7.664 183.02 9.531 183.02 11.992 c 183.02 14.309 183.586
 16.148 184.664 17.504 c 185.77 18.863 187.242 19.57 189.086 19.57 c 189.566
 19.57 190.078 19.512 190.586 19.43 c 191.066 19.316 191.605 19.172 192.145
 18.977 c f*
196.707 7.211 m 198.746 7.211 l 198.746 5.516 l 197.16 2.402 l 195.887 
2.402 l 196.707 5.516 l 196.707 7.211 l f*
202.375 19.316 m 211.758 19.316 l 211.758 18.469 l 206.457 4.723 l 204.387
 4.723 l 209.375 17.648 l 202.375 17.648 l 202.375 19.316 l f*
217.254 6.391 m 224.172 6.391 l 224.172 4.723 l 214.902 4.723 l 214.902
 6.391 l 215.641 7.156 216.66 8.199 217.965 9.5 c 219.238 10.805 220.059
 11.652 220.398 12.02 c 221.023 12.727 221.477 13.348 221.73 13.828 c 221.961
 14.309 222.102 14.789 222.102 15.27 c 222.102 16.062 221.816 16.684 221.277
 17.164 c 220.738 17.648 220.031 17.902 219.152 17.902 c 218.531 17.902 
217.879 17.789 217.199 17.59 c 216.52 17.363 215.781 17.051 214.988 16.602
 c 214.988 18.609 l 215.781 18.918 216.52 19.145 217.227 19.316 c 217.906
 19.484 218.531 19.57 219.125 19.57 c 220.629 19.57 221.816 19.172 222.723
 18.438 c 223.633 17.676 224.086 16.656 224.086 15.414 c 224.086 14.789 
223.973 14.227 223.742 13.688 c 223.52 13.148 223.121 12.527 222.527 11.793
 c 222.355 11.621 221.848 11.059 220.969 10.152 c 220.09 9.277 218.871 8.004
 217.254 6.391 c f*
0.796078 0.92549 0.870588 rg
226.863 40.355 113.613 -40.301 re f*
0.00392157 g
285.07 6.391 m 288.273 6.391 l 288.273 17.504 l 284.789 16.797 l 284.789
 18.609 l 288.273 19.316 l 290.23 19.316 l 290.23 6.391 l 293.461 6.391 
l 293.461 4.723 l 285.07 4.723 l 285.07 6.391 l f*
297.797 6.391 m 301 6.391 l 301 17.504 l 297.512 16.797 l 297.512 18.609
 l 301 19.316 l 302.953 19.316 l 302.953 6.391 l 306.188 6.391 l 306.188
 4.723 l 297.797 4.723 l 297.797 6.391 l f*
314.602 12.812 m 313.723 12.812 313.016 12.5 312.504 11.906 c 311.969 11.285
 311.711 10.465 311.711 9.418 c 311.711 8.344 311.969 7.523 312.504 6.93
 c 313.016 6.305 313.723 5.996 314.602 5.996 c 315.48 5.996 316.188 6.305
 316.699 6.93 c 317.238 7.523 317.492 8.344 317.492 9.418 c 317.492 10.465
 317.238 11.285 316.699 11.906 c 316.188 12.5 315.48 12.812 314.602 12.812
 c h
318.512 18.977 m 318.512 17.195 l 318.031 17.422 317.52 17.59 317.012 17.703
 c 316.527 17.844 316.02 17.902 315.508 17.902 c 314.203 17.902 313.215 
17.449 312.535 16.574 c 311.855 15.695 311.457 14.395 311.371 12.613 c 311.738
 13.18 312.223 13.602 312.816 13.914 c 313.383 14.227 314.035 14.367 314.715
 14.367 c 316.188 14.367 317.352 13.914 318.203 13.035 c 319.051 12.133 
319.477 10.945 319.477 9.418 c 319.477 7.918 319.023 6.703 318.145 5.797
 c 317.266 4.895 316.074 4.441 314.602 4.441 c 312.93 4.441 311.629 5.09
 310.746 6.391 c 309.84 7.664 309.387 9.531 309.387 11.992 c 309.387 14.309
 309.953 16.148 311.031 17.504 c 312.137 18.863 313.609 19.57 315.453 19.57
 c 315.934 19.57 316.445 19.512 316.953 19.43 c 317.438 19.316 317.977 19.172
 318.512 18.977 c f*
323.074 7.211 m 325.117 7.211 l 325.117 5.516 l 323.527 2.402 l 322.254
 2.402 l 323.074 5.516 l 323.074 7.211 l f*
328.742 19.316 m 338.125 19.316 l 338.125 18.469 l 332.824 4.723 l 330.758
 4.723 l 335.742 17.648 l 328.742 17.648 l 328.742 19.316 l f*
0.796078 0.92549 0.870588 rg
340.477 40.355 113.332 -40.301 re f*
0.00392157 g
385.652 6.391 m 388.852 6.391 l 388.852 17.504 l 385.367 16.797 l 385.367
 18.609 l 388.852 19.316 l 390.809 19.316 l 390.809 6.391 l 394.039 6.391
 l 394.039 4.723 l 385.652 4.723 l 385.652 6.391 l f*
399.707 6.391 m 406.621 6.391 l 406.621 4.723 l 397.355 4.723 l 397.355
 6.391 l 398.094 7.156 399.113 8.199 400.414 9.5 c 401.691 10.805 402.512
 11.652 402.852 12.02 c 403.477 12.727 403.93 13.348 404.184 13.828 c 404.41
 14.309 404.555 14.789 404.555 15.27 c 404.555 16.062 404.27 16.684 403.73
 17.164 c 403.191 17.648 402.484 17.902 401.605 17.902 c 400.984 17.902 
400.332 17.789 399.652 17.59 c 398.973 17.363 398.234 17.051 397.441 16.602
 c 397.441 18.609 l 398.234 18.918 398.973 19.145 399.68 19.316 c 400.359
 19.484 400.984 19.57 401.578 19.57 c 403.078 19.57 404.27 19.172 405.176
 18.438 c 406.086 17.676 406.539 16.656 406.539 15.414 c 406.539 14.789 
406.426 14.227 406.195 13.688 c 405.973 13.148 405.574 12.527 404.98 11.793
 c 404.809 11.621 404.297 11.059 403.422 10.152 c 402.539 9.277 401.324 
8.004 399.707 6.391 c f*
416.684 12.586 m 417.645 12.387 418.383 11.961 418.922 11.312 c 419.434
 10.691 419.715 9.898 419.715 8.965 c 419.715 7.523 419.203 6.418 418.215
 5.629 c 417.223 4.836 415.832 4.441 413.992 4.441 c 413.395 4.441 412.742
 4.496 412.121 4.609 c 411.469 4.75 410.789 4.922 410.109 5.176 c 410.109
 7.07 l 410.645 6.758 411.242 6.504 411.895 6.336 c 412.547 6.195 413.227
 6.109 413.934 6.109 c 415.18 6.109 416.117 6.336 416.77 6.844 c 417.422
 7.324 417.73 8.031 417.73 8.965 c 417.73 9.812 417.449 10.492 416.824 10.973
 c 416.23 11.453 415.406 11.707 414.332 11.707 c 412.629 11.707 l 412.629
 13.32 l 414.387 13.32 l 415.379 13.32 416.117 13.52 416.629 13.914 c 417.137
 14.309 417.391 14.848 417.391 15.582 c 417.391 16.316 417.137 16.91 416.598
 17.309 c 416.059 17.703 415.324 17.902 414.332 17.902 c 413.793 17.902 
413.195 17.844 412.574 17.73 c 411.98 17.617 411.297 17.422 410.531 17.164
 c 410.531 18.949 l 411.297 19.145 411.98 19.285 412.66 19.398 c 413.312
 19.512 413.906 19.57 414.5 19.57 c 416.004 19.57 417.191 19.23 418.043 
18.551 c 418.922 17.871 419.375 16.941 419.375 15.781 c 419.375 14.988 419.121
 14.281 418.668 13.742 c 418.215 13.18 417.562 12.781 416.684 12.586 c f*
423.656 7.211 m 425.695 7.211 l 425.695 5.516 l 424.109 2.402 l 422.832
 2.402 l 423.656 5.516 l 423.656 7.211 l f*
434.027 18.016 m 433.035 18.016 432.27 17.504 431.762 16.516 c 431.25 15.496
 430.996 14 430.996 11.992 c 430.996 10.012 431.25 8.512 431.762 7.492 c
 432.27 6.504 433.035 5.996 434.027 5.996 c 435.074 5.996 435.84 6.504 436.352
 7.492 c 436.859 8.512 437.117 10.012 437.117 11.992 c 437.117 14 436.859
 15.496 436.352 16.516 c 435.84 17.504 435.074 18.016 434.027 18.016 c h
434.027 19.57 m 435.672 19.57 436.918 18.918 437.797 17.617 c 438.645 16.344
 439.07 14.453 439.07 11.992 c 439.07 9.559 438.645 7.664 437.797 6.391 
c 436.918 5.09 435.672 4.441 434.027 4.441 c 432.41 4.441 431.164 5.09 430.285
 6.391 c 429.438 7.664 429.012 9.559 429.012 11.992 c 429.012 14.453 429.438
 16.344 430.285 17.617 c 431.164 18.918 432.41 19.57 434.027 19.57 c f*
442.02 19.316 m 451.398 19.316 l 451.398 18.469 l 446.102 4.723 l 444.031
 4.723 l 449.02 17.648 l 442.02 17.648 l 442.02 19.316 l f*
0.796078 0.92549 0.870588 rg
453.809 40.355 113.504 -40.301 re f*
0.00392157 g
499.152 6.391 m 502.355 6.391 l 502.355 17.504 l 498.867 16.797 l 498.867
 18.609 l 502.355 19.316 l 504.309 19.316 l 504.309 6.391 l 507.539 6.391
 l 507.539 4.723 l 499.152 4.723 l 499.152 6.391 l f*
511.879 6.391 m 515.078 6.391 l 515.078 17.504 l 511.594 16.797 l 511.594
 18.609 l 515.078 19.316 l 517.035 19.316 l 517.035 6.391 l 520.266 6.391
 l 520.266 4.723 l 511.879 4.723 l 511.879 6.391 l f*
528.684 12.812 m 527.805 12.812 527.098 12.5 526.586 11.906 c 526.047 11.285
 525.793 10.465 525.793 9.418 c 525.793 8.344 526.047 7.523 526.586 6.93
 c 527.098 6.305 527.805 5.996 528.684 5.996 c 529.562 5.996 530.27 6.305
 530.781 6.93 c 531.316 7.523 531.574 8.344 531.574 9.418 c 531.574 10.465
 531.316 11.285 530.781 11.906 c 530.27 12.5 529.562 12.812 528.684 12.812
 c h
532.594 18.977 m 532.594 17.195 l 532.113 17.422 531.602 17.59 531.094 
17.703 c 530.609 17.844 530.102 17.902 529.59 17.902 c 528.285 17.902 527.293
 17.449 526.613 16.574 c 525.934 15.695 525.535 14.395 525.453 12.613 c 
525.82 13.18 526.301 13.602 526.898 13.914 c 527.465 14.227 528.117 14.367
 528.797 14.367 c 530.27 14.367 531.434 13.914 532.281 13.035 c 533.133 
12.133 533.559 10.945 533.559 9.418 c 533.559 7.918 533.105 6.703 532.227
 5.797 c 531.348 4.895 530.156 4.441 528.684 4.441 c 527.012 4.441 525.707
 5.09 524.828 6.391 c 523.922 7.664 523.469 9.531 523.469 11.992 c 523.469
 14.309 524.035 16.148 525.113 17.504 c 526.219 18.863 527.691 19.57 529.531
 19.57 c 530.016 19.57 530.523 19.512 531.035 19.43 c 531.516 19.316 532.055
 19.172 532.594 18.977 c f*
537.156 7.211 m 539.195 7.211 l 539.195 5.516 l 537.609 2.402 l 536.336
 2.402 l 537.156 5.516 l 537.156 7.211 l f*
542.824 19.316 m 552.203 19.316 l 552.203 18.469 l 546.906 4.723 l 544.836
 4.723 l 549.824 17.648 l 542.824 17.648 l 542.824 19.316 l f*
560.48 12.812 m 559.602 12.812 558.895 12.5 558.383 11.906 c 557.844 11.285
 557.59 10.465 557.59 9.418 c 557.59 8.344 557.844 7.523 558.383 6.93 c 
558.895 6.305 559.602 5.996 560.48 5.996 c 561.359 5.996 562.066 6.305 562.578
 6.93 c 563.117 7.523 563.371 8.344 563.371 9.418 c 563.371 10.465 563.117
 11.285 562.578 11.906 c 562.066 12.5 561.359 12.812 560.48 12.812 c h
564.391 18.977 m 564.391 17.195 l 563.91 17.422 563.398 17.59 562.891 17.703
 c 562.406 17.844 561.898 17.902 561.387 17.902 c 560.086 17.902 559.09 
17.449 558.41 16.574 c 557.73 15.695 557.336 14.395 557.25 12.613 c 557.617
 13.18 558.102 13.602 558.695 13.914 c 559.262 14.227 559.914 14.367 560.594
 14.367 c 562.066 14.367 563.23 13.914 564.078 13.035 c 564.93 12.133 565.355
 10.945 565.355 9.418 c 565.355 7.918 564.902 6.703 564.023 5.797 c 563.145
 4.895 561.953 4.441 560.48 4.441 c 558.809 4.441 557.504 5.09 556.625 6.391
 c 555.719 7.664 555.266 9.531 555.266 11.992 c 555.266 14.309 555.832 16.148
 556.91 17.504 c 558.016 18.863 559.488 19.57 561.328 19.57 c 561.812 19.57
 562.32 19.512 562.832 19.43 c 563.312 19.316 563.852 19.172 564.391 18.977
 c f*
0.796078 0.92549 0.870588 rg
567.309 40.355 113.418 -40.301 re f*
0.00392157 g
625.293 6.391 m 628.496 6.391 l 628.496 17.504 l 625.012 16.797 l 625.012
 18.609 l 628.496 19.316 l 630.453 19.316 l 630.453 6.391 l 633.684 6.391
 l 633.684 4.723 l 625.293 4.723 l 625.293 6.391 l f*
637.68 19.316 m 645.441 19.316 l 645.441 17.648 l 639.492 17.648 l 639.492
 14.055 l 639.773 14.168 640.059 14.227 640.344 14.281 c 640.625 14.34 640.938
 14.367 641.223 14.367 c 642.836 14.367 644.141 13.914 645.074 13.008 c 
646.039 12.133 646.492 10.914 646.492 9.391 c 646.492 7.832 646.012 6.617
 645.047 5.742 c 644.055 4.863 642.695 4.441 640.91 4.441 c 640.285 4.441
 639.66 4.496 639.039 4.609 c 638.414 4.695 637.734 4.863 637.055 5.062 
c 637.055 7.043 l 637.648 6.73 638.273 6.477 638.898 6.336 c 639.52 6.164
 640.172 6.109 640.883 6.109 c 641.984 6.109 642.895 6.391 643.547 6.984
 c 644.195 7.578 644.535 8.371 644.535 9.391 c 644.535 10.406 644.195 11.227
 643.547 11.82 c 642.895 12.414 641.984 12.699 640.883 12.699 c 640.344 
12.699 639.805 12.641 639.293 12.527 c 638.754 12.414 638.219 12.219 637.68
 11.961 c 637.68 19.316 l f*
654.57 18.016 m 653.578 18.016 652.812 17.504 652.301 16.516 c 651.793 
15.496 651.535 14 651.535 11.992 c 651.535 10.012 651.793 8.512 652.301 
7.492 c 652.812 6.504 653.578 5.996 654.57 5.996 c 655.617 5.996 656.383
 6.504 656.895 7.492 c 657.402 8.512 657.656 10.012 657.656 11.992 c 657.656
 14 657.402 15.496 656.895 16.516 c 656.383 17.504 655.617 18.016 654.57
 18.016 c h
654.57 19.57 m 656.215 19.57 657.461 18.918 658.34 17.617 c 659.188 16.344
 659.613 14.453 659.613 11.992 c 659.613 9.559 659.188 7.664 658.34 6.391
 c 657.461 5.09 656.215 4.441 654.57 4.441 c 652.953 4.441 651.707 5.09 
650.828 6.391 c 649.977 7.664 649.555 9.559 649.555 11.992 c 649.555 14.453
 649.977 16.344 650.828 17.617 c 651.707 18.918 652.953 19.57 654.57 19.57
 c f*
663.297 7.211 m 665.34 7.211 l 665.34 5.516 l 663.75 2.402 l 662.477 2.402
 l 663.297 5.516 l 663.297 7.211 l f*
675.426 12.586 m 676.391 12.387 677.129 11.961 677.664 11.312 c 678.176
 10.691 678.461 9.898 678.461 8.965 c 678.461 7.523 677.949 6.418 676.957
 5.629 c 675.965 4.836 674.578 4.441 672.734 4.441 c 672.141 4.441 671.488
 4.496 670.863 4.609 c 670.215 4.75 669.531 4.922 668.852 5.176 c 668.852
 7.07 l 669.391 6.758 669.984 6.504 670.637 6.336 c 671.289 6.195 671.969
 6.109 672.68 6.109 c 673.926 6.109 674.859 6.336 675.512 6.844 c 676.164
 7.324 676.477 8.031 676.477 8.965 c 676.477 9.812 676.191 10.492 675.57
 10.973 c 674.973 11.453 674.152 11.707 673.074 11.707 c 671.375 11.707 
l 671.375 13.32 l 673.133 13.32 l 674.121 13.32 674.859 13.52 675.371 13.914
 c 675.883 14.309 676.137 14.848 676.137 15.582 c 676.137 16.316 675.883
 16.91 675.344 17.309 c 674.805 17.703 674.066 17.902 673.074 17.902 c 672.535
 17.902 671.941 17.844 671.316 17.73 c 670.723 17.617 670.043 17.422 669.277
 17.164 c 669.277 18.949 l 670.043 19.145 670.723 19.285 671.402 19.398 
c 672.055 19.512 672.648 19.57 673.246 19.57 c 674.746 19.57 675.938 19.23
 676.789 18.551 c 677.664 17.871 678.121 16.941 678.121 15.781 c 678.121
 14.988 677.863 14.281 677.41 13.742 c 676.957 13.18 676.305 12.781 675.426
 12.586 c f*
1 g
540.312 188.344 m 537.227 188.344 l 535.555 195.496 l 535.496 195.723 535.441
 195.977 535.383 196.262 c 535.324 196.57 535.27 196.855 535.215 197.137
 c 535.156 197.477 535.102 197.789 535.043 198.156 c 534.988 197.789 534.902
 197.449 534.844 197.137 c 534.816 196.996 534.789 196.855 534.762 196.684
 c 534.73 196.543 534.703 196.402 534.676 196.262 c 534.645 196.117 534.59
 195.977 534.59 195.836 c 534.562 195.723 534.531 195.609 534.504 195.496
 c 532.832 188.344 l 529.742 188.344 l 526.57 200.73 l 529.176 200.73 l 
530.734 193.828 l 530.82 193.461 530.906 193.094 530.992 192.727 c 531.047
 192.355 531.133 192.047 531.188 191.734 c 531.273 191.426 531.332 191.086
 531.387 190.801 c 531.473 191.227 531.559 191.648 531.641 192.047 c 531.672
 192.246 531.699 192.414 531.758 192.613 c 531.785 192.781 531.84 192.98
 531.867 193.148 c 531.898 193.348 531.953 193.516 531.98 193.688 c 532.012
 193.855 532.066 193.996 532.098 194.141 c 533.625 200.73 l 536.516 200.73
 l 538.074 194.141 l 538.105 193.996 538.16 193.828 538.188 193.66 c 538.219
 193.488 538.246 193.32 538.301 193.121 c 538.332 192.953 538.359 192.754
 538.387 192.582 c 538.445 192.387 538.473 192.215 538.5 192.02 c 538.559
 191.621 538.641 191.199 538.699 190.801 c 538.785 191.113 538.84 191.453
 538.926 191.82 c 538.98 192.102 539.066 192.441 539.152 192.781 c 539.238
 193.148 539.293 193.488 539.379 193.828 c 540.883 200.73 l 543.516 200.73
 l 540.312 188.344 l f*
544.594 199.57 m 544.594 201.379 l 547.059 201.379 l 547.059 199.57 l h
544.594 188.344 m 544.594 197.844 l 547.059 197.844 l 547.059 188.344 l
 544.594 188.344 l f*
552.16 198.691 m 552.16 194.875 l 558.508 194.875 l 558.508 192.867 l 552.16
 192.867 l 552.16 188.312 l 549.555 188.312 l 549.555 200.699 l 558.707 
200.699 l 558.707 198.691 l 552.16 198.691 l f*
560.66 199.57 m 560.66 201.379 l 563.129 201.379 l 563.129 199.57 l h
560.66 188.344 m 560.66 197.844 l 563.129 197.844 l 563.129 188.344 l 560.66
 188.344 l f*
Q Q
showpage
%%Trailer
end restore
%%EOF
